<?xml version="1.0" encoding="UTF-8" standalone="no"?>
<svg
   width="432"
   height="576"
   viewBox="0 0 432 576"
   version="1.1"
   id="svg2453"
   sodipodi:docname="fig-cap4-14-comp-acel-solrig.svg"
   inkscape:version="1.2.1 (9c6d41e410, 2022-07-14)"
   xmlns:inkscape="http://www.inkscape.org/namespaces/inkscape"
   xmlns:sodipodi="http://sodipodi.sourceforge.net/DTD/sodipodi-0.dtd"
   xmlns="http://www.w3.org/2000/svg"
   xmlns:svg="http://www.w3.org/2000/svg"
   xmlns:rdf="http://www.w3.org/1999/02/22-rdf-syntax-ns#"
   xmlns:cc="http://creativecommons.org/ns#"
   xmlns:dc="http://purl.org/dc/elements/1.1/"
   xmlns:ns4="http://www.iki.fi/pav/software/textext/">
  <metadata
     id="metadata2457">
    <rdf:RDF>
      <cc:Work
         rdf:about="">
        <dc:format>image/svg+xml</dc:format>
        <dc:type
           rdf:resource="http://purl.org/dc/dcmitype/StillImage" />
        <dc:title>gl2ps_renderer figure</dc:title>
      </cc:Work>
    </rdf:RDF>
  </metadata>
  <sodipodi:namedview
     pagecolor="#ffffff"
     bordercolor="#666666"
     borderopacity="1"
     objecttolerance="10"
     gridtolerance="10"
     guidetolerance="10"
     inkscape:pageopacity="0"
     inkscape:pageshadow="2"
     inkscape:window-width="1920"
     inkscape:window-height="1026"
     id="namedview2455"
     showgrid="false"
     showguides="true"
     inkscape:guide-bbox="true"
     inkscape:zoom="4.6780197"
     inkscape:cx="227.12602"
     inkscape:cy="96.301433"
     inkscape:window-x="0"
     inkscape:window-y="0"
     inkscape:window-maximized="1"
     inkscape:current-layer="svg2453"
     inkscape:pagecheckerboard="0"
     inkscape:showpageshadow="2"
     inkscape:deskcolor="#d1d1d1" />
  <title
     id="title2">gl2ps_renderer figure</title>
  <desc
     id="desc4">
Creator: GL2PS 1.3.9, (C) 1999-2015 C. Geuzaine
For: Octave
CreationDate: Sun Jun  4 15:11:52 2017
</desc>
  <defs
     id="defs6">
    <marker
       inkscape:isstock="true"
       style="overflow:visible"
       id="marker5571"
       refX="0.0"
       refY="0.0"
       orient="auto"
       inkscape:stockid="Arrow1Mstart">
      <path
         transform="scale(0.4) translate(10,0)"
         style="fill-rule:evenodd;stroke:#008000;stroke-width:1pt;stroke-opacity:1;fill:#008000;fill-opacity:1"
         d="M 0.0,0.0 L 5.0,-5.0 L -12.5,0.0 L 5.0,5.0 L 0.0,0.0 z "
         id="path5569" />
    </marker>
    <marker
       inkscape:stockid="Arrow1Mend"
       orient="auto"
       refY="0.0"
       refX="0.0"
       id="marker5507"
       style="overflow:visible;"
       inkscape:isstock="true">
      <path
         id="path5505"
         d="M 0.0,0.0 L 5.0,-5.0 L -12.5,0.0 L 5.0,5.0 L 0.0,0.0 z "
         style="fill-rule:evenodd;stroke:#008000;stroke-width:1pt;stroke-opacity:1;fill:#008000;fill-opacity:1"
         transform="scale(0.4) rotate(180) translate(10,0)" />
    </marker>
    <marker
       inkscape:isstock="true"
       style="overflow:visible;"
       id="marker5138"
       refX="0.0"
       refY="0.0"
       orient="auto"
       inkscape:stockid="Arrow1Mend"
       inkscape:collect="always">
      <path
         transform="scale(0.4) rotate(180) translate(10,0)"
         style="fill-rule:evenodd;stroke:#0000ff;stroke-width:1pt;stroke-opacity:1;fill:#0000ff;fill-opacity:1"
         d="M 0.0,0.0 L 5.0,-5.0 L -12.5,0.0 L 5.0,5.0 L 0.0,0.0 z "
         id="path5136" />
    </marker>
    <marker
       inkscape:stockid="Arrow1Mend"
       orient="auto"
       refY="0.0"
       refX="0.0"
       id="marker5050"
       style="overflow:visible;"
       inkscape:isstock="true"
       inkscape:collect="always">
      <path
         id="path5048"
         d="M 0.0,0.0 L 5.0,-5.0 L -12.5,0.0 L 5.0,5.0 L 0.0,0.0 z "
         style="fill-rule:evenodd;stroke:#000000;stroke-width:1pt;stroke-opacity:1;fill:#000000;fill-opacity:1"
         transform="scale(0.4) rotate(180) translate(10,0)" />
    </marker>
    <marker
       inkscape:stockid="Arrow1Mstart"
       orient="auto"
       refY="0.0"
       refX="0.0"
       id="Arrow1Mstart"
       style="overflow:visible"
       inkscape:isstock="true"
       inkscape:collect="always">
      <path
         id="path4716"
         d="M 0.0,0.0 L 5.0,-5.0 L -12.5,0.0 L 5.0,5.0 L 0.0,0.0 z "
         style="fill-rule:evenodd;stroke:#000000;stroke-width:1pt;stroke-opacity:1;fill:#000000;fill-opacity:1"
         transform="scale(0.4) translate(10,0)" />
    </marker>
    <marker
       inkscape:isstock="true"
       style="overflow:visible;"
       id="marker5760"
       refX="0.0"
       refY="0.0"
       orient="auto"
       inkscape:stockid="Arrow1Mend"
       inkscape:collect="always">
      <path
         transform="scale(0.4) rotate(180) translate(10,0)"
         style="fill-rule:evenodd;stroke:#ff0000;stroke-width:1pt;stroke-opacity:1;fill:#ff0000;fill-opacity:1"
         d="M 0.0,0.0 L 5.0,-5.0 L -12.5,0.0 L 5.0,5.0 L 0.0,0.0 z "
         id="path5758" />
    </marker>
    <clipPath
       id="cp00576432">
      <polygon
         id="polygon12"
         points="576,432 576,0 0,0 0,432 " />
    </clipPath>
    <clipPath
       id="clipPath81">
      <polygon
         id="polygon79"
         points="576,432 576,0 0,0 0,432 " />
    </clipPath>
    <clipPath
       id="clipPath149">
      <polygon
         id="polygon147"
         points="576,432 576,0 0,0 0,432 " />
    </clipPath>
    <clipPath
       id="clipPath217">
      <polygon
         id="polygon215"
         points="576,432 576,0 0,0 0,432 " />
    </clipPath>
    <clipPath
       id="clipPath285">
      <polygon
         id="polygon283"
         points="576,432 576,0 0,0 0,432 " />
    </clipPath>
    <clipPath
       id="clipPath353">
      <polygon
         id="polygon351"
         points="576,432 576,0 0,0 0,432 " />
    </clipPath>
    <clipPath
       id="clipPath421">
      <polygon
         id="polygon419"
         points="576,432 576,0 0,0 0,432 " />
    </clipPath>
    <clipPath
       id="clipPath489">
      <polygon
         id="polygon487"
         points="576,432 576,0 0,0 0,432 " />
    </clipPath>
    <clipPath
       id="clipPath557">
      <polygon
         id="polygon555"
         points="576,432 576,0 0,0 0,432 " />
    </clipPath>
    <clipPath
       id="clipPath625">
      <polygon
         id="polygon623"
         points="576,432 576,0 0,0 0,432 " />
    </clipPath>
    <clipPath
       id="clipPath693">
      <polygon
         id="polygon691"
         points="576,432 576,0 0,0 0,432 " />
    </clipPath>
    <clipPath
       id="clipPath761">
      <polygon
         id="polygon759"
         points="576,432 576,0 0,0 0,432 " />
    </clipPath>
    <clipPath
       id="clipPath829">
      <polygon
         id="polygon827"
         points="576,432 576,0 0,0 0,432 " />
    </clipPath>
    <clipPath
       id="clipPath897">
      <polygon
         id="polygon895"
         points="576,432 576,0 0,0 0,432 " />
    </clipPath>
    <clipPath
       id="clipPath965">
      <polygon
         id="polygon963"
         points="576,432 576,0 0,0 0,432 " />
    </clipPath>
    <clipPath
       id="clipPath1033">
      <polygon
         id="polygon1031"
         points="576,432 576,0 0,0 0,432 " />
    </clipPath>
    <clipPath
       id="clipPath1101">
      <polygon
         id="polygon1099"
         points="576,432 576,0 0,0 0,432 " />
    </clipPath>
    <clipPath
       id="clipPath1169">
      <polygon
         id="polygon1167"
         points="576,432 576,0 0,0 0,432 " />
    </clipPath>
    <clipPath
       id="clipPath1237">
      <polygon
         id="polygon1235"
         points="576,432 576,0 0,0 0,432 " />
    </clipPath>
    <clipPath
       id="clipPath1305">
      <polygon
         id="polygon1303"
         points="576,432 576,0 0,0 0,432 " />
    </clipPath>
    <clipPath
       id="clipPath1373">
      <polygon
         id="polygon1371"
         points="576,432 576,0 0,0 0,432 " />
    </clipPath>
    <clipPath
       id="clipPath1453">
      <polygon
         id="polygon1451"
         points="576,432 576,0 0,0 0,432 " />
    </clipPath>
    <clipPath
       id="clipPath1533">
      <polygon
         id="polygon1531"
         points="576,432 576,0 0,0 0,432 " />
    </clipPath>
    <clipPath
       id="clipPath1613">
      <polygon
         id="polygon1611"
         points="576,432 576,0 0,0 0,432 " />
    </clipPath>
    <clipPath
       id="clipPath1693">
      <polygon
         id="polygon1691"
         points="576,432 576,0 0,0 0,432 " />
    </clipPath>
    <clipPath
       id="clipPath1773">
      <polygon
         id="polygon1771"
         points="576,432 576,0 0,0 0,432 " />
    </clipPath>
    <clipPath
       id="clipPath1841">
      <polygon
         id="polygon1839"
         points="576,432 576,0 0,0 0,432 " />
    </clipPath>
    <clipPath
       id="clipPath1909">
      <polygon
         id="polygon1907"
         points="576,432 576,0 0,0 0,432 " />
    </clipPath>
    <clipPath
       id="clipPath1977">
      <polygon
         id="polygon1975"
         points="576,432 576,0 0,0 0,432 " />
    </clipPath>
    <clipPath
       id="clipPath2045">
      <polygon
         id="polygon2043"
         points="576,432 576,0 0,0 0,432 " />
    </clipPath>
    <clipPath
       id="clipPath2113">
      <polygon
         id="polygon2111"
         points="576,432 576,0 0,0 0,432 " />
    </clipPath>
    <clipPath
       id="clipPath2181">
      <polygon
         id="polygon2179"
         points="576,432 576,0 0,0 0,432 " />
    </clipPath>
    <clipPath
       id="clipPath2249">
      <polygon
         id="polygon2247"
         points="576,432 576,0 0,0 0,432 " />
    </clipPath>
    <clipPath
       id="clipPath2317">
      <polygon
         id="polygon2315"
         points="576,432 576,0 0,0 0,432 " />
    </clipPath>
    <clipPath
       id="clipPath2385">
      <polygon
         id="polygon2383"
         points="576,432 576,0 0,0 0,432 " />
    </clipPath>
    <marker
       inkscape:isstock="true"
       style="overflow:visible"
       id="marker5760-6"
       refX="0"
       refY="0"
       orient="auto"
       inkscape:stockid="Arrow1Mend">
      <path
         inkscape:connector-curvature="0"
         transform="matrix(-0.4,0,0,-0.4,-4,0)"
         style="fill:#008000;fill-opacity:1;fill-rule:evenodd;stroke:#008000;stroke-width:1.00000003pt;stroke-opacity:1"
         d="M 0,0 5,-5 -12.5,0 5,5 Z"
         id="path5758-2" />
    </marker>
    <marker
       inkscape:isstock="true"
       style="overflow:visible"
       id="marker5760-1"
       refX="0"
       refY="0"
       orient="auto"
       inkscape:stockid="Arrow1Mend">
      <path
         inkscape:connector-curvature="0"
         transform="matrix(-0.4,0,0,-0.4,-4,0)"
         style="fill:#ff0000;fill-opacity:1;fill-rule:evenodd;stroke:#ff0000;stroke-width:1.00000003pt;stroke-opacity:1"
         d="M 0,0 5,-5 -12.5,0 5,5 Z"
         id="path5758-5" />
    </marker>
    <marker
       inkscape:isstock="true"
       style="overflow:visible"
       id="marker5571-9"
       refX="0"
       refY="0"
       orient="auto"
       inkscape:stockid="Arrow1Mstart">
      <path
         inkscape:connector-curvature="0"
         transform="matrix(0.4,0,0,0.4,4,0)"
         style="fill:#008000;fill-opacity:1;fill-rule:evenodd;stroke:#008000;stroke-width:1.00000003pt;stroke-opacity:1"
         d="M 0,0 5,-5 -12.5,0 5,5 Z"
         id="path5569-9" />
    </marker>
    <marker
       inkscape:isstock="true"
       style="overflow:visible"
       id="marker5138-1"
       refX="0"
       refY="0"
       orient="auto"
       inkscape:stockid="Arrow1Mend"
       inkscape:collect="always">
      <path
         inkscape:connector-curvature="0"
         transform="matrix(-0.4,0,0,-0.4,-4,0)"
         style="fill:#800080;fill-opacity:1;fill-rule:evenodd;stroke:#800080;stroke-width:1.00000003pt;stroke-opacity:1"
         d="M 0,0 5,-5 -12.5,0 5,5 Z"
         id="path5136-7" />
    </marker>
    <marker
       inkscape:isstock="true"
       style="overflow:visible"
       id="marker5760-0"
       refX="0"
       refY="0"
       orient="auto"
       inkscape:stockid="Arrow1Mend"
       inkscape:collect="always">
      <path
         inkscape:connector-curvature="0"
         transform="matrix(-0.4,0,0,-0.4,-4,0)"
         style="fill:#ff0000;fill-opacity:1;fill-rule:evenodd;stroke:#ff0000;stroke-width:1.00000003pt;stroke-opacity:1"
         d="M 0,0 5,-5 -12.5,0 5,5 Z"
         id="path5758-4" />
    </marker>
    <marker
       inkscape:isstock="true"
       style="overflow:visible"
       id="marker5760-5"
       refX="0"
       refY="0"
       orient="auto"
       inkscape:stockid="Arrow1Mend"
       inkscape:collect="always">
      <path
         inkscape:connector-curvature="0"
         transform="matrix(-0.4,0,0,-0.4,-4,0)"
         style="fill:#008000;fill-opacity:1;fill-rule:evenodd;stroke:#008000;stroke-width:1.00000003pt;stroke-opacity:1"
         d="M 0,0 5,-5 -12.5,0 5,5 Z"
         id="path5758-6" />
    </marker>
    <g
       id="id-a0b9a1a3-8b84-4f38-ac05-d0f2399c674a-7">
      <symbol
         overflow="visible"
         id="id-86f0d8db-f88f-4c24-87f1-7c792d153f0f-5">
        <path
           style="stroke:none;stroke-width:0"
           d=""
           id="id-9d4c5df1-1f60-4997-89bc-fec29933f5f7-3" />
      </symbol>
      <symbol
         overflow="visible"
         id="id-e1360e1f-c51a-42d8-a6cc-1fb591c66d1b-5">
        <path
           style="stroke:none;stroke-width:0"
           d="m 7.515625,-5.296875 c 0,-0.78125 -0.65625,-1.515625 -1.96875,-1.515625 h -3.21875 c -0.1875,0 -0.296875,0 -0.296875,0.1875 0,0.125 0.078125,0.125 0.28125,0.125 0.125,0 0.3125,0.015625 0.421875,0.015625 0.171875,0.03125 0.21875,0.046875 0.21875,0.171875 0,0.03125 0,0.0625 -0.03125,0.1875 l -1.34375,5.34375 c -0.09375,0.390625 -0.109375,0.46875 -0.90625,0.46875 -0.15625,0 -0.265625,0 -0.265625,0.1875 C 0.40625,0 0.515625,0 0.546875,0 L 1.8125,-0.03125 2.453125,-0.015625 C 2.671875,-0.015625 2.890625,0 3.09375,0 c 0.078125,0 0.203125,0 0.203125,-0.203125 0,-0.109375 -0.09375,-0.109375 -0.28125,-0.109375 -0.359375,0 -0.640625,0 -0.640625,-0.171875 0,-0.0625 0.015625,-0.109375 0.03125,-0.171875 l 0.609375,-2.5 H 4.71875 c 1.40625,0 2.796875,-1.03125 2.796875,-2.140625 z m -0.921875,-0.25 c 0,0.390625 -0.203125,1.25 -0.59375,1.609375 -0.5,0.453125 -1.09375,0.53125 -1.53125,0.53125 H 3.0625 L 3.734375,-6.125 C 3.828125,-6.46875 3.84375,-6.5 4.28125,-6.5 h 0.953125 c 0.828125,0 1.359375,0.265625 1.359375,0.953125 z m 0,0"
           id="id-4b8526f0-ac0e-407e-a263-5ffe0a52d63e-6" />
      </symbol>
    </g>
    <g
       id="id-cf901934-c86b-4480-a164-fb99c7484993-9">
      <symbol
         overflow="visible"
         id="id-4f0f4309-a6a4-463c-a8cc-204cb647718f-3">
        <path
           style="stroke:none;stroke-width:0"
           d=""
           id="id-d5d3dba5-d2e1-4923-9338-343056f1008f-6" />
      </symbol>
      <symbol
         overflow="visible"
         id="id-691bb10e-fd4c-4afc-960b-0db31c6edac5-0">
        <path
           style="stroke:none;stroke-width:0"
           d="m 5.515625,-0.234375 c 0,-0.234375 -0.125,-0.234375 -0.265625,-0.234375 -0.609375,-0.015625 -0.609375,-0.140625 -0.609375,-0.375 v -2.140625 c 0,-0.890625 -0.703125,-1.53125 -2.1875,-1.53125 -0.5625,0 -1.78125,0.046875 -1.78125,0.921875 0,0.4375 0.34375,0.625 0.609375,0.625 0.3125,0 0.625,-0.21875 0.625,-0.625 0,-0.296875 -0.1875,-0.46875 -0.21875,-0.5 0.28125,-0.046875 0.609375,-0.0625 0.71875,-0.0625 0.75,0 1.109375,0.421875 1.109375,1.171875 v 0.34375 c -0.71875,0.03125 -3.25,0.125 -3.25,1.5625 C 0.265625,-0.125 1.5,0.0625 2.1875,0.0625 c 0.796875,0 1.265625,-0.40625 1.484375,-0.828125 0,0.3125 0,0.765625 1.046875,0.765625 H 5.1875 c 0.203125,0 0.328125,0 0.328125,-0.234375 z m -2,-1.15625 c 0,0.96875 -0.921875,1.09375 -1.171875,1.09375 -0.515625,0 -0.90625,-0.34375 -0.90625,-0.796875 0,-1.0625 1.578125,-1.203125 2.078125,-1.234375 z m 0,0"
           id="id-9f339448-8d8f-4489-8089-2442f1230577-6" />
      </symbol>
      <symbol
         overflow="visible"
         id="id-0bc4bed0-8228-4f8f-a14d-86d235f7109d-2">
        <path
           style="stroke:none;stroke-width:0"
           d=""
           id="id-616732f8-2c0f-4929-ada3-11abb90ccfc9-6" />
      </symbol>
      <symbol
         overflow="visible"
         id="id-353858dc-4a83-4b61-bc47-71151ec510c5-1">
        <path
           style="stroke:none;stroke-width:0"
           d="M 4.09375,0.0625 C 4.109375,0 4.125,-0.078125 4.046875,-0.078125 c -0.0625,0 -0.078125,0.046875 -0.109375,0.125 C 3.859375,0.3125 3.578125,0.40625 3.40625,0.40625 c -0.109375,0 -0.3125,0 -0.4375,-0.46875 0.5625,-0.203125 1.25,-0.828125 1.40625,-1.71875 0.171875,-1.03125 -0.515625,-1.890625 -1.546875,-1.890625 -1.03125,0 -2,0.859375 -2.171875,1.890625 -0.1875,1.0625 0.53125,1.875 1.546875,1.875 0.25,0 0.46875,-0.046875 0.515625,-0.0625 C 2.75,0.5625 2.765625,1 3.25,1 3.765625,1 4.046875,0.390625 4.09375,0.0625 Z M 3.796875,-1.78125 c -0.09375,0.59375 -0.375,1.1875 -0.890625,1.515625 -0.078125,-0.203125 -0.203125,-0.53125 -0.546875,-0.53125 -0.28125,0 -0.515625,0.21875 -0.546875,0.4375 -0.015625,0.125 0.015625,0.203125 0.015625,0.203125 C 1.5,-0.296875 1.046875,-0.703125 1.234375,-1.78125 1.453125,-3.078125 2.265625,-3.5 2.796875,-3.5 c 0.546875,0 1.21875,0.421875 1,1.71875 z m -1.09375,1.609375 c -0.015625,0 -0.234375,0.09375 -0.46875,0.09375 -0.296875,0 -0.28125,-0.25 -0.265625,-0.28125 0.015625,-0.15625 0.171875,-0.28125 0.359375,-0.28125 0.21875,0 0.359375,0.15625 0.375,0.46875 z m 0,0"
           id="id-4775a45b-d8ed-460a-ad09-1d7439dd5107-8" />
      </symbol>
      <symbol
         overflow="visible"
         id="id-040605f2-0379-4aa6-8e95-6ef7bd93d95d-7">
        <path
           style="stroke:none;stroke-width:0"
           d=""
           id="id-b290fe18-8dfa-45a3-91e6-a73f2db9c2f4-9" />
      </symbol>
      <symbol
         overflow="visible"
         id="id-c80cb475-9c47-4231-ac59-a580442f34ad-2">
        <path
           style="stroke:none;stroke-width:0"
           d="m 4.578125,-1 c 0,-0.09375 -0.078125,-0.09375 -0.109375,-0.09375 -0.09375,0 -0.09375,0.046875 -0.125,0.125 C 4.1875,-0.40625 3.875,-0.125 3.609375,-0.125 c -0.15625,0 -0.1875,-0.09375 -0.1875,-0.25 0,-0.15625 0.046875,-0.25 0.171875,-0.5625 0.078125,-0.21875 0.359375,-0.953125 0.359375,-1.34375 0,-0.671875 -0.53125,-0.796875 -0.90625,-0.796875 -0.578125,0 -0.96875,0.359375 -1.171875,0.640625 -0.046875,-0.484375 -0.453125,-0.640625 -0.75,-0.640625 -0.296875,0 -0.453125,0.21875 -0.546875,0.375 -0.15625,0.265625 -0.25,0.65625 -0.25,0.703125 0,0.078125 0.09375,0.078125 0.125,0.078125 0.09375,0 0.09375,-0.015625 0.140625,-0.203125 0.109375,-0.40625 0.25,-0.75 0.515625,-0.75 0.1875,0 0.234375,0.15625 0.234375,0.34375 0,0.125 -0.0625,0.390625 -0.125,0.578125 l -0.140625,0.625 L 0.84375,-0.4375 c -0.015625,0.09375 -0.0625,0.265625 -0.0625,0.28125 0,0.15625 0.125,0.21875 0.234375,0.21875 0.125,0 0.234375,-0.078125 0.28125,-0.140625 0.03125,-0.0625 0.078125,-0.296875 0.125,-0.4375 l 0.140625,-0.625 c 0.046875,-0.15625 0.09375,-0.3125 0.125,-0.46875 0.078125,-0.28125 0.09375,-0.34375 0.296875,-0.625 C 2.171875,-2.515625 2.5,-2.875 3.03125,-2.875 c 0.390625,0 0.40625,0.359375 0.40625,0.484375 0,0.421875 -0.296875,1.1875 -0.40625,1.484375 -0.078125,0.203125 -0.109375,0.265625 -0.109375,0.375 0,0.375 0.296875,0.59375 0.65625,0.59375 0.703125,0 1,-0.953125 1,-1.0625 z m 0,0"
           id="id-41d600d4-37be-45fb-b69f-36e4f62af26f-0" />
      </symbol>
    </g>
  </defs>
  <g
     id="g5472"
     style="stroke-width:0.75590551;stroke-miterlimit:4;stroke-dasharray:none"
     transform="matrix(1,0,0,0.78394821,0,2.9344386)">
    <path
       sodipodi:nodetypes="ccscc"
       inkscape:connector-curvature="0"
       id="path4631"
       d="m 200.81463,48.083076 c 28.63468,-6.882588 42.02232,21.586301 42.02232,21.586301 0,0 7.43758,21.899145 32.35347,32.535873 24.91589,10.63673 30.86595,63.82037 30.86595,63.82037 0,0 4.46255,25.0276 -2.23127,43.1726"
       style="fill:none;fill-rule:evenodd;stroke:#000000;stroke-width:0.75590551;stroke-linecap:butt;stroke-linejoin:miter;stroke-miterlimit:4;stroke-dasharray:none;stroke-opacity:1" />
    <path
       sodipodi:nodetypes="ccscc"
       inkscape:connector-curvature="0"
       id="path4631-3"
       d="m 200.81463,48.083076 c -28.63468,-6.882588 -42.02232,21.586301 -42.02232,21.586301 0,0 -7.43758,21.899146 -32.35347,32.535873 -24.91589,10.63673 -30.865961,63.82036 -30.865961,63.82036 0,0 -4.46255,25.0276 2.23127,43.1726"
       style="fill:none;fill-rule:evenodd;stroke:#000000;stroke-width:0.75590551;stroke-linecap:butt;stroke-linejoin:miter;stroke-miterlimit:4;stroke-dasharray:none;stroke-opacity:1" />
  </g>
  <ellipse
     style="opacity:1;fill:none;fill-opacity:1;stroke:#000000;stroke-width:0.65774864;stroke-miterlimit:4;stroke-dasharray:none;stroke-dashoffset:0"
     id="path4650"
     cx="200.4445"
     cy="130.88263"
     rx="104.47449"
     ry="25.733877" />
  <path
     style="fill:none;fill-rule:evenodd;stroke:#000000;stroke-width:0.50196385;stroke-linecap:butt;stroke-linejoin:miter;stroke-miterlimit:4;stroke-dasharray:none;stroke-opacity:1"
     d="m 200.81485,40.61422 c 23.86764,-5.396453 35.02653,16.925241 35.02653,16.925241 0,0 6.19938,17.170534 26.96731,25.510502 20.76795,8.339986 25.72746,50.039847 25.72746,50.039847 0,0 3.71964,19.62346 -1.85981,33.85047"
     id="path4631-6"
     inkscape:connector-curvature="0"
     sodipodi:nodetypes="ccscc" />
  <path
     style="fill:none;fill-rule:evenodd;stroke:#000000;stroke-width:0.50196385;stroke-linecap:butt;stroke-linejoin:miter;stroke-miterlimit:4;stroke-dasharray:none;stroke-opacity:1"
     d="m 200.82553,40.554301 c -11.55431,-5.399923 -16.95632,16.936124 -16.95632,16.936124 0,0 -3.00112,17.181576 -13.05486,25.52691 -10.05375,8.345341 -12.45465,50.072015 -12.45465,50.072015 0,0 -1.80067,19.63609 0.90034,33.87224"
     id="path4631-3-7"
     inkscape:connector-curvature="0"
     sodipodi:nodetypes="ccscc" />
  <path
     style="fill:none;fill-rule:evenodd;stroke:#000000;stroke-width:0.37795276;stroke-linecap:butt;stroke-linejoin:miter;stroke-miterlimit:4;stroke-dasharray:none;stroke-opacity:1"
     d="M 200.81463,168.20559 V 15.919264"
     id="path4684"
     inkscape:connector-curvature="0" />
  <path
     style="opacity:1;fill:none;fill-opacity:1;stroke:#000000;stroke-width:0.75590551;stroke-miterlimit:4;stroke-dasharray:none;stroke-dashoffset:0;marker-start:url(#Arrow1Mstart)"
     id="path4686"
     sodipodi:type="arc"
     sodipodi:cx="201.14368"
     sodipodi:cy="21.148533"
     sodipodi:rx="14.673113"
     sodipodi:ry="4.4735103"
     sodipodi:start="5.1479263"
     sodipodi:end="3.6170369"
     d="m 207.33423,17.092654 a 14.673113,4.4735103 0 0 1 8.4621,4.292037 14.673113,4.4735103 0 0 1 -9.89922,3.996106 14.673113,4.4735103 0 0 1 -15.85577,-1.307368 14.673113,4.4735103 0 0 1 -1.94337,-4.972571"
     sodipodi:open="true" />
  <path
     style="fill:none;fill-rule:evenodd;stroke:#ff0000;stroke-width:0.94488189;stroke-linecap:butt;stroke-linejoin:miter;stroke-miterlimit:4;stroke-dasharray:none;stroke-opacity:1;marker-end:url(#marker5760)"
     d="m 289.65817,144.47571 52.23295,-24.92053"
     id="path5020"
     inkscape:connector-curvature="0"
     sodipodi:nodetypes="cc" />
  <path
     style="fill:none;fill-rule:evenodd;stroke:#000000;stroke-width:0.75590551;stroke-linecap:butt;stroke-linejoin:miter;stroke-miterlimit:4;stroke-dasharray:none;stroke-opacity:1;marker-end:url(#marker5050)"
     d="m 200.88443,127.37973 88.77374,17.09598"
     id="path5040"
     inkscape:connector-curvature="0" />
  <path
     style="fill:none;fill-rule:evenodd;stroke:#0000ff;stroke-width:1.13385832;stroke-linecap:butt;stroke-linejoin:miter;stroke-miterlimit:4;stroke-dasharray:none;stroke-opacity:1;marker-end:url(#marker5138)"
     d="M 200.81463,73.981362 V 29.667128"
     id="path5128"
     inkscape:connector-curvature="0" />
  <path
     style="fill:none;fill-rule:evenodd;stroke:#000000;stroke-width:0.37795275;stroke-linecap:butt;stroke-linejoin:miter;stroke-miterlimit:4;stroke-dasharray:none;stroke-opacity:1"
     d="m 200.96009,116.42806 9.40939,1.7733 0.0724,11.03793"
     id="path5251"
     inkscape:connector-curvature="0" />
  <path
     style="fill:none;fill-rule:evenodd;stroke:#800080;stroke-width:1.13385827;stroke-linecap:butt;stroke-linejoin:miter;stroke-miterlimit:4;stroke-dasharray:none;stroke-opacity:1;marker-end:url(#marker5138-1)"
     d="M 200.88443,127.37973 V 97.679409"
     id="path5128-1"
     inkscape:connector-curvature="0" />
  <path
     style="fill:none;fill-rule:evenodd;stroke:#ff0000;stroke-width:0.94488189;stroke-linecap:butt;stroke-linejoin:miter;stroke-miterlimit:4;stroke-dasharray:none;stroke-opacity:1;marker-end:url(#marker5760-0)"
     d="m 289.65817,144.47571 -36.79609,-7.09772"
     id="path5020-0"
     inkscape:connector-curvature="0"
     sodipodi:nodetypes="cc" />
  <path
     style="fill:none;fill-rule:evenodd;stroke:#ff0000;stroke-width:0.37795275;stroke-linecap:butt;stroke-linejoin:miter;stroke-miterlimit:4;stroke-dasharray:0.37795275, 0.37795275000000000;stroke-opacity:1;stroke-dashoffset:0"
     d="m 252.86208,137.37799 52.23295,-24.92053"
     id="path5020-02"
     inkscape:connector-curvature="0"
     sodipodi:nodetypes="cc" />
  <path
     style="fill:none;fill-rule:evenodd;stroke:#ff0000;stroke-width:0.37795275;stroke-linecap:butt;stroke-linejoin:miter;stroke-miterlimit:4;stroke-dasharray:0.37795275, 0.37795275000000000;stroke-opacity:1;stroke-dashoffset:0"
     d="m 341.89112,119.55518 -36.79609,-7.09772"
     id="path5020-0-7"
     inkscape:connector-curvature="0"
     sodipodi:nodetypes="cc" />
  <path
     style="fill:none;fill-rule:evenodd;stroke:#008000;stroke-width:0.94488192;stroke-linecap:butt;stroke-linejoin:miter;stroke-miterlimit:4;stroke-dasharray:none;stroke-opacity:1;marker-end:url(#marker5760-5)"
     d="m 289.65817,144.47571 15.43686,-32.01825"
     id="path5020-4"
     inkscape:connector-curvature="0"
     sodipodi:nodetypes="cc" />
  <circle
     style="opacity:1;fill:#000000;fill-opacity:1;stroke:none;stroke-width:0.75590551;stroke-miterlimit:4;stroke-dasharray:none;stroke-dashoffset:0"
     id="path5094"
     cx="289.65814"
     cy="144.47571"
     r="1.5458454" />
  <g
     transform="matrix(1.33333,0,0,1.33333,206.7077,27.072223)"
     ns4:version="1.8.2"
     ns4:texconverter="pdflatex"
     ns4:pdfconverter="inkscape"
     ns4:text="$\\vec*{\\Omega}(t)$"
     ns4:preamble="/media/topo/TOSEXT4/doctorado/upm/docencia/libros-apuntes/apuntes-fisica/figuras/TexText/preambulo_textext.tex"
     ns4:scale="1.0"
     ns4:alignment="middle center"
     ns4:stroke-to-path="0"
     ns4:inkscapeversion="1.1.1"
     ns4:jacobian_sqrt="1.33333"
     id="g670"
     style="fill:#0000ff">
    <defs
       id="id-036c0093-cbdd-40d0-a01c-b0837f2c8111">
      <g
         id="id-be731fec-4e9d-4f0a-92e8-1e2e09604dfe">
        <symbol
           overflow="visible"
           id="id-32a0409a-7132-48e4-aaba-c5f7d9a9b111">
          <path
             style="stroke:none;stroke-width:0"
             d=""
             id="id-87017897-bd29-4d96-8ad1-31780e3a8f61" />
        </symbol>
        <symbol
           overflow="visible"
           id="id-e530d389-ff03-4d27-bb91-45055ca92c02">
          <path
             style="stroke:none;stroke-width:0"
             d="M 7.765625,-2 H 7.296875 C 7.28125,-1.859375 7.203125,-1.4375 7.125,-1.25 7.078125,-1.125 7.03125,-1.03125 6.4375,-1.03125 H 5.71875 c 0.21875,-0.4375 0.484375,-0.796875 0.796875,-1.1875 0.5625,-0.71875 1.125,-1.4375 1.125,-2.34375 0,-1.0625 -0.90625,-2.390625 -3.5,-2.390625 -2.609375,0 -3.5,1.328125 -3.5,2.390625 0,0.921875 0.5625,1.640625 1.109375,2.328125 0.359375,0.453125 0.609375,0.78125 0.796875,1.203125 H 1.828125 C 1.25,-1.03125 1.203125,-1.125 1.15625,-1.21875 1.09375,-1.40625 1,-1.890625 0.984375,-2 H 0.515625 L 0.875,0 H 2.78125 C 3,0 3.09375,0 3.09375,-0.265625 c 0,-0.703125 -0.296875,-1.625 -0.4375,-2.0625 -0.265625,-0.78125 -0.5,-1.5 -0.5,-2.234375 0,-0.375 0.0625,-1.09375 0.546875,-1.53125 0.484375,-0.453125 1.140625,-0.5 1.4375,-0.5 0.515625,0 1.078125,0.15625 1.4375,0.515625 0.296875,0.28125 0.53125,0.71875 0.53125,1.515625 0,0.703125 -0.203125,1.375 -0.453125,2.125 -0.1875,0.59375 -0.484375,1.46875 -0.484375,2.171875 C 5.171875,0 5.28125,0 5.5,0 h 1.890625 z m 0,0"
             id="id-307af1c8-cf30-4964-9a2e-b9a2cd0a2fb3" />
        </symbol>
        <symbol
           overflow="visible"
           id="id-f1e9b2e5-5f67-4d74-bd65-edf74b9986e2">
          <path
             style="stroke:none;stroke-width:0"
             d=""
             id="id-fbe2145b-a644-4340-9b7c-7128768cd245" />
        </symbol>
        <symbol
           overflow="visible"
           id="id-f708dc99-b654-43b0-8490-a7618c78b27d">
          <path
             style="stroke:none;stroke-width:0"
             d="m 3.296875,2.390625 c 0,-0.03125 0,-0.046875 -0.171875,-0.21875 C 1.890625,0.921875 1.5625,-0.96875 1.5625,-2.5 c 0,-1.734375 0.375,-3.46875 1.609375,-4.703125 0.125,-0.125 0.125,-0.140625 0.125,-0.171875 0,-0.078125 -0.03125,-0.109375 -0.09375,-0.109375 -0.109375,0 -1,0.6875 -1.59375,1.953125 -0.5,1.09375 -0.625,2.203125 -0.625,3.03125 0,0.78125 0.109375,1.984375 0.65625,3.125 C 2.25,1.84375 3.09375,2.5 3.203125,2.5 c 0.0625,0 0.09375,-0.03125 0.09375,-0.109375 z m 0,0"
             id="id-e5fb96a1-5e48-4caa-96e3-4169a32c893e" />
        </symbol>
        <symbol
           overflow="visible"
           id="id-6ddd0c92-f1fe-4e7c-942f-49bfd8702bf0">
          <path
             style="stroke:none;stroke-width:0"
             d="m 2.875,-2.5 c 0,-0.765625 -0.109375,-1.96875 -0.65625,-3.109375 -0.59375,-1.21875 -1.453125,-1.875 -1.546875,-1.875 -0.0625,0 -0.109375,0.046875 -0.109375,0.109375 0,0.03125 0,0.046875 0.1875,0.234375 0.984375,0.984375 1.546875,2.5625 1.546875,4.640625 0,1.71875 -0.359375,3.46875 -1.59375,4.71875 C 0.5625,2.34375 0.5625,2.359375 0.5625,2.390625 0.5625,2.453125 0.609375,2.5 0.671875,2.5 0.765625,2.5 1.671875,1.8125 2.25,0.546875 2.765625,-0.546875 2.875,-1.65625 2.875,-2.5 Z m 0,0"
             id="id-bc220038-ec6b-47d5-9a02-b8f4282635f2" />
        </symbol>
        <symbol
           overflow="visible"
           id="id-4f8c0c34-66dd-4d8b-8609-4a4a1b81d1c1">
          <path
             style="stroke:none;stroke-width:0"
             d=""
             id="id-c832365c-cb45-4ffe-b7fa-a5e5b5a21f53" />
        </symbol>
        <symbol
           overflow="visible"
           id="id-70ea307a-11dd-4994-9525-dc7a0fb44f80">
          <path
             style="stroke:none;stroke-width:0"
             d="m 3.125,-1.421875 c 0,-0.109375 -0.078125,-0.109375 -0.109375,-0.109375 -0.09375,0 -0.109375,0.03125 -0.15625,0.140625 -0.421875,1.046875 -0.953125,1.28125 -1.296875,1.28125 -0.203125,0 -0.3125,-0.125 -0.3125,-0.453125 0,-0.25 0.03125,-0.3125 0.0625,-0.484375 l 0.734375,-2.9375 h 0.9375 c 0.203125,0 0.3125,0 0.3125,-0.203125 0,-0.109375 -0.109375,-0.109375 -0.28125,-0.109375 h -0.875 C 2.5,-5.71875 2.546875,-5.90625 2.546875,-5.96875 c 0,-0.171875 -0.125,-0.265625 -0.296875,-0.265625 -0.03125,0 -0.3125,0 -0.390625,0.359375 L 1.46875,-4.296875 h -0.9375 c -0.203125,0 -0.296875,0 -0.296875,0.1875 0,0.125 0.078125,0.125 0.28125,0.125 h 0.875 C 0.671875,-1.15625 0.625,-0.984375 0.625,-0.8125 0.625,-0.265625 1,0.109375 1.546875,0.109375 2.5625,0.109375 3.125,-1.34375 3.125,-1.421875 Z m 0,0"
             id="id-58546ba1-cfd6-4923-8ce5-2067f64894f6" />
        </symbol>
      </g>
    </defs>
    <g
       id="id-4e339e61-42b4-446f-a0f9-d3dcb432356e"
       transform="translate(-149.228,-127.281)"
       style="fill:#0000ff">
      <g
         style="fill:#0000ff;fill-opacity:1"
         id="id-56053aa9-76b6-4cbd-ab83-afd9eee62862">
        <g
           transform="translate(148.712,134.765)"
           id="g654"
           style="fill:#0000ff">
          <path
             style="fill:#0000ff;stroke:none;stroke-width:0"
             d="M 7.765625,-2 H 7.296875 C 7.28125,-1.859375 7.203125,-1.4375 7.125,-1.25 7.078125,-1.125 7.03125,-1.03125 6.4375,-1.03125 H 5.71875 c 0.21875,-0.4375 0.484375,-0.796875 0.796875,-1.1875 0.5625,-0.71875 1.125,-1.4375 1.125,-2.34375 0,-1.0625 -0.90625,-2.390625 -3.5,-2.390625 -2.609375,0 -3.5,1.328125 -3.5,2.390625 0,0.921875 0.5625,1.640625 1.109375,2.328125 0.359375,0.453125 0.609375,0.78125 0.796875,1.203125 H 1.828125 C 1.25,-1.03125 1.203125,-1.125 1.15625,-1.21875 1.09375,-1.40625 1,-1.890625 0.984375,-2 H 0.515625 L 0.875,0 H 2.78125 C 3,0 3.09375,0 3.09375,-0.265625 c 0,-0.703125 -0.296875,-1.625 -0.4375,-2.0625 -0.265625,-0.78125 -0.5,-1.5 -0.5,-2.234375 0,-0.375 0.0625,-1.09375 0.546875,-1.53125 0.484375,-0.453125 1.140625,-0.5 1.4375,-0.5 0.515625,0 1.078125,0.15625 1.4375,0.515625 0.296875,0.28125 0.53125,0.71875 0.53125,1.515625 0,0.703125 -0.203125,1.375 -0.453125,2.125 -0.1875,0.59375 -0.484375,1.46875 -0.484375,2.171875 C 5.171875,0 5.28125,0 5.5,0 h 1.890625 z m 0,0"
             id="id-01eb53f7-67a7-4509-bdbf-699f7f4eedcc" />
        </g>
      </g>
      <g
         style="fill:#0000ff;fill-opacity:1"
         id="id-0c2d1d74-7abc-41a8-ac1e-fdcc24c45aeb">
        <g
           transform="translate(156.987,134.765)"
           id="g658"
           style="fill:#0000ff">
          <path
             style="fill:#0000ff;stroke:none;stroke-width:0"
             d="m 3.296875,2.390625 c 0,-0.03125 0,-0.046875 -0.171875,-0.21875 C 1.890625,0.921875 1.5625,-0.96875 1.5625,-2.5 c 0,-1.734375 0.375,-3.46875 1.609375,-4.703125 0.125,-0.125 0.125,-0.140625 0.125,-0.171875 0,-0.078125 -0.03125,-0.109375 -0.09375,-0.109375 -0.109375,0 -1,0.6875 -1.59375,1.953125 -0.5,1.09375 -0.625,2.203125 -0.625,3.03125 0,0.78125 0.109375,1.984375 0.65625,3.125 C 2.25,1.84375 3.09375,2.5 3.203125,2.5 c 0.0625,0 0.09375,-0.03125 0.09375,-0.109375 z m 0,0"
             id="id-a2057e9a-1f24-421e-829d-0fcc655f6b34" />
        </g>
      </g>
      <g
         style="fill:#0000ff;fill-opacity:1"
         id="id-e42c0f32-44e6-4795-9e76-33f37955677c">
        <g
           transform="translate(160.862,134.765)"
           id="g662"
           style="fill:#0000ff">
          <path
             style="fill:#0000ff;stroke:none;stroke-width:0"
             d="m 3.125,-1.421875 c 0,-0.109375 -0.078125,-0.109375 -0.109375,-0.109375 -0.09375,0 -0.109375,0.03125 -0.15625,0.140625 -0.421875,1.046875 -0.953125,1.28125 -1.296875,1.28125 -0.203125,0 -0.3125,-0.125 -0.3125,-0.453125 0,-0.25 0.03125,-0.3125 0.0625,-0.484375 l 0.734375,-2.9375 h 0.9375 c 0.203125,0 0.3125,0 0.3125,-0.203125 0,-0.109375 -0.109375,-0.109375 -0.28125,-0.109375 h -0.875 C 2.5,-5.71875 2.546875,-5.90625 2.546875,-5.96875 c 0,-0.171875 -0.125,-0.265625 -0.296875,-0.265625 -0.03125,0 -0.3125,0 -0.390625,0.359375 L 1.46875,-4.296875 h -0.9375 c -0.203125,0 -0.296875,0 -0.296875,0.1875 0,0.125 0.078125,0.125 0.28125,0.125 h 0.875 C 0.671875,-1.15625 0.625,-0.984375 0.625,-0.8125 0.625,-0.265625 1,0.109375 1.546875,0.109375 2.5625,0.109375 3.125,-1.34375 3.125,-1.421875 Z m 0,0"
             id="id-b6659fb0-1082-4215-921c-1b55debbd34f" />
        </g>
      </g>
      <g
         style="fill:#0000ff;fill-opacity:1"
         id="id-3fd05520-165b-429f-a275-0510b7c5e493">
        <g
           transform="translate(164.459,134.765)"
           id="g666"
           style="fill:#0000ff">
          <path
             style="fill:#0000ff;stroke:none;stroke-width:0"
             d="m 2.875,-2.5 c 0,-0.765625 -0.109375,-1.96875 -0.65625,-3.109375 -0.59375,-1.21875 -1.453125,-1.875 -1.546875,-1.875 -0.0625,0 -0.109375,0.046875 -0.109375,0.109375 0,0.03125 0,0.046875 0.1875,0.234375 0.984375,0.984375 1.546875,2.5625 1.546875,4.640625 0,1.71875 -0.359375,3.46875 -1.59375,4.71875 C 0.5625,2.34375 0.5625,2.359375 0.5625,2.390625 0.5625,2.453125 0.609375,2.5 0.671875,2.5 0.765625,2.5 1.671875,1.8125 2.25,0.546875 2.765625,-0.546875 2.875,-1.65625 2.875,-2.5 Z m 0,0"
             id="id-3ebb27d1-24af-46e9-9cc1-5bdafec0383c" />
        </g>
      </g>
    </g>
  </g>
  <g
     transform="matrix(1.33333,0,0,1.33333,188.29298,94.730547)"
     ns4:version="1.8.2"
     ns4:texconverter="pdflatex"
     ns4:pdfconverter="inkscape"
     ns4:text="$\\vec*{\\alpha}$"
     ns4:preamble="/media/topo/TOSEXT4/doctorado/upm/docencia/libros-apuntes/apuntes-fisica/figuras/TexText/preambulo_textext.tex"
     ns4:scale="1.0"
     ns4:alignment="middle center"
     ns4:stroke-to-path="0"
     ns4:inkscapeversion="1.1.1"
     ns4:jacobian_sqrt="1.33333"
     id="g1361"
     style="fill:#800080">
    <defs
       id="id-db8e62a7-1fb5-4014-a4fb-cfa6bc13f987">
      <g
         id="id-c5e371e2-2d4b-43f7-a667-24486d4ad213">
        <symbol
           overflow="visible"
           id="id-15b99e68-efe7-46d0-9e80-453808fd4ba5">
          <path
             style="stroke:none;stroke-width:0"
             d=""
             id="id-530deba8-9f78-47f0-9616-ebd92d3cf08c" />
        </symbol>
        <symbol
           overflow="visible"
           id="id-c0727ed8-0159-4d52-b281-b20713341d35">
          <path
             style="stroke:none;stroke-width:0"
             d="m 7.015625,-0.59375 c 0,-0.140625 -0.140625,-0.140625 -0.234375,-0.140625 -0.125,0 -0.171875,0 -0.21875,0.140625 -0.125,0.28125 -0.46875,0.3125 -0.46875,0.3125 -0.25,0 -0.265625,-1.15625 -0.265625,-1.359375 0.9375,-1.078125 1.15625,-2.203125 1.15625,-2.234375 0,-0.125 -0.15625,-0.125 -0.25,-0.125 -0.1875,0 -0.1875,0.015625 -0.25,0.203125 C 6.296875,-3.125 6,-2.578125 5.78125,-2.265625 5.765625,-2.75 5.765625,-3.34375 5.21875,-3.875 4.703125,-4.40625 4.0625,-4.5 3.59375,-4.5 c -2.03125,0 -3.140625,1.5625 -3.140625,2.859375 0,1.09375 0.828125,1.71875 2.0625,1.71875 0.96875,0 1.78125,-0.40625 2.3125,-0.78125 0.171875,0.40625 0.578125,0.78125 1.1875,0.78125 0.65625,0 1,-0.453125 1,-0.671875 z m -2.3125,-0.546875 c 0,0.109375 -0.609375,0.46875 -0.859375,0.578125 -0.59375,0.25 -1.03125,0.28125 -1.265625,0.28125 -0.5625,0 -0.96875,-0.265625 -0.96875,-0.921875 0,-0.328125 0.21875,-1.4375 0.53125,-2.015625 0.3125,-0.640625 0.9375,-0.921875 1.4375,-0.921875 0.921875,0 1.03125,1.09375 1.078125,2.0625 0.015625,0.25 0.046875,0.6875 0.046875,0.9375 z m 0,0"
             id="id-1e9a62a8-ce17-4dac-831d-624dc8d48c60" />
        </symbol>
      </g>
    </defs>
    <g
       id="id-4338e341-1d33-4048-84f8-8baab9a94628"
       transform="translate(-149.165,-130.265)"
       style="fill:#800080">
      <g
         style="fill:#800080;fill-opacity:1"
         id="id-ef458352-7ee2-4db7-8c4d-284f2ccf791c">
        <g
           transform="translate(148.712,134.765)"
           id="g1357"
           style="fill:#800080">
          <path
             style="fill:#800080;stroke:none;stroke-width:0"
             d="m 7.015625,-0.59375 c 0,-0.140625 -0.140625,-0.140625 -0.234375,-0.140625 -0.125,0 -0.171875,0 -0.21875,0.140625 -0.125,0.28125 -0.46875,0.3125 -0.46875,0.3125 -0.25,0 -0.265625,-1.15625 -0.265625,-1.359375 0.9375,-1.078125 1.15625,-2.203125 1.15625,-2.234375 0,-0.125 -0.15625,-0.125 -0.25,-0.125 -0.1875,0 -0.1875,0.015625 -0.25,0.203125 C 6.296875,-3.125 6,-2.578125 5.78125,-2.265625 5.765625,-2.75 5.765625,-3.34375 5.21875,-3.875 4.703125,-4.40625 4.0625,-4.5 3.59375,-4.5 c -2.03125,0 -3.140625,1.5625 -3.140625,2.859375 0,1.09375 0.828125,1.71875 2.0625,1.71875 0.96875,0 1.78125,-0.40625 2.3125,-0.78125 0.171875,0.40625 0.578125,0.78125 1.1875,0.78125 0.65625,0 1,-0.453125 1,-0.671875 z m -2.3125,-0.546875 c 0,0.109375 -0.609375,0.46875 -0.859375,0.578125 -0.59375,0.25 -1.03125,0.28125 -1.265625,0.28125 -0.5625,0 -0.96875,-0.265625 -0.96875,-0.921875 0,-0.328125 0.21875,-1.4375 0.53125,-2.015625 0.3125,-0.640625 0.9375,-0.921875 1.4375,-0.921875 0.921875,0 1.03125,1.09375 1.078125,2.0625 0.015625,0.25 0.046875,0.6875 0.046875,0.9375 z m 0,0"
             id="id-c73e7dc9-d2a0-41f4-9bba-72c802175cba" />
        </g>
      </g>
    </g>
  </g>
  <g
     transform="matrix(1.33333,0,0,1.33333,187.19502,121.00344)"
     ns4:version="1.8.2"
     ns4:texconverter="pdflatex"
     ns4:pdfconverter="inkscape"
     ns4:text="$P$"
     ns4:preamble="/media/topo/TOSEXT4/doctorado/upm/docencia/libros-apuntes/apuntes-fisica/figuras/TexText/preambulo_textext.tex"
     ns4:scale="1.0"
     ns4:alignment="middle center"
     ns4:stroke-to-path="0"
     ns4:inkscapeversion="1.1.1"
     ns4:jacobian_sqrt="1.33333"
     id="g1893">
    <defs
       id="id-49d2a278-39a1-4953-a099-ff54f8558368">
      <g
         id="id-a0b9a1a3-8b84-4f38-ac05-d0f2399c674a">
        <symbol
           overflow="visible"
           id="id-86f0d8db-f88f-4c24-87f1-7c792d153f0f">
          <path
             style="stroke:none;stroke-width:0"
             d=""
             id="id-9d4c5df1-1f60-4997-89bc-fec29933f5f7" />
        </symbol>
        <symbol
           overflow="visible"
           id="id-e1360e1f-c51a-42d8-a6cc-1fb591c66d1b">
          <path
             style="stroke:none;stroke-width:0"
             d="m 7.515625,-5.296875 c 0,-0.78125 -0.65625,-1.515625 -1.96875,-1.515625 h -3.21875 c -0.1875,0 -0.296875,0 -0.296875,0.1875 0,0.125 0.078125,0.125 0.28125,0.125 0.125,0 0.3125,0.015625 0.421875,0.015625 0.171875,0.03125 0.21875,0.046875 0.21875,0.171875 0,0.03125 0,0.0625 -0.03125,0.1875 l -1.34375,5.34375 c -0.09375,0.390625 -0.109375,0.46875 -0.90625,0.46875 -0.15625,0 -0.265625,0 -0.265625,0.1875 C 0.40625,0 0.515625,0 0.546875,0 L 1.8125,-0.03125 2.453125,-0.015625 C 2.671875,-0.015625 2.890625,0 3.09375,0 c 0.078125,0 0.203125,0 0.203125,-0.203125 0,-0.109375 -0.09375,-0.109375 -0.28125,-0.109375 -0.359375,0 -0.640625,0 -0.640625,-0.171875 0,-0.0625 0.015625,-0.109375 0.03125,-0.171875 l 0.609375,-2.5 H 4.71875 c 1.40625,0 2.796875,-1.03125 2.796875,-2.140625 z m -0.921875,-0.25 c 0,0.390625 -0.203125,1.25 -0.59375,1.609375 -0.5,0.453125 -1.09375,0.53125 -1.53125,0.53125 H 3.0625 L 3.734375,-6.125 C 3.828125,-6.46875 3.84375,-6.5 4.28125,-6.5 h 0.953125 c 0.828125,0 1.359375,0.265625 1.359375,0.953125 z m 0,0"
             id="id-4b8526f0-ac0e-407e-a263-5ffe0a52d63e" />
        </symbol>
      </g>
    </defs>
    <g
       id="id-2478d312-282d-4f9c-8364-8a9bcbc9cff3"
       transform="translate(-149.118,-127.953)">
      <g
         style="fill:#000000;fill-opacity:1"
         id="id-8735e1ae-f6ca-4637-93b1-191bb7d1060a">
        <g
           transform="translate(148.712,134.765)"
           id="g1889">
          <path
             style="stroke:none;stroke-width:0"
             d="m 7.515625,-5.296875 c 0,-0.78125 -0.65625,-1.515625 -1.96875,-1.515625 h -3.21875 c -0.1875,0 -0.296875,0 -0.296875,0.1875 0,0.125 0.078125,0.125 0.28125,0.125 0.125,0 0.3125,0.015625 0.421875,0.015625 0.171875,0.03125 0.21875,0.046875 0.21875,0.171875 0,0.03125 0,0.0625 -0.03125,0.1875 l -1.34375,5.34375 c -0.09375,0.390625 -0.109375,0.46875 -0.90625,0.46875 -0.15625,0 -0.265625,0 -0.265625,0.1875 C 0.40625,0 0.515625,0 0.546875,0 L 1.8125,-0.03125 2.453125,-0.015625 C 2.671875,-0.015625 2.890625,0 3.09375,0 c 0.078125,0 0.203125,0 0.203125,-0.203125 0,-0.109375 -0.09375,-0.109375 -0.28125,-0.109375 -0.359375,0 -0.640625,0 -0.640625,-0.171875 0,-0.0625 0.015625,-0.109375 0.03125,-0.171875 l 0.609375,-2.5 H 4.71875 c 1.40625,0 2.796875,-1.03125 2.796875,-2.140625 z m -0.921875,-0.25 c 0,0.390625 -0.203125,1.25 -0.59375,1.609375 -0.5,0.453125 -1.09375,0.53125 -1.53125,0.53125 H 3.0625 L 3.734375,-6.125 C 3.828125,-6.46875 3.84375,-6.5 4.28125,-6.5 h 0.953125 c 0.828125,0 1.359375,0.265625 1.359375,0.953125 z m 0,0"
             id="id-7a862a5d-a09a-47dc-b8fd-0fdb31876fa3" />
        </g>
      </g>
    </g>
  </g>
  <g
     transform="matrix(1.33333,0,0,1.33333,292.25325,144.31385)"
     ns4:version="1.8.2"
     ns4:texconverter="pdflatex"
     ns4:pdfconverter="inkscape"
     ns4:text="$Q$"
     ns4:preamble="/media/topo/TOSEXT4/doctorado/upm/docencia/libros-apuntes/apuntes-fisica/figuras/TexText/preambulo_textext.tex"
     ns4:scale="1.0"
     ns4:alignment="middle center"
     ns4:stroke-to-path="0"
     ns4:inkscapeversion="1.1.1"
     ns4:jacobian_sqrt="1.33333"
     id="g1893-3">
    <defs
       id="id-92cfe2da-e839-46f1-9f48-5e2d0b977470">
      <g
         id="id-748bed0d-a03c-4be9-95ac-728dda26b27d">
        <symbol
           overflow="visible"
           id="id-dc112aab-df70-4978-b39a-2a4b457f1b3e">
          <path
             style="stroke:none"
             d=""
             id="id-c31fe04e-9786-4c18-a6b2-5c0553c385da" />
        </symbol>
        <symbol
           overflow="visible"
           id="id-9e19151e-de4f-487b-8566-d9a37684c841">
          <path
             style="stroke:none"
             d="m 6.46875,0 c 0,-0.0625 -0.0625,-0.09375 -0.109375,-0.09375 -0.078125,0 -0.09375,0.046875 -0.125,0.109375 C 6,0.71875 5.421875,0.96875 5.078125,0.96875 4.609375,0.96875 4.46875,0.703125 4.359375,-0.0625 5.90625,-0.640625 7.375,-2.421875 7.375,-4.34375 c 0,-1.609375 -1.0625,-2.6875 -2.546875,-2.6875 -2.140625,0 -4.34375,2.265625 -4.34375,4.59375 0,1.65625 1.125,2.65625 2.5625,2.65625 0.25,0 0.578125,-0.046875 0.96875,-0.15625 -0.03125,0.625 -0.03125,0.640625 -0.03125,0.78125 0,0.3125 0,1.09375 0.828125,1.09375 C 5.984375,1.9375 6.46875,0.109375 6.46875,0 Z M 6.5,-4.671875 c 0,1 -0.515625,3.34375 -2.1875,4.265625 -0.046875,-0.34375 -0.140625,-1.0625 -0.875,-1.0625 -0.53125,0 -1.015625,0.484375 -1.015625,1.015625 0,0.1875 0.0625,0.3125 0.0625,0.3125 -0.78125,-0.3125 -1.125,-1.078125 -1.125,-1.984375 0,-0.6875 0.265625,-2.109375 1.015625,-3.171875 C 3.109375,-6.3125 4.046875,-6.78125 4.78125,-6.78125 5.765625,-6.78125 6.5,-6 6.5,-4.671875 Z M 4.046875,-0.40625 c 0,0.140625 -0.015625,0.15625 -0.109375,0.203125 -0.265625,0.109375 -0.5625,0.171875 -0.84375,0.171875 -0.140625,0 -0.453125,0 -0.453125,-0.421875 0,-0.40625 0.375,-0.796875 0.796875,-0.796875 0.421875,0 0.609375,0.234375 0.609375,0.84375 z m 0,0"
             id="id-e64a09b3-17b2-43fd-aba1-193fd8459bcb" />
        </symbol>
      </g>
    </defs>
    <g
       id="id-ad060d04-1d44-4273-919f-21b90ac11893"
       transform="translate(-149.196,-127.734)">
      <g
         style="fill:#000000;fill-opacity:1"
         id="id-67b1762d-0da8-4891-9a5e-e55e80da2cc3">
        <g
           transform="translate(148.712,134.765)"
           id="g2686">
          <path
             style="stroke:none"
             d="m 6.46875,0 c 0,-0.0625 -0.0625,-0.09375 -0.109375,-0.09375 -0.078125,0 -0.09375,0.046875 -0.125,0.109375 C 6,0.71875 5.421875,0.96875 5.078125,0.96875 4.609375,0.96875 4.46875,0.703125 4.359375,-0.0625 5.90625,-0.640625 7.375,-2.421875 7.375,-4.34375 c 0,-1.609375 -1.0625,-2.6875 -2.546875,-2.6875 -2.140625,0 -4.34375,2.265625 -4.34375,4.59375 0,1.65625 1.125,2.65625 2.5625,2.65625 0.25,0 0.578125,-0.046875 0.96875,-0.15625 -0.03125,0.625 -0.03125,0.640625 -0.03125,0.78125 0,0.3125 0,1.09375 0.828125,1.09375 C 5.984375,1.9375 6.46875,0.109375 6.46875,0 Z M 6.5,-4.671875 c 0,1 -0.515625,3.34375 -2.1875,4.265625 -0.046875,-0.34375 -0.140625,-1.0625 -0.875,-1.0625 -0.53125,0 -1.015625,0.484375 -1.015625,1.015625 0,0.1875 0.0625,0.3125 0.0625,0.3125 -0.78125,-0.3125 -1.125,-1.078125 -1.125,-1.984375 0,-0.6875 0.265625,-2.109375 1.015625,-3.171875 C 3.109375,-6.3125 4.046875,-6.78125 4.78125,-6.78125 5.765625,-6.78125 6.5,-6 6.5,-4.671875 Z M 4.046875,-0.40625 c 0,0.140625 -0.015625,0.15625 -0.109375,0.203125 -0.265625,0.109375 -0.5625,0.171875 -0.84375,0.171875 -0.140625,0 -0.453125,0 -0.453125,-0.421875 0,-0.40625 0.375,-0.796875 0.796875,-0.796875 0.421875,0 0.609375,0.234375 0.609375,0.84375 z m 0,0"
             id="id-292ef464-2790-4280-bfff-17c39c757bde" />
        </g>
      </g>
    </g>
  </g>
  <g
     transform="matrix(1.33333,0,0,1.33333,229.60556,123.73468)"
     ns4:version="1.8.2"
     ns4:texconverter="pdflatex"
     ns4:pdfconverter="inkscape"
     ns4:text="$\\vec{r}_\\vc{q}$"
     ns4:preamble="/media/topo/TOSEXT4/doctorado/upm/docencia/libros-apuntes/apuntes-fisica/figuras/TexText/preambulo_textext.tex"
     ns4:scale="1.0"
     ns4:alignment="middle center"
     ns4:stroke-to-path="0"
     ns4:inkscapeversion="1.1.1"
     ns4:jacobian_sqrt="1.33333"
     id="g3275">
    <defs
       id="id-aeba8d74-061b-4c9d-8b7e-6238f4a84b20">
      <g
         id="id-dd67dade-e8a6-412a-924f-5a7e91f908db">
        <symbol
           overflow="visible"
           id="id-8598cf26-fd25-4b18-81c9-473759fb556c">
          <path
             style="stroke:none;stroke-width:0"
             d=""
             id="id-ee650a2f-e668-44a9-b153-ef7bbb984c1f" />
        </symbol>
        <symbol
           overflow="visible"
           id="id-373dfe53-83a2-40cf-9870-4af894b08f87">
          <path
             style="stroke:none;stroke-width:0"
             d="m 4.40625,-3.671875 c 0,-0.53125 -0.53125,-0.8125 -1.0625,-0.8125 -0.6875,0 -1.09375,0.5 -1.3125,1.125 v -1.125 L 0.375,-4.40625 v 0.46875 c 0.609375,0 0.6875,0 0.6875,0.390625 V -0.46875 H 0.375 V 0 l 1.25,-0.03125 C 2,-0.03125 2.640625,-0.03125 3,0 V -0.46875 H 2.140625 v -1.75 c 0,-0.6875 0.234375,-1.90625 1.234375,-1.90625 0,0 -0.1875,0.171875 -0.1875,0.453125 0,0.40625 0.328125,0.609375 0.609375,0.609375 0.296875,0 0.609375,-0.203125 0.609375,-0.609375 z m 0,0"
             id="id-8cb07ee3-190c-432d-a9a4-d990876bfa39" />
        </symbol>
        <symbol
           overflow="visible"
           id="id-828d745c-d7b1-48a6-91c1-0f0200874157">
          <path
             style="stroke:none;stroke-width:0"
             d=""
             id="id-ee653fb2-3694-4da4-8aa5-9c383b7d1b43" />
        </symbol>
        <symbol
           overflow="visible"
           id="id-7760c96c-90e9-4691-b0f3-ab435b1ecdfa">
          <path
             style="stroke:none;stroke-width:0"
             d="M 4.09375,0.0625 C 4.109375,0 4.125,-0.078125 4.046875,-0.078125 c -0.0625,0 -0.078125,0.046875 -0.109375,0.125 C 3.859375,0.3125 3.578125,0.40625 3.40625,0.40625 c -0.109375,0 -0.3125,0 -0.4375,-0.46875 0.5625,-0.203125 1.25,-0.828125 1.40625,-1.71875 0.171875,-1.03125 -0.515625,-1.890625 -1.546875,-1.890625 -1.03125,0 -2,0.859375 -2.171875,1.890625 -0.1875,1.0625 0.53125,1.875 1.546875,1.875 0.25,0 0.46875,-0.046875 0.515625,-0.0625 C 2.75,0.5625 2.765625,1 3.25,1 3.765625,1 4.046875,0.390625 4.09375,0.0625 Z M 3.796875,-1.78125 c -0.09375,0.59375 -0.375,1.1875 -0.890625,1.515625 -0.078125,-0.203125 -0.203125,-0.53125 -0.546875,-0.53125 -0.28125,0 -0.515625,0.21875 -0.546875,0.4375 -0.015625,0.125 0.015625,0.203125 0.015625,0.203125 C 1.5,-0.296875 1.046875,-0.703125 1.234375,-1.78125 1.453125,-3.078125 2.265625,-3.5 2.796875,-3.5 c 0.546875,0 1.21875,0.421875 1,1.71875 z m -1.09375,1.609375 c -0.015625,0 -0.234375,0.09375 -0.46875,0.09375 -0.296875,0 -0.28125,-0.25 -0.265625,-0.28125 0.015625,-0.15625 0.171875,-0.28125 0.359375,-0.28125 0.21875,0 0.359375,0.15625 0.375,0.46875 z m 0,0"
             id="id-83a00658-e221-4b5d-9652-47c93242276d" />
        </symbol>
      </g>
    </defs>
    <g
       id="id-33aa93f7-01b7-41cc-8e5f-03cfaefd0fc3"
       transform="translate(-149.087,-130.281)">
      <g
         style="fill:#000000;fill-opacity:1"
         id="id-83b8c0a3-2915-46df-bf8e-b38c460f7256">
        <g
           transform="translate(148.712,134.765)"
           id="g3267">
          <path
             style="stroke:none;stroke-width:0"
             d="m 4.40625,-3.671875 c 0,-0.53125 -0.53125,-0.8125 -1.0625,-0.8125 -0.6875,0 -1.09375,0.5 -1.3125,1.125 v -1.125 L 0.375,-4.40625 v 0.46875 c 0.609375,0 0.6875,0 0.6875,0.390625 V -0.46875 H 0.375 V 0 l 1.25,-0.03125 C 2,-0.03125 2.640625,-0.03125 3,0 V -0.46875 H 2.140625 v -1.75 c 0,-0.6875 0.234375,-1.90625 1.234375,-1.90625 0,0 -0.1875,0.171875 -0.1875,0.453125 0,0.40625 0.328125,0.609375 0.609375,0.609375 0.296875,0 0.609375,-0.203125 0.609375,-0.609375 z m 0,0"
             id="id-ca6824b6-2d69-4b1e-be13-d326ee0344e6" />
        </g>
      </g>
      <g
         style="fill:#000000;fill-opacity:1"
         id="id-3014c711-2af3-444e-a18d-381b5e5c7761">
        <g
           transform="translate(153.431,136.259)"
           id="g3271">
          <path
             style="stroke:none;stroke-width:0"
             d="M 4.09375,0.0625 C 4.109375,0 4.125,-0.078125 4.046875,-0.078125 c -0.0625,0 -0.078125,0.046875 -0.109375,0.125 C 3.859375,0.3125 3.578125,0.40625 3.40625,0.40625 c -0.109375,0 -0.3125,0 -0.4375,-0.46875 0.5625,-0.203125 1.25,-0.828125 1.40625,-1.71875 0.171875,-1.03125 -0.515625,-1.890625 -1.546875,-1.890625 -1.03125,0 -2,0.859375 -2.171875,1.890625 -0.1875,1.0625 0.53125,1.875 1.546875,1.875 0.25,0 0.46875,-0.046875 0.515625,-0.0625 C 2.75,0.5625 2.765625,1 3.25,1 3.765625,1 4.046875,0.390625 4.09375,0.0625 Z M 3.796875,-1.78125 c -0.09375,0.59375 -0.375,1.1875 -0.890625,1.515625 -0.078125,-0.203125 -0.203125,-0.53125 -0.546875,-0.53125 -0.28125,0 -0.515625,0.21875 -0.546875,0.4375 -0.015625,0.125 0.015625,0.203125 0.015625,0.203125 C 1.5,-0.296875 1.046875,-0.703125 1.234375,-1.78125 1.453125,-3.078125 2.265625,-3.5 2.796875,-3.5 c 0.546875,0 1.21875,0.421875 1,1.71875 z m -1.09375,1.609375 c -0.015625,0 -0.234375,0.09375 -0.46875,0.09375 -0.296875,0 -0.28125,-0.25 -0.265625,-0.28125 0.015625,-0.15625 0.171875,-0.28125 0.359375,-0.28125 0.21875,0 0.359375,0.15625 0.375,0.46875 z m 0,0"
             id="id-68457925-c6e2-4ad3-8e09-3a8c84dd91f7" />
        </g>
      </g>
    </g>
  </g>
  <g
     transform="matrix(1.33333,0,0,1.33333,301.61886,103.14482)"
     ns4:version="1.8.2"
     ns4:texconverter="pdflatex"
     ns4:pdfconverter="inkscape"
     ns4:text="$\\vec{a}_\\vc{q}$"
     ns4:preamble="/media/topo/TOSEXT4/doctorado/upm/docencia/libros-apuntes/apuntes-fisica/figuras/TexText/preambulo_textext.tex"
     ns4:scale="1.0"
     ns4:alignment="middle center"
     ns4:stroke-to-path="0"
     ns4:inkscapeversion="1.1.1"
     ns4:jacobian_sqrt="1.33333"
     id="g3896"
     style="fill:#008000">
    <defs
       id="id-1a7b28ba-7ae8-478e-989b-d75b583a361a">
      <g
         id="id-98f162ab-e1ff-4e12-8a35-e4547c9f42cf">
        <symbol
           overflow="visible"
           id="id-76e47044-b441-4a69-a77e-fcc3736728b3">
          <path
             style="stroke:none;stroke-width:0"
             d=""
             id="id-ae315bcc-0951-405f-b967-4c046e2c8111" />
        </symbol>
        <symbol
           overflow="visible"
           id="id-41ca86aa-f995-4505-b8d8-c6df27892e7d">
          <path
             style="stroke:none;stroke-width:0"
             d="m 5.515625,-0.234375 c 0,-0.234375 -0.125,-0.234375 -0.265625,-0.234375 -0.609375,-0.015625 -0.609375,-0.140625 -0.609375,-0.375 v -2.140625 c 0,-0.890625 -0.703125,-1.53125 -2.1875,-1.53125 -0.5625,0 -1.78125,0.046875 -1.78125,0.921875 0,0.4375 0.34375,0.625 0.609375,0.625 0.3125,0 0.625,-0.21875 0.625,-0.625 0,-0.296875 -0.1875,-0.46875 -0.21875,-0.5 0.28125,-0.046875 0.609375,-0.0625 0.71875,-0.0625 0.75,0 1.109375,0.421875 1.109375,1.171875 v 0.34375 c -0.71875,0.03125 -3.25,0.125 -3.25,1.5625 C 0.265625,-0.125 1.5,0.0625 2.1875,0.0625 c 0.796875,0 1.265625,-0.40625 1.484375,-0.828125 0,0.3125 0,0.765625 1.046875,0.765625 H 5.1875 c 0.203125,0 0.328125,0 0.328125,-0.234375 z m -2,-1.15625 c 0,0.96875 -0.921875,1.09375 -1.171875,1.09375 -0.515625,0 -0.90625,-0.34375 -0.90625,-0.796875 0,-1.0625 1.578125,-1.203125 2.078125,-1.234375 z m 0,0"
             id="id-d0b59f2e-bb9b-4ec4-9a4d-6c2644d41301" />
        </symbol>
        <symbol
           overflow="visible"
           id="id-2fb5fb14-9130-474b-b540-147ae6dcf40f">
          <path
             style="stroke:none;stroke-width:0"
             d=""
             id="id-b9178963-6dc2-4305-845a-5cde2ecc2539" />
        </symbol>
        <symbol
           overflow="visible"
           id="id-345771b7-9ebf-489c-9b24-30851dfd742f">
          <path
             style="stroke:none;stroke-width:0"
             d="M 4.09375,0.0625 C 4.109375,0 4.125,-0.078125 4.046875,-0.078125 c -0.0625,0 -0.078125,0.046875 -0.109375,0.125 C 3.859375,0.3125 3.578125,0.40625 3.40625,0.40625 c -0.109375,0 -0.3125,0 -0.4375,-0.46875 0.5625,-0.203125 1.25,-0.828125 1.40625,-1.71875 0.171875,-1.03125 -0.515625,-1.890625 -1.546875,-1.890625 -1.03125,0 -2,0.859375 -2.171875,1.890625 -0.1875,1.0625 0.53125,1.875 1.546875,1.875 0.25,0 0.46875,-0.046875 0.515625,-0.0625 C 2.75,0.5625 2.765625,1 3.25,1 3.765625,1 4.046875,0.390625 4.09375,0.0625 Z M 3.796875,-1.78125 c -0.09375,0.59375 -0.375,1.1875 -0.890625,1.515625 -0.078125,-0.203125 -0.203125,-0.53125 -0.546875,-0.53125 -0.28125,0 -0.515625,0.21875 -0.546875,0.4375 -0.015625,0.125 0.015625,0.203125 0.015625,0.203125 C 1.5,-0.296875 1.046875,-0.703125 1.234375,-1.78125 1.453125,-3.078125 2.265625,-3.5 2.796875,-3.5 c 0.546875,0 1.21875,0.421875 1,1.71875 z m -1.09375,1.609375 c -0.015625,0 -0.234375,0.09375 -0.46875,0.09375 -0.296875,0 -0.28125,-0.25 -0.265625,-0.28125 0.015625,-0.15625 0.171875,-0.28125 0.359375,-0.28125 0.21875,0 0.359375,0.15625 0.375,0.46875 z m 0,0"
             id="id-9593a6b8-3654-4d1c-aef2-5ffa83c4f777" />
        </symbol>
      </g>
    </defs>
    <g
       id="id-80386135-1325-406b-93dd-396edd6b9810"
       transform="translate(-148.978,-130.249)"
       style="fill:#008000">
      <g
         style="fill:#008000;fill-opacity:1"
         id="id-35b2e272-52f5-4e17-9eaf-77c834d685ab">
        <g
           transform="translate(148.712,134.765)"
           id="g3888"
           style="fill:#008000">
          <path
             style="fill:#008000;stroke:none;stroke-width:0"
             d="m 5.515625,-0.234375 c 0,-0.234375 -0.125,-0.234375 -0.265625,-0.234375 -0.609375,-0.015625 -0.609375,-0.140625 -0.609375,-0.375 v -2.140625 c 0,-0.890625 -0.703125,-1.53125 -2.1875,-1.53125 -0.5625,0 -1.78125,0.046875 -1.78125,0.921875 0,0.4375 0.34375,0.625 0.609375,0.625 0.3125,0 0.625,-0.21875 0.625,-0.625 0,-0.296875 -0.1875,-0.46875 -0.21875,-0.5 0.28125,-0.046875 0.609375,-0.0625 0.71875,-0.0625 0.75,0 1.109375,0.421875 1.109375,1.171875 v 0.34375 c -0.71875,0.03125 -3.25,0.125 -3.25,1.5625 C 0.265625,-0.125 1.5,0.0625 2.1875,0.0625 c 0.796875,0 1.265625,-0.40625 1.484375,-0.828125 0,0.3125 0,0.765625 1.046875,0.765625 H 5.1875 c 0.203125,0 0.328125,0 0.328125,-0.234375 z m -2,-1.15625 c 0,0.96875 -0.921875,1.09375 -1.171875,1.09375 -0.515625,0 -0.90625,-0.34375 -0.90625,-0.796875 0,-1.0625 1.578125,-1.203125 2.078125,-1.234375 z m 0,0"
             id="id-307d273c-4776-4120-ba5b-cfc44450654e" />
        </g>
      </g>
      <g
         style="fill:#008000;fill-opacity:1"
         id="id-0fe6f247-660e-49fb-82db-4da2ca9efd26">
        <g
           transform="translate(154.281,136.259)"
           id="g3892"
           style="fill:#008000">
          <path
             style="fill:#008000;stroke:none;stroke-width:0"
             d="M 4.09375,0.0625 C 4.109375,0 4.125,-0.078125 4.046875,-0.078125 c -0.0625,0 -0.078125,0.046875 -0.109375,0.125 C 3.859375,0.3125 3.578125,0.40625 3.40625,0.40625 c -0.109375,0 -0.3125,0 -0.4375,-0.46875 0.5625,-0.203125 1.25,-0.828125 1.40625,-1.71875 0.171875,-1.03125 -0.515625,-1.890625 -1.546875,-1.890625 -1.03125,0 -2,0.859375 -2.171875,1.890625 -0.1875,1.0625 0.53125,1.875 1.546875,1.875 0.25,0 0.46875,-0.046875 0.515625,-0.0625 C 2.75,0.5625 2.765625,1 3.25,1 3.765625,1 4.046875,0.390625 4.09375,0.0625 Z M 3.796875,-1.78125 c -0.09375,0.59375 -0.375,1.1875 -0.890625,1.515625 -0.078125,-0.203125 -0.203125,-0.53125 -0.546875,-0.53125 -0.28125,0 -0.515625,0.21875 -0.546875,0.4375 -0.015625,0.125 0.015625,0.203125 0.015625,0.203125 C 1.5,-0.296875 1.046875,-0.703125 1.234375,-1.78125 1.453125,-3.078125 2.265625,-3.5 2.796875,-3.5 c 0.546875,0 1.21875,0.421875 1,1.71875 z m -1.09375,1.609375 c -0.015625,0 -0.234375,0.09375 -0.46875,0.09375 -0.296875,0 -0.28125,-0.25 -0.265625,-0.28125 0.015625,-0.15625 0.171875,-0.28125 0.359375,-0.28125 0.21875,0 0.359375,0.15625 0.375,0.46875 z m 0,0"
             id="id-a19eacb2-8bdf-4eb7-9aac-d59193b41bc3" />
        </g>
      </g>
    </g>
  </g>
  <g
     transform="matrix(1.33333,0,0,1.33333,267.09347,127.01575)"
     ns4:version="1.8.2"
     ns4:texconverter="pdflatex"
     ns4:pdfconverter="inkscape"
     ns4:text="$\\vec{a}_n^\\vc{q}$"
     ns4:preamble="/media/topo/TOSEXT4/doctorado/upm/docencia/libros-apuntes/apuntes-fisica/figuras/TexText/preambulo_textext.tex"
     ns4:scale="1.0"
     ns4:alignment="middle center"
     ns4:stroke-to-path="0"
     ns4:inkscapeversion="1.1.1"
     ns4:jacobian_sqrt="1.33333"
     id="g4551"
     style="fill:#ff0000">
    <defs
       id="id-20f32f0c-d765-4ac2-9424-5389c2708892">
      <g
         id="id-cf901934-c86b-4480-a164-fb99c7484993">
        <symbol
           overflow="visible"
           id="id-4f0f4309-a6a4-463c-a8cc-204cb647718f">
          <path
             style="stroke:none;stroke-width:0"
             d=""
             id="id-d5d3dba5-d2e1-4923-9338-343056f1008f" />
        </symbol>
        <symbol
           overflow="visible"
           id="id-691bb10e-fd4c-4afc-960b-0db31c6edac5">
          <path
             style="stroke:none;stroke-width:0"
             d="m 5.515625,-0.234375 c 0,-0.234375 -0.125,-0.234375 -0.265625,-0.234375 -0.609375,-0.015625 -0.609375,-0.140625 -0.609375,-0.375 v -2.140625 c 0,-0.890625 -0.703125,-1.53125 -2.1875,-1.53125 -0.5625,0 -1.78125,0.046875 -1.78125,0.921875 0,0.4375 0.34375,0.625 0.609375,0.625 0.3125,0 0.625,-0.21875 0.625,-0.625 0,-0.296875 -0.1875,-0.46875 -0.21875,-0.5 0.28125,-0.046875 0.609375,-0.0625 0.71875,-0.0625 0.75,0 1.109375,0.421875 1.109375,1.171875 v 0.34375 c -0.71875,0.03125 -3.25,0.125 -3.25,1.5625 C 0.265625,-0.125 1.5,0.0625 2.1875,0.0625 c 0.796875,0 1.265625,-0.40625 1.484375,-0.828125 0,0.3125 0,0.765625 1.046875,0.765625 H 5.1875 c 0.203125,0 0.328125,0 0.328125,-0.234375 z m -2,-1.15625 c 0,0.96875 -0.921875,1.09375 -1.171875,1.09375 -0.515625,0 -0.90625,-0.34375 -0.90625,-0.796875 0,-1.0625 1.578125,-1.203125 2.078125,-1.234375 z m 0,0"
             id="id-9f339448-8d8f-4489-8089-2442f1230577" />
        </symbol>
        <symbol
           overflow="visible"
           id="id-0bc4bed0-8228-4f8f-a14d-86d235f7109d">
          <path
             style="stroke:none;stroke-width:0"
             d=""
             id="id-616732f8-2c0f-4929-ada3-11abb90ccfc9" />
        </symbol>
        <symbol
           overflow="visible"
           id="id-353858dc-4a83-4b61-bc47-71151ec510c5">
          <path
             style="stroke:none;stroke-width:0"
             d="M 4.09375,0.0625 C 4.109375,0 4.125,-0.078125 4.046875,-0.078125 c -0.0625,0 -0.078125,0.046875 -0.109375,0.125 C 3.859375,0.3125 3.578125,0.40625 3.40625,0.40625 c -0.109375,0 -0.3125,0 -0.4375,-0.46875 0.5625,-0.203125 1.25,-0.828125 1.40625,-1.71875 0.171875,-1.03125 -0.515625,-1.890625 -1.546875,-1.890625 -1.03125,0 -2,0.859375 -2.171875,1.890625 -0.1875,1.0625 0.53125,1.875 1.546875,1.875 0.25,0 0.46875,-0.046875 0.515625,-0.0625 C 2.75,0.5625 2.765625,1 3.25,1 3.765625,1 4.046875,0.390625 4.09375,0.0625 Z M 3.796875,-1.78125 c -0.09375,0.59375 -0.375,1.1875 -0.890625,1.515625 -0.078125,-0.203125 -0.203125,-0.53125 -0.546875,-0.53125 -0.28125,0 -0.515625,0.21875 -0.546875,0.4375 -0.015625,0.125 0.015625,0.203125 0.015625,0.203125 C 1.5,-0.296875 1.046875,-0.703125 1.234375,-1.78125 1.453125,-3.078125 2.265625,-3.5 2.796875,-3.5 c 0.546875,0 1.21875,0.421875 1,1.71875 z m -1.09375,1.609375 c -0.015625,0 -0.234375,0.09375 -0.46875,0.09375 -0.296875,0 -0.28125,-0.25 -0.265625,-0.28125 0.015625,-0.15625 0.171875,-0.28125 0.359375,-0.28125 0.21875,0 0.359375,0.15625 0.375,0.46875 z m 0,0"
             id="id-4775a45b-d8ed-460a-ad09-1d7439dd5107" />
        </symbol>
        <symbol
           overflow="visible"
           id="id-040605f2-0379-4aa6-8e95-6ef7bd93d95d">
          <path
             style="stroke:none;stroke-width:0"
             d=""
             id="id-b290fe18-8dfa-45a3-91e6-a73f2db9c2f4" />
        </symbol>
        <symbol
           overflow="visible"
           id="id-c80cb475-9c47-4231-ac59-a580442f34ad">
          <path
             style="stroke:none;stroke-width:0"
             d="m 4.578125,-1 c 0,-0.09375 -0.078125,-0.09375 -0.109375,-0.09375 -0.09375,0 -0.09375,0.046875 -0.125,0.125 C 4.1875,-0.40625 3.875,-0.125 3.609375,-0.125 c -0.15625,0 -0.1875,-0.09375 -0.1875,-0.25 0,-0.15625 0.046875,-0.25 0.171875,-0.5625 0.078125,-0.21875 0.359375,-0.953125 0.359375,-1.34375 0,-0.671875 -0.53125,-0.796875 -0.90625,-0.796875 -0.578125,0 -0.96875,0.359375 -1.171875,0.640625 -0.046875,-0.484375 -0.453125,-0.640625 -0.75,-0.640625 -0.296875,0 -0.453125,0.21875 -0.546875,0.375 -0.15625,0.265625 -0.25,0.65625 -0.25,0.703125 0,0.078125 0.09375,0.078125 0.125,0.078125 0.09375,0 0.09375,-0.015625 0.140625,-0.203125 0.109375,-0.40625 0.25,-0.75 0.515625,-0.75 0.1875,0 0.234375,0.15625 0.234375,0.34375 0,0.125 -0.0625,0.390625 -0.125,0.578125 l -0.140625,0.625 L 0.84375,-0.4375 c -0.015625,0.09375 -0.0625,0.265625 -0.0625,0.28125 0,0.15625 0.125,0.21875 0.234375,0.21875 0.125,0 0.234375,-0.078125 0.28125,-0.140625 0.03125,-0.0625 0.078125,-0.296875 0.125,-0.4375 l 0.140625,-0.625 c 0.046875,-0.15625 0.09375,-0.3125 0.125,-0.46875 0.078125,-0.28125 0.09375,-0.34375 0.296875,-0.625 C 2.171875,-2.515625 2.5,-2.875 3.03125,-2.875 c 0.390625,0 0.40625,0.359375 0.40625,0.484375 0,0.421875 -0.296875,1.1875 -0.40625,1.484375 -0.078125,0.203125 -0.109375,0.265625 -0.109375,0.375 0,0.375 0.296875,0.59375 0.65625,0.59375 0.703125,0 1,-0.953125 1,-1.0625 z m 0,0"
             id="id-41d600d4-37be-45fb-b69f-36e4f62af26f" />
        </symbol>
      </g>
    </defs>
    <g
       id="id-9e53e4a6-2410-4506-9fc9-20f129a7c710"
       transform="translate(-148.978,-127.477)"
       style="fill:#ff0000">
      <g
         style="fill:#ff0000;fill-opacity:1"
         id="id-950983da-79e1-4135-a05e-223b523f7eb9">
        <g
           transform="translate(148.712,134.765)"
           id="g4539"
           style="fill:#ff0000">
          <path
             style="fill:#ff0000;stroke:none;stroke-width:0"
             d="m 5.515625,-0.234375 c 0,-0.234375 -0.125,-0.234375 -0.265625,-0.234375 -0.609375,-0.015625 -0.609375,-0.140625 -0.609375,-0.375 v -2.140625 c 0,-0.890625 -0.703125,-1.53125 -2.1875,-1.53125 -0.5625,0 -1.78125,0.046875 -1.78125,0.921875 0,0.4375 0.34375,0.625 0.609375,0.625 0.3125,0 0.625,-0.21875 0.625,-0.625 0,-0.296875 -0.1875,-0.46875 -0.21875,-0.5 0.28125,-0.046875 0.609375,-0.0625 0.71875,-0.0625 0.75,0 1.109375,0.421875 1.109375,1.171875 v 0.34375 c -0.71875,0.03125 -3.25,0.125 -3.25,1.5625 C 0.265625,-0.125 1.5,0.0625 2.1875,0.0625 c 0.796875,0 1.265625,-0.40625 1.484375,-0.828125 0,0.3125 0,0.765625 1.046875,0.765625 H 5.1875 c 0.203125,0 0.328125,0 0.328125,-0.234375 z m -2,-1.15625 c 0,0.96875 -0.921875,1.09375 -1.171875,1.09375 -0.515625,0 -0.90625,-0.34375 -0.90625,-0.796875 0,-1.0625 1.578125,-1.203125 2.078125,-1.234375 z m 0,0"
             id="id-90c9fd81-7247-4fba-b212-b88b210ea515" />
        </g>
      </g>
      <g
         style="fill:#ff0000;fill-opacity:1"
         id="id-04a740d7-ab81-4ad6-b500-54139b0dcc9a">
        <g
           transform="translate(154.498,131.149)"
           id="g4543"
           style="fill:#ff0000">
          <path
             style="fill:#ff0000;stroke:none;stroke-width:0"
             d="M 4.09375,0.0625 C 4.109375,0 4.125,-0.078125 4.046875,-0.078125 c -0.0625,0 -0.078125,0.046875 -0.109375,0.125 C 3.859375,0.3125 3.578125,0.40625 3.40625,0.40625 c -0.109375,0 -0.3125,0 -0.4375,-0.46875 0.5625,-0.203125 1.25,-0.828125 1.40625,-1.71875 0.171875,-1.03125 -0.515625,-1.890625 -1.546875,-1.890625 -1.03125,0 -2,0.859375 -2.171875,1.890625 -0.1875,1.0625 0.53125,1.875 1.546875,1.875 0.25,0 0.46875,-0.046875 0.515625,-0.0625 C 2.75,0.5625 2.765625,1 3.25,1 3.765625,1 4.046875,0.390625 4.09375,0.0625 Z M 3.796875,-1.78125 c -0.09375,0.59375 -0.375,1.1875 -0.890625,1.515625 -0.078125,-0.203125 -0.203125,-0.53125 -0.546875,-0.53125 -0.28125,0 -0.515625,0.21875 -0.546875,0.4375 -0.015625,0.125 0.015625,0.203125 0.015625,0.203125 C 1.5,-0.296875 1.046875,-0.703125 1.234375,-1.78125 1.453125,-3.078125 2.265625,-3.5 2.796875,-3.5 c 0.546875,0 1.21875,0.421875 1,1.71875 z m -1.09375,1.609375 c -0.015625,0 -0.234375,0.09375 -0.46875,0.09375 -0.296875,0 -0.28125,-0.25 -0.265625,-0.28125 0.015625,-0.15625 0.171875,-0.28125 0.359375,-0.28125 0.21875,0 0.359375,0.15625 0.375,0.46875 z m 0,0"
             id="id-e7636d78-f106-4c00-992b-01d1b85e2463" />
        </g>
      </g>
      <g
         style="fill:#ff0000;fill-opacity:1"
         id="id-9db5d146-6766-4944-8b26-000af32b60eb">
        <g
           transform="translate(154.281,137.228)"
           id="g4547"
           style="fill:#ff0000">
          <path
             style="fill:#ff0000;stroke:none;stroke-width:0"
             d="m 4.578125,-1 c 0,-0.09375 -0.078125,-0.09375 -0.109375,-0.09375 -0.09375,0 -0.09375,0.046875 -0.125,0.125 C 4.1875,-0.40625 3.875,-0.125 3.609375,-0.125 c -0.15625,0 -0.1875,-0.09375 -0.1875,-0.25 0,-0.15625 0.046875,-0.25 0.171875,-0.5625 0.078125,-0.21875 0.359375,-0.953125 0.359375,-1.34375 0,-0.671875 -0.53125,-0.796875 -0.90625,-0.796875 -0.578125,0 -0.96875,0.359375 -1.171875,0.640625 -0.046875,-0.484375 -0.453125,-0.640625 -0.75,-0.640625 -0.296875,0 -0.453125,0.21875 -0.546875,0.375 -0.15625,0.265625 -0.25,0.65625 -0.25,0.703125 0,0.078125 0.09375,0.078125 0.125,0.078125 0.09375,0 0.09375,-0.015625 0.140625,-0.203125 0.109375,-0.40625 0.25,-0.75 0.515625,-0.75 0.1875,0 0.234375,0.15625 0.234375,0.34375 0,0.125 -0.0625,0.390625 -0.125,0.578125 l -0.140625,0.625 L 0.84375,-0.4375 c -0.015625,0.09375 -0.0625,0.265625 -0.0625,0.28125 0,0.15625 0.125,0.21875 0.234375,0.21875 0.125,0 0.234375,-0.078125 0.28125,-0.140625 0.03125,-0.0625 0.078125,-0.296875 0.125,-0.4375 l 0.140625,-0.625 c 0.046875,-0.15625 0.09375,-0.3125 0.125,-0.46875 0.078125,-0.28125 0.09375,-0.34375 0.296875,-0.625 C 2.171875,-2.515625 2.5,-2.875 3.03125,-2.875 c 0.390625,0 0.40625,0.359375 0.40625,0.484375 0,0.421875 -0.296875,1.1875 -0.40625,1.484375 -0.078125,0.203125 -0.109375,0.265625 -0.109375,0.375 0,0.375 0.296875,0.59375 0.65625,0.59375 0.703125,0 1,-0.953125 1,-1.0625 z m 0,0"
             id="id-5926b998-efd2-4003-8e5f-b77b9cbfc897" />
        </g>
      </g>
    </g>
  </g>
  <g
     transform="matrix(1.33333,0,0,1.33333,335.41807,121.65667)"
     ns4:version="1.8.2"
     ns4:texconverter="pdflatex"
     ns4:pdfconverter="inkscape"
     ns4:text="$\\vec{a}_t^\\vc{q}$"
     ns4:preamble="/media/topo/TOSEXT4/doctorado/upm/docencia/libros-apuntes/apuntes-fisica/figuras/TexText/preambulo_textext.tex"
     ns4:scale="1.0"
     ns4:alignment="middle center"
     ns4:stroke-to-path="0"
     ns4:inkscapeversion="1.1.1"
     ns4:jacobian_sqrt="1.33333"
     style="fill:#ff0000;stroke-width:0"
     id="g4551-7">
    <defs
       id="id-3e8a1441-99be-4a1a-859f-a78bc8e2da82"
       style="fill:#ff0000;stroke-width:0">
      <g
         id="id-2f9f8d2b-5b41-47b1-8186-161a7cea8635"
         style="fill:#ff0000;stroke-width:0">
        <symbol
           overflow="visible"
           id="id-0e2a6cb6-3304-4d0f-aa79-ef9f6480b240"
           style="fill:#ff0000;stroke-width:0">
          <path
             style="fill:#ff0000;stroke:#ff0000;stroke-width:0"
             d=""
             id="id-862477b5-d81a-4ad6-b3c9-03d2a1f4516c" />
        </symbol>
        <symbol
           overflow="visible"
           id="id-43e1929d-966e-4148-8ad5-63e9ecee8e1d"
           style="fill:#ff0000;stroke-width:0">
          <path
             style="fill:#ff0000;stroke:#ff0000;stroke-width:0"
             d="m 5.515625,-0.234375 c 0,-0.234375 -0.125,-0.234375 -0.265625,-0.234375 -0.609375,-0.015625 -0.609375,-0.140625 -0.609375,-0.375 v -2.140625 c 0,-0.890625 -0.703125,-1.53125 -2.1875,-1.53125 -0.5625,0 -1.78125,0.046875 -1.78125,0.921875 0,0.4375 0.34375,0.625 0.609375,0.625 0.3125,0 0.625,-0.21875 0.625,-0.625 0,-0.296875 -0.1875,-0.46875 -0.21875,-0.5 0.28125,-0.046875 0.609375,-0.0625 0.71875,-0.0625 0.75,0 1.109375,0.421875 1.109375,1.171875 v 0.34375 c -0.71875,0.03125 -3.25,0.125 -3.25,1.5625 C 0.265625,-0.125 1.5,0.0625 2.1875,0.0625 c 0.796875,0 1.265625,-0.40625 1.484375,-0.828125 0,0.3125 0,0.765625 1.046875,0.765625 H 5.1875 c 0.203125,0 0.328125,0 0.328125,-0.234375 z m -2,-1.15625 c 0,0.96875 -0.921875,1.09375 -1.171875,1.09375 -0.515625,0 -0.90625,-0.34375 -0.90625,-0.796875 0,-1.0625 1.578125,-1.203125 2.078125,-1.234375 z m 0,0"
             id="id-46b93456-daa3-4c6f-9a28-ce0eb36769e7" />
        </symbol>
        <symbol
           overflow="visible"
           id="id-969f42e0-7acb-4bd2-9a1b-5bac43b7320d"
           style="fill:#ff0000;stroke-width:0">
          <path
             style="fill:#ff0000;stroke:#ff0000;stroke-width:0"
             d=""
             id="id-e292d44a-d38e-4962-ba8a-3188ac35bf06" />
        </symbol>
        <symbol
           overflow="visible"
           id="id-92af0000-0add-476a-8066-e763858c5d56"
           style="fill:#ff0000;stroke-width:0">
          <path
             style="fill:#ff0000;stroke:#ff0000;stroke-width:0"
             d="M 4.09375,0.0625 C 4.109375,0 4.125,-0.078125 4.046875,-0.078125 c -0.0625,0 -0.078125,0.046875 -0.109375,0.125 C 3.859375,0.3125 3.578125,0.40625 3.40625,0.40625 c -0.109375,0 -0.3125,0 -0.4375,-0.46875 0.5625,-0.203125 1.25,-0.828125 1.40625,-1.71875 0.171875,-1.03125 -0.515625,-1.890625 -1.546875,-1.890625 -1.03125,0 -2,0.859375 -2.171875,1.890625 -0.1875,1.0625 0.53125,1.875 1.546875,1.875 0.25,0 0.46875,-0.046875 0.515625,-0.0625 C 2.75,0.5625 2.765625,1 3.25,1 3.765625,1 4.046875,0.390625 4.09375,0.0625 Z M 3.796875,-1.78125 c -0.09375,0.59375 -0.375,1.1875 -0.890625,1.515625 -0.078125,-0.203125 -0.203125,-0.53125 -0.546875,-0.53125 -0.28125,0 -0.515625,0.21875 -0.546875,0.4375 -0.015625,0.125 0.015625,0.203125 0.015625,0.203125 C 1.5,-0.296875 1.046875,-0.703125 1.234375,-1.78125 1.453125,-3.078125 2.265625,-3.5 2.796875,-3.5 c 0.546875,0 1.21875,0.421875 1,1.71875 z m -1.09375,1.609375 c -0.015625,0 -0.234375,0.09375 -0.46875,0.09375 -0.296875,0 -0.28125,-0.25 -0.265625,-0.28125 0.015625,-0.15625 0.171875,-0.28125 0.359375,-0.28125 0.21875,0 0.359375,0.15625 0.375,0.46875 z m 0,0"
             id="id-ca17944b-a069-4e07-9264-c5cdf13cb162" />
        </symbol>
        <symbol
           overflow="visible"
           id="id-ff06d139-7079-4564-9cdc-5b0c29d11722"
           style="fill:#ff0000;stroke-width:0">
          <path
             style="fill:#ff0000;stroke:#ff0000;stroke-width:0"
             d=""
             id="id-7bb0f62c-fccd-48c6-95ec-178da60d41d9" />
        </symbol>
        <symbol
           overflow="visible"
           id="id-5a69954a-ce6c-4fac-a217-f39d4f354536"
           style="fill:#ff0000;stroke-width:0">
          <path
             style="fill:#ff0000;stroke:#ff0000;stroke-width:0"
             d="m 2.609375,-1 c 0,-0.09375 -0.09375,-0.09375 -0.109375,-0.09375 -0.09375,0 -0.09375,0.015625 -0.15625,0.140625 -0.1875,0.4375 -0.546875,0.828125 -0.921875,0.828125 -0.15625,0 -0.25,-0.09375 -0.25,-0.34375 0,-0.0625 0.03125,-0.21875 0.046875,-0.28125 l 0.5,-2 h 0.703125 c 0.140625,0 0.21875,0 0.21875,-0.15625 C 2.640625,-3 2.5625,-3 2.4375,-3 H 1.78125 l 0.25,-1.03125 C 2.046875,-4.0625 2.0625,-4.109375 2.0625,-4.125 c 0,-0.140625 -0.109375,-0.234375 -0.25,-0.234375 -0.171875,0 -0.265625,0.125 -0.328125,0.296875 C 1.4375,-3.875 1.53125,-4.21875 1.21875,-3 H 0.515625 c -0.125,0 -0.21875,0 -0.21875,0.15625 C 0.296875,-2.75 0.375,-2.75 0.5,-2.75 H 1.15625 L 0.75,-1.109375 C 0.703125,-0.9375 0.640625,-0.6875 0.640625,-0.59375 c 0,0.40625 0.359375,0.65625 0.75,0.65625 0.78125,0 1.21875,-0.96875 1.21875,-1.0625 z m 0,0"
             id="id-329b89ca-34b0-46f3-a2ba-a801f80b9e30" />
        </symbol>
      </g>
    </defs>
    <g
       id="id-e595f338-5aca-4886-a419-d6f8cf3904af"
       transform="translate(-148.978,-126.657)"
       style="fill:#ff0000;stroke-width:0">
      <g
         style="fill:#ff0000;fill-opacity:1;stroke-width:0"
         id="id-5af0519a-c23a-48eb-a833-fa1af0f387a4">
        <g
           transform="translate(148.712,134.765)"
           style="fill:#ff0000;stroke-width:0"
           id="g5604">
          <path
             style="fill:#ff0000;stroke:#ff0000;stroke-width:0"
             d="m 5.515625,-0.234375 c 0,-0.234375 -0.125,-0.234375 -0.265625,-0.234375 -0.609375,-0.015625 -0.609375,-0.140625 -0.609375,-0.375 v -2.140625 c 0,-0.890625 -0.703125,-1.53125 -2.1875,-1.53125 -0.5625,0 -1.78125,0.046875 -1.78125,0.921875 0,0.4375 0.34375,0.625 0.609375,0.625 0.3125,0 0.625,-0.21875 0.625,-0.625 0,-0.296875 -0.1875,-0.46875 -0.21875,-0.5 0.28125,-0.046875 0.609375,-0.0625 0.71875,-0.0625 0.75,0 1.109375,0.421875 1.109375,1.171875 v 0.34375 c -0.71875,0.03125 -3.25,0.125 -3.25,1.5625 C 0.265625,-0.125 1.5,0.0625 2.1875,0.0625 c 0.796875,0 1.265625,-0.40625 1.484375,-0.828125 0,0.3125 0,0.765625 1.046875,0.765625 H 5.1875 c 0.203125,0 0.328125,0 0.328125,-0.234375 z m -2,-1.15625 c 0,0.96875 -0.921875,1.09375 -1.171875,1.09375 -0.515625,0 -0.90625,-0.34375 -0.90625,-0.796875 0,-1.0625 1.578125,-1.203125 2.078125,-1.234375 z m 0,0"
             id="id-1f6b5988-a774-40c9-b8c1-0d8308ff835c" />
        </g>
      </g>
      <g
         style="fill:#ff0000;fill-opacity:1;stroke-width:0"
         id="id-8df2cc90-76d0-420b-bff0-a407966454dd">
        <g
           transform="translate(154.498,130.329)"
           style="fill:#ff0000;stroke-width:0"
           id="g5608">
          <path
             style="fill:#ff0000;stroke:#ff0000;stroke-width:0"
             d="M 4.09375,0.0625 C 4.109375,0 4.125,-0.078125 4.046875,-0.078125 c -0.0625,0 -0.078125,0.046875 -0.109375,0.125 C 3.859375,0.3125 3.578125,0.40625 3.40625,0.40625 c -0.109375,0 -0.3125,0 -0.4375,-0.46875 0.5625,-0.203125 1.25,-0.828125 1.40625,-1.71875 0.171875,-1.03125 -0.515625,-1.890625 -1.546875,-1.890625 -1.03125,0 -2,0.859375 -2.171875,1.890625 -0.1875,1.0625 0.53125,1.875 1.546875,1.875 0.25,0 0.46875,-0.046875 0.515625,-0.0625 C 2.75,0.5625 2.765625,1 3.25,1 3.765625,1 4.046875,0.390625 4.09375,0.0625 Z M 3.796875,-1.78125 c -0.09375,0.59375 -0.375,1.1875 -0.890625,1.515625 -0.078125,-0.203125 -0.203125,-0.53125 -0.546875,-0.53125 -0.28125,0 -0.515625,0.21875 -0.546875,0.4375 -0.015625,0.125 0.015625,0.203125 0.015625,0.203125 C 1.5,-0.296875 1.046875,-0.703125 1.234375,-1.78125 1.453125,-3.078125 2.265625,-3.5 2.796875,-3.5 c 0.546875,0 1.21875,0.421875 1,1.71875 z m -1.09375,1.609375 c -0.015625,0 -0.234375,0.09375 -0.46875,0.09375 -0.296875,0 -0.28125,-0.25 -0.265625,-0.28125 0.015625,-0.15625 0.171875,-0.28125 0.359375,-0.28125 0.21875,0 0.359375,0.15625 0.375,0.46875 z m 0,0"
             id="id-30c5c7fd-40aa-4a81-9da5-b9ebffc83897" />
        </g>
      </g>
      <g
         style="fill:#ff0000;fill-opacity:1;stroke-width:0"
         id="id-57df93b6-2d84-4172-8301-1bbb2746f19e">
        <g
           transform="translate(154.281,137.217)"
           style="fill:#ff0000;stroke-width:0"
           id="g5612">
          <path
             style="fill:#ff0000;stroke:#ff0000;stroke-width:0"
             d="m 2.609375,-1 c 0,-0.09375 -0.09375,-0.09375 -0.109375,-0.09375 -0.09375,0 -0.09375,0.015625 -0.15625,0.140625 -0.1875,0.4375 -0.546875,0.828125 -0.921875,0.828125 -0.15625,0 -0.25,-0.09375 -0.25,-0.34375 0,-0.0625 0.03125,-0.21875 0.046875,-0.28125 l 0.5,-2 h 0.703125 c 0.140625,0 0.21875,0 0.21875,-0.15625 C 2.640625,-3 2.5625,-3 2.4375,-3 H 1.78125 l 0.25,-1.03125 C 2.046875,-4.0625 2.0625,-4.109375 2.0625,-4.125 c 0,-0.140625 -0.109375,-0.234375 -0.25,-0.234375 -0.171875,0 -0.265625,0.125 -0.328125,0.296875 C 1.4375,-3.875 1.53125,-4.21875 1.21875,-3 H 0.515625 c -0.125,0 -0.21875,0 -0.21875,0.15625 C 0.296875,-2.75 0.375,-2.75 0.5,-2.75 H 1.15625 L 0.75,-1.109375 C 0.703125,-0.9375 0.640625,-0.6875 0.640625,-0.59375 c 0,0.40625 0.359375,0.65625 0.75,0.65625 0.78125,0 1.21875,-0.96875 1.21875,-1.0625 z m 0,0"
             id="id-f305a975-47c7-41bb-af9c-3e1c78258885" />
        </g>
      </g>
    </g>
  </g>
</svg>
