<?xml version="1.0" encoding="UTF-8" standalone="no"?>
<svg
   width="432"
   height="576"
   viewBox="0 0 432 576"
   version="1.1"
   id="svg1063"
   sodipodi:docname="fig-cap8-01-estatica-vec-deslizantes.svg"
   inkscape:version="1.2.1 (9c6d41e410, 2022-07-14)"
   xmlns:inkscape="http://www.inkscape.org/namespaces/inkscape"
   xmlns:sodipodi="http://sodipodi.sourceforge.net/DTD/sodipodi-0.dtd"
   xmlns="http://www.w3.org/2000/svg"
   xmlns:svg="http://www.w3.org/2000/svg"
   xmlns:rdf="http://www.w3.org/1999/02/22-rdf-syntax-ns#"
   xmlns:cc="http://creativecommons.org/ns#"
   xmlns:dc="http://purl.org/dc/elements/1.1/"
   xmlns:ns1="http://www.iki.fi/pav/software/textext/">
  <metadata
     id="metadata1067">
    <rdf:RDF>
      <cc:Work
         rdf:about="">
        <dc:format>image/svg+xml</dc:format>
        <dc:type
           rdf:resource="http://purl.org/dc/dcmitype/StillImage" />
        <dc:title>gl2ps_renderer figure</dc:title>
      </cc:Work>
    </rdf:RDF>
  </metadata>
  <sodipodi:namedview
     pagecolor="#ffffff"
     bordercolor="#666666"
     borderopacity="1"
     objecttolerance="10"
     gridtolerance="10"
     guidetolerance="10"
     inkscape:pageopacity="0"
     inkscape:pageshadow="2"
     inkscape:window-width="1920"
     inkscape:window-height="1026"
     id="namedview1065"
     showgrid="false"
     showguides="true"
     inkscape:guide-bbox="true"
     inkscape:zoom="4.437538"
     inkscape:cx="214.75872"
     inkscape:cy="108.28076"
     inkscape:window-x="0"
     inkscape:window-y="0"
     inkscape:window-maximized="1"
     inkscape:current-layer="svg1063"
     inkscape:showpageshadow="2"
     inkscape:pagecheckerboard="0"
     inkscape:deskcolor="#d1d1d1" />
  <title
     id="title2">gl2ps_renderer figure</title>
  <desc
     id="desc4">
Creator: GL2PS 1.3.9, (C) 1999-2015 C. Geuzaine
For: Octave
CreationDate: Fri Jun  9 17:40:15 2017
</desc>
  <defs
     id="defs6">
    <marker
       inkscape:isstock="true"
       style="overflow:visible"
       id="marker12348"
       refX="0"
       refY="0"
       orient="auto"
       inkscape:stockid="Arrow1Mend">
      <path
         transform="matrix(-0.4,0,0,-0.4,-4,0)"
         style="fill:#ff0000;fill-opacity:1;fill-rule:evenodd;stroke:#ff0000;stroke-width:1.00000003pt;stroke-opacity:1"
         d="M 0,0 5,-5 -12.5,0 5,5 Z"
         id="path12346"
         inkscape:connector-curvature="0" />
    </marker>
    <marker
       inkscape:stockid="Arrow1Mstart"
       orient="auto"
       refY="0.0"
       refX="0.0"
       id="marker8754"
       style="overflow:visible"
       inkscape:isstock="true">
      <path
         id="path8752"
         d="M 0.0,0.0 L 5.0,-5.0 L -12.5,0.0 L 5.0,5.0 L 0.0,0.0 z "
         style="fill-rule:evenodd;stroke:#0000ff;stroke-width:1pt;stroke-opacity:1;fill:#0000ff;fill-opacity:1"
         transform="scale(0.4) translate(10,0)" />
    </marker>
    <clipPath
       id="cp00576432">
      <polygon
         id="polygon12"
         points="576,432 576,0 0,0 0,432 " />
    </clipPath>
    <marker
       inkscape:isstock="true"
       style="overflow:visible"
       id="marker5275-3"
       refX="0"
       refY="0"
       orient="auto"
       inkscape:stockid="Arrow1Mend">
      <path
         transform="matrix(-0.4,0,0,-0.4,-4,0)"
         style="fill:#008000;fill-opacity:1;fill-rule:evenodd;stroke:#008000;stroke-width:1.00000003pt;stroke-opacity:1"
         d="M 0,0 5,-5 -12.5,0 5,5 Z"
         id="path5273-6"
         inkscape:connector-curvature="0" />
    </marker>
    <marker
       inkscape:isstock="true"
       style="overflow:visible"
       id="marker5970-5"
       refX="0"
       refY="0"
       orient="auto"
       inkscape:stockid="Arrow1Mend">
      <path
         transform="matrix(-0.4,0,0,-0.4,-4,0)"
         style="fill:#008000;fill-opacity:1;fill-rule:evenodd;stroke:#008000;stroke-width:1.00000003pt;stroke-opacity:1"
         d="M 0,0 5,-5 -12.5,0 5,5 Z"
         id="path5968-3"
         inkscape:connector-curvature="0" />
    </marker>
    <marker
       inkscape:isstock="true"
       style="overflow:visible"
       id="marker6855-6"
       refX="0"
       refY="0"
       orient="auto"
       inkscape:stockid="Arrow1Mend">
      <path
         transform="matrix(-0.4,0,0,-0.4,-4,0)"
         style="fill:#008000;fill-opacity:1;fill-rule:evenodd;stroke:#008000;stroke-width:1.00000003pt;stroke-opacity:1"
         d="M 0,0 5,-5 -12.5,0 5,5 Z"
         id="path6853-2"
         inkscape:connector-curvature="0" />
    </marker>
    <marker
       inkscape:stockid="Arrow1Mstart"
       orient="auto"
       refY="0"
       refX="0"
       id="marker8754-2"
       style="overflow:visible"
       inkscape:isstock="true">
      <path
         inkscape:connector-curvature="0"
         id="path8752-1"
         d="M 0,0 5,-5 -12.5,0 5,5 Z"
         style="fill:#000000;fill-opacity:1;fill-rule:evenodd;stroke:#000000;stroke-width:1.00000003pt;stroke-opacity:1"
         transform="matrix(0.4,0,0,0.4,4,0)" />
    </marker>
    <marker
       inkscape:stockid="Arrow1Mstart"
       orient="auto"
       refY="0"
       refX="0"
       id="marker8754-2-6"
       style="overflow:visible"
       inkscape:isstock="true">
      <path
         inkscape:connector-curvature="0"
         id="path8752-1-9"
         d="M 0,0 5,-5 -12.5,0 5,5 Z"
         style="fill:#000000;fill-opacity:1;fill-rule:evenodd;stroke:#000000;stroke-width:1.00000003pt;stroke-opacity:1"
         transform="matrix(0.4,0,0,0.4,4,0)" />
    </marker>
    <marker
       inkscape:stockid="Arrow1Mstart"
       orient="auto"
       refY="0"
       refX="0"
       id="marker8754-9"
       style="overflow:visible"
       inkscape:isstock="true">
      <path
         inkscape:connector-curvature="0"
         id="path8752-7"
         d="M 0,0 5,-5 -12.5,0 5,5 Z"
         style="fill:#000000;fill-opacity:1;fill-rule:evenodd;stroke:#000000;stroke-width:1.00000003pt;stroke-opacity:1"
         transform="matrix(0.4,0,0,0.4,4,0)" />
    </marker>
    <marker
       inkscape:stockid="Arrow1Mstart"
       orient="auto"
       refY="0"
       refX="0"
       id="marker8754-9-2"
       style="overflow:visible"
       inkscape:isstock="true">
      <path
         inkscape:connector-curvature="0"
         id="path8752-7-7"
         d="M 0,0 5,-5 -12.5,0 5,5 Z"
         style="fill:#000000;fill-opacity:1;fill-rule:evenodd;stroke:#000000;stroke-width:1.00000003pt;stroke-opacity:1"
         transform="matrix(0.4,0,0,0.4,4,0)" />
    </marker>
    <marker
       inkscape:stockid="Arrow1Mstart"
       orient="auto"
       refY="0"
       refX="0"
       id="marker8754-9-5"
       style="overflow:visible"
       inkscape:isstock="true">
      <path
         inkscape:connector-curvature="0"
         id="path8752-7-8"
         d="M 0,0 5,-5 -12.5,0 5,5 Z"
         style="fill:#000000;fill-opacity:1;fill-rule:evenodd;stroke:#000000;stroke-width:1.00000003pt;stroke-opacity:1"
         transform="matrix(0.4,0,0,0.4,4,0)" />
    </marker>
    <marker
       inkscape:stockid="Arrow1Mstart"
       orient="auto"
       refY="0"
       refX="0"
       id="marker8754-9-5-4"
       style="overflow:visible"
       inkscape:isstock="true">
      <path
         inkscape:connector-curvature="0"
         id="path8752-7-8-5"
         d="M 0,0 5,-5 -12.5,0 5,5 Z"
         style="fill:#000000;fill-opacity:1;fill-rule:evenodd;stroke:#000000;stroke-width:1.00000003pt;stroke-opacity:1"
         transform="matrix(0.4,0,0,0.4,4,0)" />
    </marker>
    <marker
       inkscape:stockid="Arrow1Mstart"
       orient="auto"
       refY="0"
       refX="0"
       id="marker8754-5"
       style="overflow:visible"
       inkscape:isstock="true">
      <path
         inkscape:connector-curvature="0"
         id="path8752-6"
         d="M 0,0 5,-5 -12.5,0 5,5 Z"
         style="fill:#000000;fill-opacity:1;fill-rule:evenodd;stroke:#000000;stroke-width:1.00000003pt;stroke-opacity:1"
         transform="matrix(0.4,0,0,0.4,4,0)" />
    </marker>
    <marker
       inkscape:stockid="Arrow1Mstart"
       orient="auto"
       refY="0"
       refX="0"
       id="marker8754-5-4"
       style="overflow:visible"
       inkscape:isstock="true">
      <path
         inkscape:connector-curvature="0"
         id="path8752-6-8"
         d="M 0,0 5,-5 -12.5,0 5,5 Z"
         style="fill:#000000;fill-opacity:1;fill-rule:evenodd;stroke:#000000;stroke-width:1.00000003pt;stroke-opacity:1"
         transform="matrix(0.4,0,0,0.4,4,0)" />
    </marker>
    <marker
       inkscape:stockid="Arrow1Mend"
       orient="auto"
       refY="0"
       refX="0"
       id="marker18232-3"
       style="overflow:visible"
       inkscape:isstock="true">
      <path
         inkscape:connector-curvature="0"
         id="path18230-6"
         d="M 0,0 5,-5 -12.5,0 5,5 Z"
         style="fill:#000000;fill-opacity:1;fill-rule:evenodd;stroke:#000000;stroke-width:1.00000003pt;stroke-opacity:1"
         transform="matrix(-0.4,0,0,-0.4,-4,0)" />
    </marker>
    <marker
       inkscape:stockid="Arrow1Mend"
       orient="auto"
       refY="0"
       refX="0"
       id="marker18232-5"
       style="overflow:visible"
       inkscape:isstock="true">
      <path
         inkscape:connector-curvature="0"
         id="path18230-3"
         d="M 0,0 5,-5 -12.5,0 5,5 Z"
         style="fill:#000000;fill-opacity:1;fill-rule:evenodd;stroke:#000000;stroke-width:1.00000003pt;stroke-opacity:1"
         transform="matrix(-0.4,0,0,-0.4,-4,0)" />
    </marker>
    <marker
       inkscape:stockid="Arrow1Mend"
       orient="auto"
       refY="0"
       refX="0"
       id="marker18232-3-0"
       style="overflow:visible"
       inkscape:isstock="true">
      <path
         inkscape:connector-curvature="0"
         id="path18230-6-6"
         d="M 0,0 5,-5 -12.5,0 5,5 Z"
         style="fill:#000000;fill-opacity:1;fill-rule:evenodd;stroke:#000000;stroke-width:1.00000003pt;stroke-opacity:1"
         transform="matrix(-0.4,0,0,-0.4,-4,0)" />
    </marker>
    <marker
       inkscape:stockid="Arrow1Mend"
       orient="auto"
       refY="0"
       refX="0"
       id="marker18232-3-0-6"
       style="overflow:visible"
       inkscape:isstock="true">
      <path
         inkscape:connector-curvature="0"
         id="path18230-6-6-2"
         d="M 0,0 5,-5 -12.5,0 5,5 Z"
         style="fill:#000000;fill-opacity:1;fill-rule:evenodd;stroke:#000000;stroke-width:1.00000003pt;stroke-opacity:1"
         transform="matrix(-0.4,0,0,-0.4,-4,0)" />
    </marker>
    <marker
       inkscape:stockid="Arrow1Mend"
       orient="auto"
       refY="0"
       refX="0"
       id="marker18232-3-0-8"
       style="overflow:visible"
       inkscape:isstock="true">
      <path
         inkscape:connector-curvature="0"
         id="path18230-6-6-6"
         d="M 0,0 5,-5 -12.5,0 5,5 Z"
         style="fill:#000000;fill-opacity:1;fill-rule:evenodd;stroke:#000000;stroke-width:1.00000003pt;stroke-opacity:1"
         transform="matrix(-0.4,0,0,-0.4,-4,0)" />
    </marker>
    <marker
       inkscape:isstock="true"
       style="overflow:visible"
       id="marker7405-3"
       refX="0"
       refY="0"
       orient="auto"
       inkscape:stockid="Arrow1Mend">
      <path
         transform="matrix(-0.4,0,0,-0.4,-4,0)"
         style="fill:#800080;fill-opacity:1;fill-rule:evenodd;stroke:#800080;stroke-width:1.00000003pt;stroke-opacity:1"
         d="M 0,0 5,-5 -12.5,0 5,5 Z"
         id="path7403-6"
         inkscape:connector-curvature="0" />
    </marker>
    <marker
       inkscape:stockid="Arrow1Mend"
       orient="auto"
       refY="0"
       refX="0"
       id="marker18232-3-0-8-7"
       style="overflow:visible"
       inkscape:isstock="true">
      <path
         inkscape:connector-curvature="0"
         id="path18230-6-6-6-5"
         d="M 0,0 5,-5 -12.5,0 5,5 Z"
         style="fill:#000000;fill-opacity:1;fill-rule:evenodd;stroke:#000000;stroke-width:1.00000003pt;stroke-opacity:1"
         transform="matrix(-0.4,0,0,-0.4,-4,0)" />
    </marker>
    <marker
       inkscape:stockid="Arrow1Mend"
       orient="auto"
       refY="0"
       refX="0"
       id="marker18232-3-0-6-3"
       style="overflow:visible"
       inkscape:isstock="true">
      <path
         inkscape:connector-curvature="0"
         id="path18230-6-6-2-5"
         d="M 0,0 5,-5 -12.5,0 5,5 Z"
         style="fill:#000000;fill-opacity:1;fill-rule:evenodd;stroke:#000000;stroke-width:1.00000003pt;stroke-opacity:1"
         transform="matrix(-0.4,0,0,-0.4,-4,0)" />
    </marker>
    <marker
       inkscape:stockid="Arrow1Mend"
       orient="auto"
       refY="0"
       refX="0"
       id="marker18232-3-0-62"
       style="overflow:visible"
       inkscape:isstock="true">
      <path
         inkscape:connector-curvature="0"
         id="path18230-6-6-9"
         d="M 0,0 5,-5 -12.5,0 5,5 Z"
         style="fill:#000000;fill-opacity:1;fill-rule:evenodd;stroke:#000000;stroke-width:1.00000003pt;stroke-opacity:1"
         transform="matrix(-0.4,0,0,-0.4,-4,0)" />
    </marker>
    <marker
       inkscape:stockid="Arrow1Mend"
       orient="auto"
       refY="0"
       refX="0"
       id="marker18232-5-1"
       style="overflow:visible"
       inkscape:isstock="true">
      <path
         inkscape:connector-curvature="0"
         id="path18230-3-2"
         d="M 0,0 5,-5 -12.5,0 5,5 Z"
         style="fill:#000000;fill-opacity:1;fill-rule:evenodd;stroke:#000000;stroke-width:1.00000003pt;stroke-opacity:1"
         transform="matrix(-0.4,0,0,-0.4,-4,0)" />
    </marker>
    <marker
       inkscape:stockid="Arrow1Mend"
       orient="auto"
       refY="0"
       refX="0"
       id="marker18232-3-7"
       style="overflow:visible"
       inkscape:isstock="true">
      <path
         inkscape:connector-curvature="0"
         id="path18230-6-0"
         d="M 0,0 5,-5 -12.5,0 5,5 Z"
         style="fill:#000000;fill-opacity:1;fill-rule:evenodd;stroke:#000000;stroke-width:1.00000003pt;stroke-opacity:1"
         transform="matrix(-0.4,0,0,-0.4,-4,0)" />
    </marker>
    <marker
       inkscape:isstock="true"
       style="overflow:visible"
       id="marker7405-3-8"
       refX="0"
       refY="0"
       orient="auto"
       inkscape:stockid="Arrow1Mend">
      <path
         transform="matrix(-0.4,0,0,-0.4,-4,0)"
         style="fill:#800080;fill-opacity:1;fill-rule:evenodd;stroke:#800080;stroke-width:1.00000003pt;stroke-opacity:1"
         d="M 0,0 5,-5 -12.5,0 5,5 Z"
         id="path7403-6-4"
         inkscape:connector-curvature="0" />
    </marker>
    <marker
       inkscape:isstock="true"
       style="overflow:visible"
       id="marker12348-9"
       refX="0"
       refY="0"
       orient="auto"
       inkscape:stockid="Arrow1Mend">
      <path
         transform="matrix(-0.4,0,0,-0.4,-4,0)"
         style="fill:#ff0000;fill-opacity:1;fill-rule:evenodd;stroke:#ff0000;stroke-width:1.00000003pt;stroke-opacity:1"
         d="M 0,0 5,-5 -12.5,0 5,5 Z"
         id="path12346-0"
         inkscape:connector-curvature="0" />
    </marker>
    <marker
       inkscape:isstock="true"
       style="overflow:visible"
       id="marker12348-9-9"
       refX="0"
       refY="0"
       orient="auto"
       inkscape:stockid="Arrow1Mend">
      <path
         transform="matrix(-0.4,0,0,-0.4,-4,0)"
         style="fill:#0000ff;fill-opacity:1;fill-rule:evenodd;stroke:#0000ff;stroke-width:1.00000003pt;stroke-opacity:1"
         d="M 0,0 5,-5 -12.5,0 5,5 Z"
         id="path12346-0-6"
         inkscape:connector-curvature="0" />
    </marker>
    <marker
       inkscape:isstock="true"
       style="overflow:visible"
       id="marker12348-9-9-3"
       refX="0"
       refY="0"
       orient="auto"
       inkscape:stockid="Arrow1Mend">
      <path
         transform="matrix(-0.4,0,0,-0.4,-4,0)"
         style="fill:#0000ff;fill-opacity:1;fill-rule:evenodd;stroke:#0000ff;stroke-width:1.00000003pt;stroke-opacity:1"
         d="M 0,0 5,-5 -12.5,0 5,5 Z"
         id="path12346-0-6-6"
         inkscape:connector-curvature="0" />
    </marker>
    <marker
       inkscape:stockid="Arrow1Mstart"
       orient="auto"
       refY="0"
       refX="0"
       id="marker8754-4"
       style="overflow:visible"
       inkscape:isstock="true">
      <path
         inkscape:connector-curvature="0"
         id="path8752-3"
         d="M 0,0 5,-5 -12.5,0 5,5 Z"
         style="fill:#0000ff;fill-opacity:1;fill-rule:evenodd;stroke:#0000ff;stroke-width:1.00000003pt;stroke-opacity:1"
         transform="matrix(0.4,0,0,0.4,4,0)" />
    </marker>
    <marker
       inkscape:isstock="true"
       style="overflow:visible"
       id="marker12348-9-9-5"
       refX="0"
       refY="0"
       orient="auto"
       inkscape:stockid="Arrow1Mend">
      <path
         transform="matrix(-0.4,0,0,-0.4,-4,0)"
         style="fill:#0000ff;fill-opacity:1;fill-rule:evenodd;stroke:#0000ff;stroke-width:1.00000003pt;stroke-opacity:1"
         d="M 0,0 5,-5 -12.5,0 5,5 Z"
         id="path12346-0-6-1"
         inkscape:connector-curvature="0" />
    </marker>
    <marker
       inkscape:isstock="true"
       style="overflow:visible"
       id="marker12348-9-7"
       refX="0"
       refY="0"
       orient="auto"
       inkscape:stockid="Arrow1Mend">
      <path
         transform="matrix(-0.4,0,0,-0.4,-4,0)"
         style="fill:#ff0000;fill-opacity:1;fill-rule:evenodd;stroke:#ff0000;stroke-width:1.00000003pt;stroke-opacity:1"
         d="M 0,0 5,-5 -12.5,0 5,5 Z"
         id="path12346-0-4"
         inkscape:connector-curvature="0" />
    </marker>
    <marker
       inkscape:stockid="Arrow1Mstart"
       orient="auto"
       refY="0"
       refX="0"
       id="marker8754-0"
       style="overflow:visible"
       inkscape:isstock="true">
      <path
         inkscape:connector-curvature="0"
         id="path8752-30"
         d="M 0,0 5,-5 -12.5,0 5,5 Z"
         style="fill:#0000ff;fill-opacity:1;fill-rule:evenodd;stroke:#0000ff;stroke-width:1.00000003pt;stroke-opacity:1"
         transform="matrix(0.4,0,0,0.4,4,0)" />
    </marker>
    <marker
       inkscape:isstock="true"
       style="overflow:visible"
       id="marker12348-9-9-0"
       refX="0"
       refY="0"
       orient="auto"
       inkscape:stockid="Arrow1Mend">
      <path
         transform="matrix(-0.4,0,0,-0.4,-4,0)"
         style="fill:#0000ff;fill-opacity:1;fill-rule:evenodd;stroke:#0000ff;stroke-width:1.00000003pt;stroke-opacity:1"
         d="M 0,0 5,-5 -12.5,0 5,5 Z"
         id="path12346-0-6-4"
         inkscape:connector-curvature="0" />
    </marker>
    <marker
       inkscape:isstock="true"
       style="overflow:visible"
       id="marker12348-9-5"
       refX="0"
       refY="0"
       orient="auto"
       inkscape:stockid="Arrow1Mend">
      <path
         transform="matrix(-0.4,0,0,-0.4,-4,0)"
         style="fill:#ff0000;fill-opacity:1;fill-rule:evenodd;stroke:#ff0000;stroke-width:1.00000003pt;stroke-opacity:1"
         d="M 0,0 5,-5 -12.5,0 5,5 Z"
         id="path12346-0-42"
         inkscape:connector-curvature="0" />
    </marker>
    <g
       id="id-c2f2d59f-791f-4a2d-8c5b-230b289083f8-7">
      <symbol
         overflow="visible"
         id="id-5f30f5df-026a-4782-8f47-ba2781784531-5">
        <path
           style="stroke:none"
           d=""
           id="id-ae716046-eb65-46e9-920a-b31f55e2161f-3" />
      </symbol>
      <symbol
         overflow="visible"
         id="id-ba1f03ae-529a-4832-846f-14253a59a81f-5">
        <path
           style="stroke:none"
           d="m 6.734375,-4.375 -0.3125,-2.40625 H 0.390625 V -6.3125 H 1.46875 v 5.84375 H 0.390625 V 0 c 0.375,-0.03125 1.390625,-0.03125 1.828125,-0.03125 0.484375,0 1.5625,0 2.015625,0.03125 V -0.46875 H 2.875 v -2.6875 h 0.5 c 0.96875,0 1.046875,0.421875 1.046875,1.15625 h 0.46875 V -4.796875 H 4.421875 C 4.421875,-4.0625 4.34375,-3.625 3.375,-3.625 h -0.5 v -2.6875 h 1.40625 c 1.59375,0 1.828125,0.765625 1.984375,1.9375 z m 0,0"
           id="id-3989932c-5cad-4409-aa22-55868cf6999e-6" />
      </symbol>
    </g>
    <g
       id="g1828-9">
      <symbol
         overflow="visible"
         id="symbol1822-3">
        <path
           style="stroke:none"
           d=""
           id="path1820-6" />
      </symbol>
      <symbol
         overflow="visible"
         id="symbol1826-0">
        <path
           style="stroke:none"
           d="m 6.734375,-4.375 -0.3125,-2.40625 H 0.390625 V -6.3125 H 1.46875 v 5.84375 H 0.390625 V 0 c 0.375,-0.03125 1.390625,-0.03125 1.828125,-0.03125 0.484375,0 1.5625,0 2.015625,0.03125 V -0.46875 H 2.875 v -2.6875 h 0.5 c 0.96875,0 1.046875,0.421875 1.046875,1.15625 h 0.46875 V -4.796875 H 4.421875 C 4.421875,-4.0625 4.34375,-3.625 3.375,-3.625 h -0.5 v -2.6875 h 1.40625 c 1.59375,0 1.828125,0.765625 1.984375,1.9375 z m 0,0"
           id="path1824-6" />
      </symbol>
    </g>
    <g
       id="g2522-2">
      <symbol
         overflow="visible"
         id="symbol2516-0">
        <path
           style="stroke:none"
           d=""
           id="path2514-2" />
      </symbol>
      <symbol
         overflow="visible"
         id="symbol2520-3">
        <path
           style="stroke:none"
           d="m 6.734375,-4.375 -0.3125,-2.40625 H 0.390625 V -6.3125 H 1.46875 v 5.84375 H 0.390625 V 0 c 0.375,-0.03125 1.390625,-0.03125 1.828125,-0.03125 0.484375,0 1.5625,0 2.015625,0.03125 V -0.46875 H 2.875 v -2.6875 h 0.5 c 0.96875,0 1.046875,0.421875 1.046875,1.15625 h 0.46875 V -4.796875 H 4.421875 C 4.421875,-4.0625 4.34375,-3.625 3.375,-3.625 h -0.5 v -2.6875 h 1.40625 c 1.59375,0 1.828125,0.765625 1.984375,1.9375 z m 0,0"
           id="path2518-7" />
      </symbol>
    </g>
    <g
       id="g3216-7">
      <symbol
         overflow="visible"
         id="symbol3210-3">
        <path
           style="stroke:none"
           d=""
           id="path3208-6" />
      </symbol>
      <symbol
         overflow="visible"
         id="symbol3214-1">
        <path
           style="stroke:none"
           d="m 6.734375,-4.375 -0.3125,-2.40625 H 0.390625 V -6.3125 H 1.46875 v 5.84375 H 0.390625 V 0 c 0.375,-0.03125 1.390625,-0.03125 1.828125,-0.03125 0.484375,0 1.5625,0 2.015625,0.03125 V -0.46875 H 2.875 v -2.6875 h 0.5 c 0.96875,0 1.046875,0.421875 1.046875,1.15625 h 0.46875 V -4.796875 H 4.421875 C 4.421875,-4.0625 4.34375,-3.625 3.375,-3.625 h -0.5 v -2.6875 h 1.40625 c 1.59375,0 1.828125,0.765625 1.984375,1.9375 z m 0,0"
           id="path3212-2" />
      </symbol>
    </g>
    <g
       id="id-a4cee333-dadc-4322-8e1f-c66eeec5237a-8">
      <symbol
         overflow="visible"
         id="id-90a9e08a-58e6-4eb7-b569-9df38eaa8007-4">
        <path
           style="stroke:none;stroke-width:0"
           d=""
           id="id-df0c116c-5ad0-47d2-a3ff-c4d98cffc97e-5" />
      </symbol>
      <symbol
         overflow="visible"
         id="id-f2abe1c7-a995-4819-974c-58d7138d7a66-0">
        <path
           style="stroke:none;stroke-width:0"
           d="m 7.375,-4.34375 c 0,-1.609375 -1.0625,-2.6875 -2.546875,-2.6875 -2.140625,0 -4.34375,2.265625 -4.34375,4.59375 0,1.65625 1.125,2.65625 2.5625,2.65625 2.109375,0 4.328125,-2.1875 4.328125,-4.5625 z M 6.484375,-4.734375 c 0,0.71875 -0.265625,2.265625 -1.25,3.5 C 4.75,-0.625 3.9375,-0.046875 3.09375,-0.046875 c -0.984375,0 -1.671875,-0.796875 -1.671875,-2.109375 0,-0.453125 0.140625,-1.90625 0.90625,-3.0625 0.6875,-1.046875 1.65625,-1.5625 2.453125,-1.5625 0.8125,0 1.703125,0.5625 1.703125,2.046875 z m 0,0"
           id="id-48d4e36a-4419-477e-8628-9c959a4284a2-3" />
      </symbol>
    </g>
    <g
       id="id-a4cee333-dadc-4322-8e1f-c66eeec5237a-0">
      <symbol
         overflow="visible"
         id="id-90a9e08a-58e6-4eb7-b569-9df38eaa8007-6">
        <path
           style="stroke:none;stroke-width:0"
           d=""
           id="id-df0c116c-5ad0-47d2-a3ff-c4d98cffc97e-1" />
      </symbol>
      <symbol
         overflow="visible"
         id="id-f2abe1c7-a995-4819-974c-58d7138d7a66-5">
        <path
           style="stroke:none;stroke-width:0"
           d="m 7.375,-4.34375 c 0,-1.609375 -1.0625,-2.6875 -2.546875,-2.6875 -2.140625,0 -4.34375,2.265625 -4.34375,4.59375 0,1.65625 1.125,2.65625 2.5625,2.65625 2.109375,0 4.328125,-2.1875 4.328125,-4.5625 z M 6.484375,-4.734375 c 0,0.71875 -0.265625,2.265625 -1.25,3.5 C 4.75,-0.625 3.9375,-0.046875 3.09375,-0.046875 c -0.984375,0 -1.671875,-0.796875 -1.671875,-2.109375 0,-0.453125 0.140625,-1.90625 0.90625,-3.0625 0.6875,-1.046875 1.65625,-1.5625 2.453125,-1.5625 0.8125,0 1.703125,0.5625 1.703125,2.046875 z m 0,0"
           id="id-48d4e36a-4419-477e-8628-9c959a4284a2-5" />
      </symbol>
    </g>
    <g
       id="id-1819568d-0e13-4e71-b540-4afb5e38f671-3">
      <symbol
         overflow="visible"
         id="id-94875f94-1a5b-4c8b-822e-bd61ed387ad5-7">
        <path
           style="stroke:none"
           d=""
           id="id-ae532db8-bfbc-4072-9b87-6194630aa094-4" />
      </symbol>
      <symbol
         overflow="visible"
         id="id-4fb3dee8-401a-48cd-9d0a-317583a76a59-5">
        <path
           style="stroke:none"
           d="m 7.375,-4.34375 c 0,-1.609375 -1.0625,-2.6875 -2.546875,-2.6875 -2.140625,0 -4.34375,2.265625 -4.34375,4.59375 0,1.65625 1.125,2.65625 2.5625,2.65625 2.109375,0 4.328125,-2.1875 4.328125,-4.5625 z M 6.484375,-4.734375 c 0,0.71875 -0.265625,2.265625 -1.25,3.5 C 4.75,-0.625 3.9375,-0.046875 3.09375,-0.046875 c -0.984375,0 -1.671875,-0.796875 -1.671875,-2.109375 0,-0.453125 0.140625,-1.90625 0.90625,-3.0625 0.6875,-1.046875 1.65625,-1.5625 2.453125,-1.5625 0.8125,0 1.703125,0.5625 1.703125,2.046875 z m 0,0"
           id="id-effecbe1-bfdd-4433-a7a6-5f0baaba6efc-2" />
      </symbol>
      <symbol
         overflow="visible"
         id="id-4f0d4ce2-e6f9-4737-bbd1-a6503a530324-5">
        <path
           style="stroke:none"
           d=""
           id="id-72f34e40-e59d-45d8-a041-c698e07b03c8-4" />
      </symbol>
      <symbol
         overflow="visible"
         id="id-24066d0f-352a-4a39-908a-a9d9ac68ddcf-7">
        <path
           style="stroke:none"
           d="m 2.078125,-3.515625 c 0,-0.21875 -0.1875,-0.375 -0.40625,-0.375 -0.28125,0 -0.34375,0.21875 -0.375,0.3125 L 0.375,-0.5625 0.328125,-0.4375 c 0,0.078125 0.21875,0.15625 0.28125,0.15625 0.046875,0 0.078125,-0.046875 0.09375,-0.109375 l 1.328125,-2.90625 c 0.03125,-0.0625 0.046875,-0.125 0.046875,-0.21875 z m 0,0"
           id="id-db63781a-1d03-4514-bfae-59e251e27f90-4" />
      </symbol>
    </g>
    <g
       id="id-a4cee333-dadc-4322-8e1f-c66eeec5237a-3">
      <symbol
         overflow="visible"
         id="id-90a9e08a-58e6-4eb7-b569-9df38eaa8007-1">
        <path
           style="stroke:none;stroke-width:0"
           d=""
           id="id-df0c116c-5ad0-47d2-a3ff-c4d98cffc97e-4" />
      </symbol>
      <symbol
         overflow="visible"
         id="id-f2abe1c7-a995-4819-974c-58d7138d7a66-9">
        <path
           style="stroke:none;stroke-width:0"
           d="m 7.375,-4.34375 c 0,-1.609375 -1.0625,-2.6875 -2.546875,-2.6875 -2.140625,0 -4.34375,2.265625 -4.34375,4.59375 0,1.65625 1.125,2.65625 2.5625,2.65625 2.109375,0 4.328125,-2.1875 4.328125,-4.5625 z M 6.484375,-4.734375 c 0,0.71875 -0.265625,2.265625 -1.25,3.5 C 4.75,-0.625 3.9375,-0.046875 3.09375,-0.046875 c -0.984375,0 -1.671875,-0.796875 -1.671875,-2.109375 0,-0.453125 0.140625,-1.90625 0.90625,-3.0625 0.6875,-1.046875 1.65625,-1.5625 2.453125,-1.5625 0.8125,0 1.703125,0.5625 1.703125,2.046875 z m 0,0"
           id="id-48d4e36a-4419-477e-8628-9c959a4284a2-2" />
      </symbol>
    </g>
    <g
       id="id-1819568d-0e13-4e71-b540-4afb5e38f671-6">
      <symbol
         overflow="visible"
         id="id-94875f94-1a5b-4c8b-822e-bd61ed387ad5-4">
        <path
           style="stroke:none"
           d=""
           id="id-ae532db8-bfbc-4072-9b87-6194630aa094-9" />
      </symbol>
      <symbol
         overflow="visible"
         id="id-4fb3dee8-401a-48cd-9d0a-317583a76a59-50">
        <path
           style="stroke:none"
           d="m 7.375,-4.34375 c 0,-1.609375 -1.0625,-2.6875 -2.546875,-2.6875 -2.140625,0 -4.34375,2.265625 -4.34375,4.59375 0,1.65625 1.125,2.65625 2.5625,2.65625 2.109375,0 4.328125,-2.1875 4.328125,-4.5625 z M 6.484375,-4.734375 c 0,0.71875 -0.265625,2.265625 -1.25,3.5 C 4.75,-0.625 3.9375,-0.046875 3.09375,-0.046875 c -0.984375,0 -1.671875,-0.796875 -1.671875,-2.109375 0,-0.453125 0.140625,-1.90625 0.90625,-3.0625 0.6875,-1.046875 1.65625,-1.5625 2.453125,-1.5625 0.8125,0 1.703125,0.5625 1.703125,2.046875 z m 0,0"
           id="id-effecbe1-bfdd-4433-a7a6-5f0baaba6efc-4" />
      </symbol>
      <symbol
         overflow="visible"
         id="id-4f0d4ce2-e6f9-4737-bbd1-a6503a530324-8">
        <path
           style="stroke:none"
           d=""
           id="id-72f34e40-e59d-45d8-a041-c698e07b03c8-7" />
      </symbol>
      <symbol
         overflow="visible"
         id="id-24066d0f-352a-4a39-908a-a9d9ac68ddcf-1">
        <path
           style="stroke:none"
           d="m 2.078125,-3.515625 c 0,-0.21875 -0.1875,-0.375 -0.40625,-0.375 -0.28125,0 -0.34375,0.21875 -0.375,0.3125 L 0.375,-0.5625 0.328125,-0.4375 c 0,0.078125 0.21875,0.15625 0.28125,0.15625 0.046875,0 0.078125,-0.046875 0.09375,-0.109375 l 1.328125,-2.90625 c 0.03125,-0.0625 0.046875,-0.125 0.046875,-0.21875 z m 0,0"
           id="id-db63781a-1d03-4514-bfae-59e251e27f90-7" />
      </symbol>
    </g>
  </defs>
  <path
     style="fill:none;fill-rule:evenodd;stroke:#000000;stroke-width:0.40658754;stroke-linecap:butt;stroke-linejoin:miter;stroke-miterlimit:4;stroke-dasharray:none;stroke-opacity:1"
     d="m 162.45834,146.01554 c 0.16991,-0.49579 -0.60828,-0.69913 -0.62798,-1.13643 -0.007,-0.16297 0.18997,-0.36322 0.16872,-0.5227 -0.057,-0.4279 -0.54579,-0.71545 -0.62797,-1.13643 -0.0433,-0.22187 0.0941,-0.48658 0.0641,-0.71211 -0.019,-0.14264 -0.19033,-0.23618 -0.20933,-0.3788 -0.03,-0.22553 0.10742,-0.49024 0.0641,-0.71212 -0.0411,-0.21049 -0.2855,-0.35426 -0.31398,-0.56821 -0.0213,-0.15947 0.11254,-0.34845 0.16871,-0.5227 0.38561,-1.19485 -0.12624,0.28501 0.61079,-1.37873 0.0781,-0.17621 0.0773,-0.34573 0.16871,-0.52269 0.44208,-0.856 0.20932,0.37881 0.82011,-0.9999 0.11044,-0.24923 -0.0464,-0.46286 0.0641,-0.7121 0.0987,-0.22293 0.41184,-0.44235 0.54675,-0.66659 0.10662,-0.17731 0.062,-0.34545 0.16872,-0.52271 0.26981,-0.44851 0.89596,-0.88736 1.09348,-1.3332 0.11044,-0.24923 -0.0464,-0.46286 0.0641,-0.7121 0.0987,-0.22293 0.41183,-0.44236 0.54673,-0.66661 0.10662,-0.1773 0.11254,-0.34845 0.16872,-0.5227 0.1474,-0.28532 0.25646,-0.57022 0.44208,-0.856 0.2912,-0.44839 0.8023,-0.88482 1.09349,-1.33319 0.18562,-0.28579 0.25646,-0.57023 0.44208,-0.85601 0.1456,-0.22419 0.36449,-0.44441 0.54674,-0.6666 0.18225,-0.2222 0.32082,-0.45092 0.54674,-0.6666 0.17861,-0.17051 0.50732,-0.30153 0.65141,-0.47719 0.23231,-0.28325 0.25646,-0.57022 0.44208,-0.85601 0.29119,-0.44838 0.72899,-0.88879 1.09348,-1.33319 0.54674,-0.66661 1.09348,-1.3332 1.64022,-1.9998 0.18225,-0.2222 0.33008,-0.44911 0.54675,-0.6666 0.2762,-0.27724 0.65627,-0.53192 0.92477,-0.8105 1.94812,-2.37519 -0.3038,0.24607 1.74489,-1.81038 0.54167,-0.54373 0.84027,-1.12015 1.36685,-1.6665 2.33651,-2.42422 -0.70214,1.03194 2.22758,-1.76487 0.45186,-0.43136 0.65199,-0.89978 1.0935,-1.33321 0.45508,-0.44678 1.12108,-0.84091 1.57618,-1.28769 0.4415,-0.43344 0.72897,-0.88878 1.09348,-1.33319 0.36449,-0.4444 0.7726,-0.88575 1.09347,-1.33319 0.28363,-0.39552 0.43184,-0.79381 0.71546,-1.18931 0.32088,-0.44745 0.72899,-0.88879 1.09348,-1.3332 3.11935,-3.80316 -0.86421,0.93414 2.29163,-2.47699 0.4065,-0.43937 0.72901,-0.8888 1.09347,-1.33318 0.36451,-0.44441 0.77263,-0.88577 1.09349,-1.33321 0.75358,-1.05083 0.65543,-1.46061 1.80895,-2.52251 0.26013,-0.23946 0.74449,-0.3883 1.02944,-0.62108 1.41717,-1.157783 -0.0987,-0.19671 0.71544,-1.189303 0.14402,-0.17567 0.4728,-0.30669 0.6514,-0.47719 0.22592,-0.21569 0.36449,-0.4444 0.54673,-0.6666 0.34316,-0.20703 0.74453,-0.38831 1.02945,-0.62109 0.25487,-0.2082 0.32082,-0.45092 0.54674,-0.66659 0.35722,-0.34101 0.94559,-0.61338 1.30281,-0.9544 0.45185,-0.43135 0.58377,-0.91677 1.09348,-1.33319 2.56321,-2.094074 -0.19076,0.54187 1.68084,-1.098277 0.12098,-0.105954 0.13605,-0.232709 0.27336,-0.333295 0.30708,-0.224959 0.70044,-0.406122 1.02943,-0.621094 0.23266,-0.152021 0.40877,-0.330795 0.65142,-0.4772 0.1086,-0.06541 0.26953,-0.07842 0.37805,-0.143895 0.24262,-0.146379 0.39039,-0.344332 0.65139,-0.477187 0.35016,-0.178244 0.78393,-0.253444 1.13409,-0.431687 0.261,-0.132851 0.43426,-0.318136 0.65139,-0.477197 0.34315,-0.207032 0.66035,-0.433195 1.02945,-0.621088 0.58363,-0.297075 1.29736,-0.431019 1.89018,-0.719472 0.3749,-0.182429 0.6545,-0.438654 1.02939,-0.621086 0.35569,-0.173072 0.75609,-0.287787 1.13411,-0.431679 0.88208,-0.33576 1.76417,-0.671504 2.64625,-1.007263 0.50402,-0.191855 1.00809,-0.383717 1.51212,-0.575578 0.37803,-0.143892 0.744,-0.320883 1.1341,-0.431682 3.93999,-1.119068 -1.99462,0.862367 2.85556,-0.628439 0.51744,-0.15906 0.99341,-0.421373 1.51211,-0.575581 0.41009,-0.121932 0.82584,-0.161526 1.23875,-0.242277 0.53894,-0.128734 1.08454,-0.218368 1.6168,-0.386172 0.64548,-0.203499 1.23814,-0.546217 1.89017,-0.719476 0.70225,-0.18661 1.39538,-0.180925 2.09948,-0.340658 8.13456,-1.845447 -2.5953,0.428964 4.26303,-1.393432 0.70223,-0.186604 1.39753,-0.2141 2.09947,-0.340662 1.35657,-0.244584 3.09329,-0.563853 4.47235,-1.014614 0.7719,-0.252314 1.48688,-0.647984 2.26819,-0.863368 7.01523,-1.933865 -3.2604,1.512941 4.47235,-1.014618 0.64326,-0.210257 1.23907,-0.539985 1.89017,-0.719471 5.12404,-1.412532 0.0558,0.377777 4.47235,-1.014619 0.51636,-0.162792 0.98927,-0.450698 1.51212,-0.575579 0.58453,-0.139625 1.13901,-0.09506 1.72144,-0.196767 0.537,-0.09377 1.0784,-0.280872 1.61679,-0.38617 0.292,-0.0571 0.56845,-0.02857 0.86073,-0.09838 0.26141,-0.06245 0.49464,-0.225352 0.75607,-0.28779 0.29227,-0.06982 0.57381,-0.06559 0.86071,-0.09838 0.28692,-0.0328 0.57382,-0.06559 0.86074,-0.09838 0.57381,-0.06558 1.16602,-0.174905 1.72145,-0.196766 0.17564,-0.0069 0.3218,0.03037 0.4827,0.04549 0.16088,0.01517 0.34279,0.0088 0.48268,0.04549 0.22121,0.05798 0.36616,0.176947 0.58736,0.23491 0.13991,0.03665 0.35888,-0.004 0.48271,0.04549 0.1024,0.04096 0.55114,0.997393 0.62797,1.136429 0.10884,0.19697 0.62001,0.959136 0.62797,1.136432 0.007,0.163004 -0.17618,0.359708 -0.16872,0.52271 0.007,0.145763 0.25963,0.222978 0.20932,0.378811 -0.0706,0.220553 -0.41182,0.442342 -0.54672,0.6666 -0.10672,0.177286 -0.062,0.34544 -0.16873,0.522711 -0.13493,0.224252 -0.41183,0.44234 -0.54674,0.666602 -0.10671,0.177281 -0.062,0.345429 -0.16871,0.522698 -0.2698,0.448525 -0.82368,0.884689 -1.09347,1.3332 -0.10672,0.177286 -0.062,0.34544 -0.16873,0.522712 -0.13494,0.224256 -0.36449,0.444403 -0.54675,0.666598 -0.18224,0.222199 -0.36448,0.444399 -0.54674,0.666596 -0.18224,0.222196 -0.32081,0.450927 -0.54674,0.666603 -0.17859,0.170507 -0.50732,0.301526 -0.65139,0.477192 -0.14412,0.175658 -0.0245,0.34707 -0.16872,0.522713 -0.14412,0.175637 -0.46024,0.309641 -0.65139,0.477187 -0.45361,0.397543 -0.6399,0.935662 -1.0935,1.333198 -0.19117,0.167552 -0.43427,0.318123 -0.65141,0.477199 -0.18225,0.222191 -0.3208,0.45092 -0.54673,0.666587 -0.17862,0.170517 -0.47279,0.306694 -0.65141,0.477199 -0.22592,0.21568 -0.32081,0.450925 -0.54674,0.666592 -0.17861,0.170509 -0.47279,0.306695 -0.6514,0.477203 -0.22593,0.215667 -0.32081,0.450916 -0.54674,0.666593 -0.17862,0.170508 -0.43428,0.318132 -0.65141,0.477189 -1.52765,1.119111 0.39619,-0.258852 -1.68084,1.098298 -0.23262,0.152033 -0.39697,0.338895 -0.6514,0.477193 -0.22759,0.123678 -0.5285,0.164096 -0.75606,0.287784 -0.50888,0.276576 -0.81754,0.6616 -1.30282,0.95438 -0.1086,0.0654 -0.26951,0.0784 -0.37803,0.14389 -1.244,0.75054 -0.21938,0.19228 -0.92477,0.8105 -0.19118,0.16755 -0.43426,0.31813 -0.65141,0.47718 -0.21713,0.15907 -0.39696,0.33891 -0.6514,0.47721 -0.22757,0.12367 -0.5285,0.16409 -0.75607,0.28778 -0.68309,0.37129 -0.97367,0.894 -1.57616,1.28769 -0.20809,0.13599 -0.52265,0.16893 -0.75606,0.28779 -0.36913,0.18789 -0.70044,0.40611 -1.02948,0.62108 -0.2326,0.15204 -0.41873,0.32519 -0.65138,0.4772 -0.32901,0.21498 -0.70043,0.40611 -1.02943,0.62109 -0.23266,0.15199 -0.39698,0.338903 -0.6514,0.477193 -0.22758,0.12368 -0.548,0.15179 -0.75606,0.28778 -0.37514,0.24512 -0.57466,0.55402 -0.92478,0.81051 -0.30709,0.22494 -0.70043,0.4061 -1.02945,0.62108 -1.25791,0.82193 -0.047,0.16726 -1.57618,1.2877 -0.30709,0.22495 -0.74449,0.3883 -1.02944,0.62108 -0.25484,0.2082 -0.29188,0.45839 -0.54673,0.6666 -0.28494,0.23278 -0.70044,0.40611 -1.02944,0.62109 -0.23262,0.15203 -0.41876,0.32519 -0.65141,0.47718 -0.329,0.215 -0.72235,0.39615 -1.02941,0.62109 -1.52937,1.12035 -0.31829,0.46575 -1.57619,1.28768 -0.32899,0.21502 -0.72237,0.39615 -1.02944,0.62109 -0.35012,0.25648 -0.57465,0.55402 -0.92478,0.81051 -0.30706,0.225 -0.74445,0.38834 -1.02944,0.62109 -0.25487,0.20817 -0.29189,0.45838 -0.54672,0.6666 -0.28495,0.23278 -0.72239,0.39613 -1.02945,0.62107 -0.35012,0.25649 -0.57464,0.554 -0.92478,0.81051 -0.30704,0.22498 -0.70041,0.4061 -1.02943,0.62107 -0.23264,0.15201 -0.43427,0.31814 -0.65141,0.4772 -0.6514,0.47718 -1.30281,0.9544 -1.9542,1.43159 -0.43427,0.31812 -0.86854,0.63625 -1.3028,0.95439 -0.21715,0.15904 -0.47281,0.30669 -0.65142,0.47718 -0.22591,0.21567 -0.29187,0.45839 -0.54673,0.66661 -0.28494,0.23277 -0.70044,0.4061 -1.02942,0.62108 -0.23267,0.152 -0.41879,0.32516 -0.65143,0.47719 -0.32898,0.215 -0.70041,0.40611 -1.02942,0.62109 -0.23265,0.15201 -0.41876,0.32518 -0.65143,0.47719 -0.32899,0.215 -0.70042,0.40612 -1.02942,0.62109 -0.23264,0.15201 -0.41875,0.32518 -0.6514,0.47719 -0.32901,0.21501 -0.70044,0.40611 -1.02943,0.62109 -0.81288,0.53114 -1.3934,1.09757 -2.33225,1.57549 -0.2334,0.11887 -0.52848,0.16412 -0.75605,0.28777 -0.25441,0.13836 -0.39041,0.34434 -0.65143,0.4772 -0.35013,0.17828 -0.78394,0.25341 -1.1341,0.43169 -0.0169,0.009 -1.25633,0.92402 -1.30279,0.95439 -0.65802,0.42995 -1.37258,0.82811 -2.05888,1.24217 -0.34316,0.207 -0.6545,0.43864 -1.02944,0.62108 -3.39442,1.65171 1.59975,-1.15884 -2.54156,1.19666 -1.40624,0.79986 -2.74995,1.65912 -4.11774,2.48435 -0.34316,0.20701 -0.66033,0.4332 -1.02942,0.62108 -0.23344,0.11889 -0.52267,0.16892 -0.75608,0.28779 -0.36911,0.18787 -0.66032,0.4332 -1.02943,0.62108 -0.23341,0.11889 -0.52847,0.16415 -0.75606,0.2878 -0.25442,0.13835 -0.39042,0.34434 -0.65141,0.4772 -0.35015,0.17828 -0.78395,0.2534 -1.1341,0.43167 -0.26098,0.13288 -0.41873,0.32519 -0.65139,0.4772 -0.329,0.21501 -0.66033,0.43321 -1.02943,0.62108 -0.46688,0.23769 -1.057,0.3282 -1.51214,0.57558 -0.25446,0.13826 -0.43427,0.31814 -0.6514,0.47721 -0.34316,0.20701 -0.66032,0.43319 -1.02942,0.62108 -0.23342,0.11888 -0.50405,0.19186 -0.75607,0.2878 -0.34317,0.20699 -0.66034,0.43318 -1.02944,0.62107 -0.23341,0.1189 -0.52265,0.16891 -0.75607,0.2878 -0.36912,0.18785 -0.6863,0.41405 -1.02944,0.62108 -0.34315,0.20701 -0.70042,0.40611 -1.02943,0.62108 -0.46529,0.30404 -0.79394,0.67781 -1.30282,0.9544 -0.22759,0.12365 -0.52846,0.16413 -0.75606,0.28778 -1.69915,0.92352 0.0685,0.0828 -0.92477,0.81049 -0.19424,0.14223 -0.53906,0.15681 -0.75606,0.28779 -2.48555,1.49959 0.56585,-0.28143 -0.92478,0.8105 -0.0971,0.0711 -0.28094,0.0727 -0.37803,0.14388 -0.13731,0.10057 -0.11988,0.24072 -0.27338,0.33332 -0.21705,0.13088 -0.53906,0.1568 -0.75606,0.28779 -0.15345,0.0926 -0.11988,0.24071 -0.27337,0.33328 -0.21705,0.13088 -0.50404,0.19187 -0.75606,0.28779 -0.12603,0.048 -0.28094,0.0728 -0.37804,0.1439 -0.13731,0.10056 -0.13605,0.2327 -0.27337,0.3333 -0.20472,0.14993 -1.3074,0.42564 -1.51213,0.57557 -0.13733,0.10063 -0.13605,0.2327 -0.27338,0.33329 -0.0992,0.0727 -0.96384,0.36688 -1.13409,0.43169 -0.75606,0.28779 -1.51213,0.57557 -2.26819,0.86337 -0.88208,0.33576 -1.76415,0.67151 -2.64624,1.00725 -0.13901,0.0529 -1.04611,0.42565 -1.13409,0.43169 -0.63001,0.0432 -1.21741,0.005 -1.82611,0.007 z"
     id="path4949-2"
     inkscape:connector-curvature="0" />
  <path
     style="fill:none;fill-rule:evenodd;stroke:#000000;stroke-width:0.18897638;stroke-linecap:butt;stroke-linejoin:miter;stroke-miterlimit:4;stroke-dasharray:none;stroke-opacity:1"
     d="M 155.33315,146.69596 266.47019,74.092717"
     id="path4953-8"
     inkscape:connector-curvature="0"
     sodipodi:nodetypes="cc" />
  <path
     style="fill:none;fill-rule:evenodd;stroke:#ff0000;stroke-width:0.94488192;stroke-linecap:butt;stroke-linejoin:miter;stroke-miterlimit:4;stroke-dasharray:none;stroke-opacity:1;marker-end:url(#marker12348-9)"
     d="M 184.33146,127.76139 205.84043,113.7075"
     id="path4972-8"
     inkscape:connector-curvature="0"
     sodipodi:nodetypes="cc" />
  <path
     style="fill:none;fill-rule:evenodd;stroke:#0000ff;stroke-width:0.94488192;stroke-linecap:butt;stroke-linejoin:miter;stroke-miterlimit:4;stroke-dasharray:none;stroke-opacity:1;marker-end:url(#marker12348-9-9)"
     d="M 236.89511,93.435815 258.25113,79.461808"
     id="path4972-8-2"
     inkscape:connector-curvature="0"
     sodipodi:nodetypes="cc" />
  <circle
     style="opacity:1;fill:#000000;fill-opacity:1;stroke:none;stroke-width:0.13067237;stroke-miterlimit:4;stroke-dasharray:none;stroke-dashoffset:0"
     id="path4955-3-3"
     cx="254.49573"
     cy="11.249797"
     r="1.3346324"
     transform="rotate(18.995008)" />
  <path
     style="fill:none;fill-rule:evenodd;stroke:#0000ff;stroke-width:0.94488192;stroke-linecap:butt;stroke-linejoin:miter;stroke-miterlimit:4;stroke-dasharray:none;stroke-opacity:1;marker-start:url(#marker8754)"
     d="m 162.71951,141.85327 21.61195,-14.09188"
     id="path4972-8-2-0"
     inkscape:connector-curvature="0"
     sodipodi:nodetypes="cc" />
  <circle
     style="opacity:1;fill:#000000;fill-opacity:1;stroke:none;stroke-width:0.13067237;stroke-miterlimit:4;stroke-dasharray:none;stroke-dashoffset:0"
     id="path4955-0"
     cx="184.31604"
     cy="127.78217"
     r="1.3346324" />
  <path
     style="fill:none;fill-rule:evenodd;stroke:#000000;stroke-width:0.40658754;stroke-linecap:butt;stroke-linejoin:miter;stroke-miterlimit:4;stroke-dasharray:none;stroke-opacity:1"
     d="m 256.07595,144.09435 c 0.18001,-0.4922 -0.59386,-0.71141 -0.60461,-1.14903 -0.004,-0.16308 0.19735,-0.35925 0.17937,-0.51914 -0.0482,-0.42897 -0.53105,-0.72646 -0.60461,-1.14903 -0.0387,-0.22271 0.10403,-0.48456 0.0786,-0.71065 -0.0161,-0.143 -0.18546,-0.24003 -0.20153,-0.383 -0.0254,-0.22609 0.11741,-0.48795 0.0786,-0.71066 -0.0368,-0.21129 -0.27819,-0.36003 -0.30229,-0.57452 -0.018,-0.15986 0.11964,-0.34607 0.17937,-0.51914 0.40995,-1.18671 -0.13204,0.28237 0.63884,-1.36594 0.0817,-0.17458 0.0844,-0.34408 0.17937,-0.51914 0.45949,-0.84679 0.20153,0.38302 0.84039,-0.98292 0.11551,-0.24692 -0.0369,-0.46371 0.0786,-0.71065 0.10328,-0.22086 0.42079,-0.43382 0.56026,-0.65526 0.11022,-0.17509 0.0691,-0.3441 0.17937,-0.51915 0.27893,-0.4429 0.91392,-0.86885 1.12052,-1.31056 0.1155,-0.24692 -0.0369,-0.46371 0.0786,-0.71064 0.10327,-0.22087 0.42079,-0.43385 0.56025,-0.65529 0.11022,-0.17508 0.11964,-0.34608 0.17937,-0.51915 0.1532,-0.28224 0.26807,-0.56485 0.45949,-0.84678 0.30031,-0.44234 0.82022,-0.86822 1.12052,-1.31055 0.19143,-0.28193 0.26807,-0.56486 0.45949,-0.84679 0.15015,-0.22117 0.37351,-0.43686 0.56025,-0.65528 0.18676,-0.21843 0.32998,-0.44427 0.56026,-0.65528 0.18206,-0.16682 0.51338,-0.2911 0.66103,-0.46377 0.23806,-0.27844 0.26807,-0.56487 0.45949,-0.8468 0.3003,-0.44233 0.74701,-0.8737 1.12051,-1.31055 0.56026,-0.65529 1.12051,-1.31056 1.68077,-1.96585 0.18675,-0.21843 0.3392,-0.44226 0.56027,-0.65528 0.2818,-0.27153 0.667,-0.51839 0.94115,-0.79141 1.99628,-2.33486 -0.30878,0.2398 1.78154,-1.77433 0.55267,-0.53254 0.86299,-1.10274 1.40064,-1.63821 2.38558,-2.37594 -0.7231,1.01737 2.2632,-1.71895 0.46058,-0.42203 0.67024,-0.88626 1.12052,-1.31058 0.46412,-0.43737 1.13804,-0.8178 1.60218,-1.25518 0.45027,-0.42433 0.74699,-0.8737 1.12051,-1.31056 0.37351,-0.43686 0.79055,-0.86977 1.12051,-1.31055 0.29166,-0.38964 0.44798,-0.78482 0.73962,-1.17444 0.32996,-0.44079 0.74701,-0.87369 1.12051,-1.31056 3.19646,-3.73859 -0.88312,0.91627 2.3418,-2.42961 0.4154,-0.43097 0.74703,-0.87371 1.12051,-1.31055 0.37351,-0.43687 0.79057,-0.86978 1.12051,-1.31057 0.77491,-1.0352 0.68516,-1.44691 1.86015,-2.485003 0.26497,-0.23409 0.75227,-0.373 1.04193,-0.5999 1.44054,-1.12856 -0.0947,-0.19868 0.7396,-1.17442 0.14759,-0.1727 0.47897,-0.29696 0.66102,-0.46377 0.23029,-0.21103 0.37351,-0.43686 0.56025,-0.65529 0.34732,-0.19997 0.75231,-0.373 1.04193,-0.59991 0.25907,-0.20295 0.32998,-0.44427 0.56026,-0.65527 0.36412,-0.33364 0.95794,-0.59391 1.32205,-0.92756 0.46057,-0.42202 0.60239,-0.904645 1.12051,-1.310556 2.60549,-2.041225 -0.20179,0.537856 1.70295,-1.063678 0.12311,-0.103459 0.14078,-0.229878 0.28011,-0.327636 0.31162,-0.218633 0.7086,-0.391715 1.04192,-0.599916 0.23572,-0.147232 0.41545,-0.322368 0.66103,-0.463781 0.10992,-0.06318 0.27108,-0.07289 0.38092,-0.136135 0.24557,-0.141388 0.39735,-0.336278 0.66101,-0.463768 0.35373,-0.171045 0.78895,-0.23736 1.14268,-0.408406 0.26366,-0.127487 0.44068,-0.30919 0.66101,-0.463778 0.34731,-0.199973 0.66907,-0.419603 1.04194,-0.599909 0.58957,-0.28508 1.30589,-0.404403 1.90449,-0.680675 0.37855,-0.174725 0.66333,-0.42518 1.04188,-0.599908 0.35915,-0.165763 0.76181,-0.272267 1.1427,-0.4084 0.88876,-0.317654 1.77753,-0.635292 2.66629,-0.952945 0.50784,-0.18151 1.01572,-0.363025 1.52357,-0.54454 0.3809,-0.136133 0.7504,-0.305604 1.14269,-0.408404 3.96205,-1.038274 -2.01183,0.821404 2.86781,-0.569921 0.52059,-0.148446 1.00182,-0.400972 1.52356,-0.544543 0.4125,-0.113521 0.82898,-0.144605 1.24345,-0.216897 0.54146,-0.117687 1.08878,-0.196147 1.62436,-0.353033 0.6495,-0.190258 1.24905,-0.520788 1.90448,-0.680678 0.70592,-0.172212 1.39879,-0.152357 2.10601,-0.29766 8.17059,-1.678739 -2.60353,0.375809 4.29063,-1.305979 0.7059,-0.172206 1.40162,-0.18548 2.106,-0.297662 1.36128,-0.216797 3.10416,-0.500488 4.49215,-0.922958 0.77691,-0.236479 1.49983,-0.617447 2.28538,-0.81681 7.0533,-1.790024 -3.29066,1.44596 4.49215,-0.922962 0.64743,-0.19706 1.24985,-0.514537 1.90449,-0.680673 5.15185,-1.307467 0.0481,0.37884 4.49216,-0.922962 0.51958,-0.1522 0.99828,-0.430377 1.52357,-0.544541 0.58726,-0.127644 1.14072,-0.07175 1.72511,-0.161528 0.5388,-0.08277 1.08392,-0.258764 1.62435,-0.353031 0.2931,-0.05112 0.56891,-0.01695 0.86255,-0.08076 0.26264,-0.0571 0.49915,-0.215191 0.7618,-0.27227 0.29364,-0.06383 0.57504,-0.05384 0.86254,-0.08076 0.28753,-0.02693 0.57505,-0.05384 0.86258,-0.08076 0.57503,-0.05384 1.16935,-0.151028 1.72511,-0.161527 0.17574,-0.0033 0.32112,0.03694 0.48167,0.05535 0.16054,0.01846 0.34254,0.01585 0.48165,0.05535 0.21998,0.06249 0.36247,0.184396 0.58244,0.24687 0.13913,0.03951 0.35888,0.0033 0.48167,0.05535 0.10154,0.04304 0.53063,1.008452 0.6046,1.149031 0.1048,0.199154 0.60028,0.971612 0.6046,1.149034 0.004,0.16312 -0.18349,0.356031 -0.17937,0.519151 0.004,0.145868 0.25502,0.22824 0.20153,0.383012 -0.0751,0.219062 -0.42078,0.433829 -0.56023,0.655281 -0.11032,0.175068 -0.0691,0.3441 -0.17938,0.519152 -0.13949,0.221446 -0.42079,0.433827 -0.56025,0.655284 -0.11032,0.175062 -0.0691,0.344089 -0.17937,0.519139 -0.27892,0.442915 -0.8416,0.867662 -1.12051,1.310563 -0.11031,0.175068 -0.0691,0.3441 -0.17937,0.519154 -0.1395,0.221449 -0.37351,0.436856 -0.56027,0.655279 -0.18675,0.218426 -0.37349,0.436854 -0.56025,0.655277 -0.18675,0.218424 -0.32996,0.444274 -0.56026,0.655285 -0.18204,0.16682 -0.51338,0.29109 -0.66101,0.463774 -0.14768,0.172674 -0.0316,0.346496 -0.17937,0.519154 -0.14768,0.172653 -0.46647,0.300166 -0.66101,0.463768 -0.46165,0.388184 -0.6589,0.922383 -1.12054,1.310561 -0.19455,0.163608 -0.44068,0.309177 -0.66103,0.46378 -0.18675,0.218419 -0.32995,0.444266 -0.56024,0.655268 -0.18207,0.16683 -0.47896,0.296963 -0.66103,0.463781 -0.23029,0.211015 -0.32997,0.444271 -0.56026,0.655274 -0.18206,0.166821 -0.47896,0.296966 -0.66102,0.463786 -0.23029,0.211003 -0.32996,0.444263 -0.56026,0.655275 -0.18206,0.16682 -0.44069,0.309187 -0.66103,0.463771 -1.55021,1.087641 0.4014,-0.250698 -1.70294,1.0637 -0.23568,0.147245 -0.40382,0.330707 -0.66102,0.463774 -0.23007,0.118999 -0.53174,0.153256 -0.76179,0.272265 -0.51443,0.266114 -0.83089,0.644745 -1.32206,0.92754 -0.10992,0.0632 -0.27106,0.0729 -0.38089,0.13613 -1.25909,0.72496 -0.22327,0.18776 -0.94115,0.79143 -0.19456,0.16361 -0.44068,0.30918 -0.66103,0.46376 -0.22033,0.1546 -0.40381,0.33072 -0.66102,0.46379 -0.23005,0.11899 -0.53175,0.15325 -0.7618,0.27226 -0.69053,0.35725 -0.99174,0.87391 -1.60216,1.25519 -0.21082,0.13171 -0.52599,0.15821 -0.76179,0.27228 -0.37289,0.1803 -0.70859,0.3917 -1.04195,0.5999 -0.23567,0.14725 -0.4253,0.31655 -0.66101,0.46378 -0.33334,0.2082 -0.70858,0.3917 -1.04191,0.59991 -0.23572,0.1472 -0.40383,0.33071 -0.66102,0.46377 -0.23006,0.119 -0.551,0.14055 -0.76179,0.27227 -0.38007,0.23739 -0.58587,0.54214 -0.94116,0.79143 -0.31162,0.21861 -0.70859,0.39168 -1.04194,0.5999 -1.27444,0.79603 -0.0504,0.16626 -1.60217,1.2552 -0.31162,0.21862 -0.75228,0.37299 -1.04192,0.5999 -0.25905,0.20294 -0.3012,0.45232 -0.56025,0.65528 -0.28964,0.2269 -0.7086,0.3917 -1.04192,0.59991 -0.23568,0.14725 -0.42533,0.31655 -0.66104,0.46376 -0.33332,0.20823 -0.73029,0.38129 -1.04189,0.59991 -1.55196,1.08885 -0.32775,0.45915 -1.60218,1.25519 -0.33333,0.20824 -0.73033,0.38129 -1.04193,0.5999 -0.3553,0.24927 -0.58586,0.54216 -0.94116,0.79143 -0.31159,0.21868 -0.75224,0.37305 -1.04192,0.59992 -0.25908,0.20291 -0.3012,0.45232 -0.56024,0.65528 -0.28965,0.2269 -0.73034,0.38128 -1.04194,0.5999 -0.35529,0.24927 -0.58584,0.54213 -0.94115,0.79142 -0.31158,0.21866 -0.70857,0.3917 -1.04192,0.5999 -0.23569,0.14722 -0.44068,0.30919 -0.66102,0.46378 -0.66103,0.46376 -1.32206,0.92756 -1.98307,1.39133 -0.44068,0.30917 -0.88136,0.61836 -1.32204,0.92755 -0.22036,0.15457 -0.47898,0.29696 -0.66104,0.46377 -0.23027,0.211 -0.30119,0.45233 -0.56025,0.65529 -0.28964,0.22689 -0.7086,0.39169 -1.0419,0.5999 -0.23574,0.14721 -0.42535,0.31653 -0.66105,0.46377 -0.33332,0.20823 -0.70857,0.39171 -1.04191,0.59991 -0.23571,0.14723 -0.42531,0.31655 -0.66105,0.46378 -0.33331,0.20822 -0.70858,0.39171 -1.0419,0.59991 -0.2357,0.14722 -0.42531,0.31655 -0.66103,0.46377 -0.33333,0.20823 -0.70859,0.3917 -1.04191,0.59991 -0.82357,0.51441 -1.41555,1.06885 -2.36397,1.52747 -0.23579,0.11408 -0.53173,0.15328 -0.76178,0.27226 -0.25719,0.13312 -0.39737,0.33628 -0.66105,0.46377 -0.35371,0.17109 -0.78896,0.23733 -1.14269,0.40842 -0.0171,0.008 -1.27496,0.89813 -1.32203,0.92755 -0.66667,0.4164 -1.38923,0.79987 -2.08384,1.19981 -0.34733,0.19994 -0.66334,0.42517 -1.04193,0.5999 -3.42749,1.58196 1.62311,-1.12589 -2.5655,1.14444 -1.4223,0.77094 -2.7833,1.60255 -4.16768,2.39964 -0.34731,0.19995 -0.66904,0.41961 -1.0419,0.5999 -0.23582,0.1141 -0.52601,0.1582 -0.76181,0.27227 -0.37287,0.18028 -0.66903,0.41961 -1.04191,0.59991 -0.23579,0.11409 -0.53171,0.15331 -0.76179,0.27227 -0.25719,0.13313 -0.39738,0.33629 -0.66102,0.46379 -0.35373,0.17108 -0.78898,0.23731 -1.14269,0.40839 -0.26365,0.12752 -0.4253,0.31656 -0.66101,0.46378 -0.33333,0.20824 -0.66905,0.41962 -1.04192,0.5999 -0.47165,0.2281 -1.06349,0.30652 -1.52359,0.54455 -0.25723,0.13302 -0.44068,0.30919 -0.66103,0.46378 -0.34731,0.19995 -0.66903,0.4196 -1.0419,0.59991 -0.2358,0.11408 -0.50786,0.18151 -0.76179,0.27228 -0.34733,0.19993 -0.66906,0.41959 -1.04193,0.59989 -0.23579,0.1141 -0.52599,0.15819 -0.76179,0.27228 -0.37289,0.18027 -0.69462,0.39993 -1.04193,0.5999 -0.34731,0.19995 -0.70858,0.3917 -1.04191,0.5999 -0.47141,0.29446 -0.80763,0.66144 -1.32207,0.92756 -0.23007,0.11898 -0.5317,0.15329 -0.76178,0.27227 -1.71768,0.88858 0.0668,0.0842 -0.94115,0.79141 -0.19711,0.13822 -0.54215,0.14575 -0.76179,0.27227 -2.51569,1.44845 0.57149,-0.2698 -0.94115,0.79142 -0.0985,0.0691 -0.28237,0.067 -0.3809,0.13612 -0.13933,0.0977 -0.12477,0.23821 -0.28013,0.32765 -0.21968,0.12642 -0.54215,0.14575 -0.76178,0.27227 -0.15531,0.0894 -0.12478,0.23822 -0.28014,0.32763 -0.21968,0.12641 -0.50785,0.18152 -0.76178,0.27226 -0.12698,0.0454 -0.28237,0.067 -0.3809,0.13615 -0.13934,0.0977 -0.14078,0.22986 -0.28013,0.32764 -0.20775,0.14571 -1.31583,0.39881 -1.52358,0.54453 -0.13936,0.0978 -0.14078,0.22987 -0.28014,0.32763 -0.10062,0.0706 -0.97115,0.3471 -1.14268,0.40841 -0.76179,0.27227 -1.52358,0.54454 -2.28537,0.81681 -0.88876,0.31765 -1.77751,0.6353 -2.66628,0.95294 -0.14006,0.0501 -1.0546,0.40416 -1.14268,0.40841 -0.63076,0.0303 -1.21726,-0.02 -1.82588,-0.03 z"
     id="path4949-2-3"
     inkscape:connector-curvature="0" />
  <path
     style="fill:none;fill-rule:evenodd;stroke:#000000;stroke-width:0.18897638;stroke-linecap:butt;stroke-linejoin:miter;stroke-miterlimit:4;stroke-dasharray:none;stroke-opacity:1"
     d="M 248.97463,144.64229 361.57294,74.326607"
     id="path4953-8-1"
     inkscape:connector-curvature="0"
     sodipodi:nodetypes="cc" />
  <path
     style="fill:none;fill-rule:evenodd;stroke:#0000ff;stroke-width:0.94488192;stroke-linecap:butt;stroke-linejoin:miter;stroke-miterlimit:4;stroke-dasharray:none;stroke-opacity:1;marker-end:url(#marker12348-9-9-5)"
     d="M 331.57223,93.047621 353.16589,79.542375"
     id="path4972-8-2-2"
     inkscape:connector-curvature="0"
     sodipodi:nodetypes="cc" />
  <circle
     style="opacity:1;fill:#000000;fill-opacity:1;stroke:none;stroke-width:0.13067237;stroke-miterlimit:4;stroke-dasharray:none;stroke-dashoffset:0"
     id="path4955-3-3-6"
     cx="343.41144"
     cy="-26.958775"
     r="1.3346324"
     transform="rotate(20.166598)" />
  <circle
     style="opacity:1;fill:#000000;fill-opacity:1;stroke:none;stroke-width:0.13067237;stroke-miterlimit:4;stroke-dasharray:none;stroke-dashoffset:0"
     id="path4955-0-8"
     cx="304.76053"
     cy="22.675022"
     r="1.3346324"
     transform="rotate(20.166598)" />
  <path
     style="fill:none;fill-rule:evenodd;stroke:#000000;stroke-width:0.40658754;stroke-linecap:butt;stroke-linejoin:miter;stroke-miterlimit:4;stroke-dasharray:none;stroke-opacity:1"
     d="m 65.795205,146.01554 c 0.16991,-0.49579 -0.60828,-0.69913 -0.62798,-1.13643 -0.007,-0.16297 0.18997,-0.36322 0.16872,-0.5227 -0.057,-0.4279 -0.54579,-0.71545 -0.62797,-1.13643 -0.0433,-0.22187 0.0941,-0.48658 0.0641,-0.71211 -0.019,-0.14264 -0.19033,-0.23618 -0.20933,-0.3788 -0.03,-0.22553 0.10742,-0.49024 0.0641,-0.71212 -0.0411,-0.21049 -0.2855,-0.35426 -0.31398,-0.56821 -0.0213,-0.15947 0.11254,-0.34845 0.16871,-0.5227 0.38561,-1.19485 -0.12624,0.28501 0.61079,-1.37873 0.0781,-0.17621 0.0773,-0.34573 0.16871,-0.52269 0.44208,-0.856 0.20932,0.37881 0.82011,-0.9999 0.11044,-0.24923 -0.0464,-0.46286 0.0641,-0.7121 0.0987,-0.22293 0.41184,-0.44235 0.54675,-0.66659 0.10662,-0.17731 0.062,-0.34545 0.16872,-0.52271 0.26981,-0.44851 0.895964,-0.88736 1.093484,-1.3332 0.11044,-0.24923 -0.0464,-0.46286 0.0641,-0.7121 0.0987,-0.22293 0.41183,-0.44236 0.54673,-0.66661 0.10662,-0.1773 0.11254,-0.34845 0.16872,-0.5227 0.1474,-0.28532 0.25646,-0.57022 0.44208,-0.856 0.2912,-0.44839 0.8023,-0.88482 1.09349,-1.33319 0.18562,-0.28579 0.25646,-0.57023 0.44208,-0.85601 0.1456,-0.22419 0.36449,-0.44441 0.54674,-0.6666 0.18225,-0.2222 0.32082,-0.45092 0.54674,-0.6666 0.17861,-0.17051 0.50732,-0.30153 0.65141,-0.47719 0.23231,-0.28325 0.25646,-0.57022 0.44208,-0.85601 0.29119,-0.44838 0.72899,-0.88879 1.09348,-1.33319 0.54674,-0.66661 1.09348,-1.3332 1.64022,-1.9998 0.18225,-0.2222 0.33008,-0.44911 0.54675,-0.6666 0.2762,-0.27724 0.65627,-0.53192 0.92477,-0.8105 1.94812,-2.37519 -0.3038,0.24607 1.74489,-1.81038 0.54167,-0.54373 0.84027,-1.12015 1.36685,-1.6665 2.33651,-2.42422 -0.70214,1.03194 2.22758,-1.76487 0.45186,-0.43136 0.65199,-0.89978 1.0935,-1.33321 0.45508,-0.44678 1.12108,-0.84091 1.57618,-1.28769 0.4415,-0.43344 0.72897,-0.88878 1.09348,-1.33319 0.36449,-0.4444 0.7726,-0.88575 1.09347,-1.33319 0.28363,-0.39552 0.43184,-0.79381 0.71546,-1.18931 0.32088,-0.44745 0.72899,-0.88879 1.09348,-1.3332 3.11935,-3.80316 -0.86421,0.93414 2.29163,-2.47699 0.4065,-0.43937 0.72901,-0.8888 1.09347,-1.33318 0.36451,-0.44441 0.77263,-0.88577 1.09349,-1.33321 0.75358,-1.05083 0.65543,-1.46061 1.80895,-2.52251 0.26013,-0.23946 0.74449,-0.3883 1.02944,-0.62108 1.41717,-1.157783 -0.0987,-0.19671 0.71544,-1.189303 0.14402,-0.17567 0.4728,-0.30669 0.6514,-0.47719 0.22592,-0.21569 0.36449,-0.4444 0.54673,-0.6666 0.34316,-0.20703 0.74453,-0.38831 1.02945,-0.62109 0.25487,-0.2082 0.32082,-0.45092 0.54674,-0.66659 0.357221,-0.34101 0.945591,-0.61338 1.302811,-0.9544 0.45185,-0.43135 0.58377,-0.91677 1.09348,-1.33319 2.56321,-2.09407 -0.19076,0.54187 1.68084,-1.09827 0.12098,-0.10596 0.13605,-0.23271 0.27336,-0.3333 0.30708,-0.22496 0.70044,-0.40612 1.02943,-0.62109 0.23266,-0.15202 0.40877,-0.3308 0.65142,-0.4772 0.1086,-0.0654 0.26953,-0.0784 0.37805,-0.1439 0.24262,-0.14638 0.39039,-0.34433 0.65139,-0.47718 0.35016,-0.17825 0.78393,-0.25345 1.13409,-0.43169 0.261,-0.13285 0.43426,-0.31814 0.65139,-0.4772 0.34315,-0.20703 0.66035,-0.43319 1.02945,-0.62109 0.58363,-0.29707 1.29736,-0.43101 1.89018,-0.71947 0.3749,-0.18243 0.6545,-0.43865 1.02939,-0.62108 0.35569,-0.17308 0.75609,-0.28779 1.13411,-0.43168 0.88208,-0.33576 1.76417,-0.67151 2.64625,-1.00727 0.50402,-0.19185 1.00809,-0.38371 1.51212,-0.57557 0.37803,-0.1439 0.744,-0.32089 1.1341,-0.43169 3.93999,-1.11906 -1.99462,0.86237 2.85556,-0.62843 0.51744,-0.15906 0.99341,-0.42138 1.51211,-0.57559 0.41009,-0.12193 0.82584,-0.16152 1.23875,-0.24227 0.53894,-0.12874 1.08454,-0.21837 1.6168,-0.38617 0.64548,-0.2035 1.23814,-0.54622 1.89017,-0.71948 0.70225,-0.18661 1.39538,-0.18092 2.09948,-0.34066 8.13456,-1.84544 -2.5953,0.42897 4.26303,-1.39343 0.70223,-0.1866 1.39753,-0.2141 2.09947,-0.34066 1.35657,-0.24459 3.09329,-0.56385 4.47235,-1.01462 0.7719,-0.25231 1.48688,-0.64798 2.26819,-0.86336 7.01523,-1.93387 -3.2604,1.51294 4.47235,-1.01462 0.64326,-0.21026 1.23907,-0.53999 1.89017,-0.71947 5.12404,-1.41253 0.0558,0.37777 4.47235,-1.01462 0.51636,-0.16279 0.98927,-0.4507 1.51212,-0.57558 0.58453,-0.13963 1.13901,-0.0951 1.72144,-0.19677 0.537,-0.0938 1.0784,-0.28087 1.61679,-0.38617 0.292,-0.0571 0.56845,-0.0286 0.86073,-0.0984 0.26141,-0.0624 0.49464,-0.22535 0.75607,-0.28779 0.29227,-0.0698 0.57381,-0.0656 0.86071,-0.0984 0.28692,-0.0328 0.57382,-0.0656 0.86074,-0.0984 0.57381,-0.0656 1.16602,-0.1749 1.72144,-0.19676 0.17564,-0.007 0.3218,0.0304 0.4827,0.0455 0.16088,0.0152 0.34279,0.009 0.48268,0.0455 0.22121,0.058 0.36616,0.17694 0.58736,0.23491 0.13991,0.0366 0.35888,-0.004 0.48271,0.0455 0.1024,0.041 0.55114,0.99739 0.62797,1.13643 0.10884,0.19697 0.62001,0.95913 0.62797,1.13643 0.007,0.163 -0.17618,0.35971 -0.16872,0.52271 0.007,0.14576 0.25963,0.22298 0.20932,0.37881 -0.0706,0.22055 -0.41182,0.44234 -0.54672,0.6666 -0.10672,0.17728 -0.062,0.34544 -0.16873,0.52271 -0.13493,0.22425 -0.41183,0.44234 -0.54674,0.6666 -0.10671,0.17728 -0.062,0.34543 -0.16871,0.5227 -0.2698,0.44852 -0.82368,0.88469 -1.09347,1.3332 -0.10672,0.17729 -0.062,0.34544 -0.16873,0.52271 -0.13494,0.22426 -0.36449,0.4444 -0.54675,0.6666 -0.18224,0.2222 -0.36448,0.4444 -0.54673,0.6666 -0.18224,0.22219 -0.32081,0.45092 -0.54674,0.6666 -0.17859,0.1705 -0.50732,0.30152 -0.65139,0.47719 -0.14412,0.17566 -0.0245,0.34707 -0.16872,0.52271 -0.14412,0.17564 -0.46024,0.30964 -0.65139,0.47719 -0.45361,0.39754 -0.6399,0.93566 -1.0935,1.3332 -0.19117,0.16755 -0.43427,0.31812 -0.65141,0.4772 -0.18225,0.22219 -0.3208,0.45092 -0.54673,0.66658 -0.17862,0.17052 -0.47279,0.3067 -0.65141,0.4772 -0.22592,0.21568 -0.32081,0.45093 -0.54674,0.66659 -0.17861,0.17051 -0.47279,0.3067 -0.6514,0.47721 -0.22593,0.21566 -0.32081,0.45091 -0.54674,0.66659 -0.17862,0.17051 -0.43428,0.31813 -0.65141,0.47719 -1.52765,1.11911 0.39619,-0.25885 -1.68084,1.0983 -0.23262,0.15203 -0.39697,0.33889 -0.6514,0.47719 -0.22759,0.12368 -0.5285,0.1641 -0.75606,0.28778 -0.50888,0.27658 -0.81754,0.6616 -1.30282,0.95438 -0.1086,0.0654 -0.26951,0.0784 -0.37803,0.14389 -1.244,0.75054 -0.21938,0.19228 -0.92477,0.8105 -0.19118,0.16755 -0.43426,0.31813 -0.65141,0.47718 -0.21713,0.15907 -0.39696,0.33891 -0.6514,0.47721 -0.22757,0.12367 -0.5285,0.16409 -0.75607,0.28778 -0.68309,0.37129 -0.97367,0.894 -1.57616,1.28769 -0.20809,0.13599 -0.52265,0.16893 -0.75606,0.28779 -0.36913,0.18789 -0.70044,0.40611 -1.02948,0.62108 -0.2326,0.15204 -0.41873,0.32519 -0.65138,0.4772 -0.32901,0.21498 -0.70043,0.40611 -1.02943,0.62109 -0.23266,0.15199 -0.39698,0.338903 -0.6514,0.477193 -0.22758,0.12368 -0.548,0.15179 -0.75606,0.28778 -0.37514,0.24512 -0.57466,0.55402 -0.92478,0.81051 -0.30709,0.22494 -0.70043,0.4061 -1.02945,0.62108 -1.25791,0.82193 -0.047,0.16726 -1.57618,1.2877 -0.30709,0.22495 -0.74449,0.3883 -1.02944,0.62108 -0.25484,0.2082 -0.29188,0.45839 -0.54673,0.6666 -0.28494,0.23278 -0.70044,0.40611 -1.02944,0.62109 -0.23262,0.15203 -0.41876,0.32519 -0.65141,0.47718 -0.329,0.215 -0.72235,0.39615 -1.02941,0.62109 -1.52937,1.12035 -0.31829,0.46575 -1.57619,1.28768 -0.32899,0.21502 -0.72237,0.39615 -1.02944,0.62109 -0.35012,0.25648 -0.57465,0.55402 -0.92478,0.81051 -0.30706,0.225 -0.74445,0.38834 -1.02944,0.62109 -0.25487,0.20817 -0.29189,0.45838 -0.54672,0.6666 -0.28495,0.23278 -0.72239,0.39613 -1.02945,0.62107 -0.35012,0.25649 -0.57464,0.554 -0.92478,0.81051 -0.30704,0.22498 -0.70041,0.4061 -1.02943,0.62107 -0.23264,0.15201 -0.43427,0.31814 -0.65141,0.4772 -0.6514,0.47718 -1.30281,0.9544 -1.9542,1.43159 -0.43427,0.31812 -0.86854,0.63625 -1.3028,0.95439 -0.21715,0.15904 -0.47281,0.30669 -0.65142,0.47718 -0.22591,0.21567 -0.29187,0.45839 -0.54673,0.66661 -0.28494,0.23277 -0.70044,0.4061 -1.02942,0.62108 -0.23267,0.152 -0.41879,0.32516 -0.65143,0.47719 -0.32898,0.215 -0.70041,0.40611 -1.02942,0.62109 -0.23265,0.15201 -0.41876,0.32518 -0.65143,0.47719 -0.32899,0.215 -0.70042,0.40612 -1.02942,0.62109 -0.23264,0.15201 -0.41875,0.32518 -0.6514,0.47719 -0.32901,0.21501 -0.70044,0.40611 -1.02943,0.62109 -0.81288,0.53114 -1.3934,1.09757 -2.33225,1.57549 -0.2334,0.11887 -0.52848,0.16412 -0.75605,0.28777 -0.25441,0.13836 -0.39041,0.34434 -0.65143,0.4772 -0.35013,0.17828 -0.78394,0.25341 -1.1341,0.43169 -0.0169,0.009 -1.25633,0.92402 -1.30279,0.95439 -0.65802,0.42995 -1.37258,0.82811 -2.05888,1.24217 -0.34316,0.207 -0.6545,0.43864 -1.02944,0.62108 -3.39442,1.65171 1.59975,-1.15884 -2.54156,1.19666 -1.40624,0.79986 -2.74995,1.65912 -4.117741,2.48435 -0.34316,0.20701 -0.66033,0.4332 -1.02942,0.62108 -0.23344,0.11889 -0.52267,0.16892 -0.75608,0.28779 -0.36911,0.18787 -0.66032,0.4332 -1.02943,0.62108 -0.23341,0.11889 -0.52847,0.16415 -0.75606,0.2878 -0.25442,0.13835 -0.39042,0.34434 -0.65141,0.4772 -0.35015,0.17828 -0.78395,0.2534 -1.1341,0.43167 -0.26098,0.13288 -0.41873,0.32519 -0.65139,0.4772 -0.329,0.21501 -0.66033,0.43321 -1.02943,0.62108 -0.46688,0.23769 -1.057,0.3282 -1.51214,0.57558 -0.25446,0.13826 -0.43427,0.31814 -0.6514,0.47721 -0.34316,0.20701 -0.66032,0.43319 -1.02942,0.62108 -0.23342,0.11888 -0.50405,0.19186 -0.75607,0.2878 -0.34317,0.20699 -0.66034,0.43318 -1.02944,0.62107 -0.23341,0.1189 -0.52265,0.16891 -0.75607,0.2878 -0.36912,0.18785 -0.6863,0.41405 -1.02944,0.62108 -0.34315,0.20701 -0.70042,0.40611 -1.02943,0.62108 -0.46529,0.30404 -0.79394,0.67781 -1.30282,0.9544 -0.22759,0.12365 -0.52846,0.16413 -0.75606,0.28778 -1.69915,0.92352 0.0685,0.0828 -0.92477,0.81049 -0.19424,0.14223 -0.53906,0.15681 -0.75606,0.28779 -2.48555,1.49959 0.56585,-0.28143 -0.92478,0.8105 -0.0971,0.0711 -0.28094,0.0727 -0.37803,0.14388 -0.13731,0.10057 -0.11988,0.24072 -0.27338,0.33332 -0.21705,0.13088 -0.53906,0.1568 -0.75606,0.28779 -0.15345,0.0926 -0.11988,0.24071 -0.27337,0.33328 -0.21705,0.13088 -0.50404,0.19187 -0.75606,0.28779 -0.12603,0.048 -0.28094,0.0728 -0.37804,0.1439 -0.13731,0.10056 -0.13605,0.2327 -0.27337,0.3333 -0.20472,0.14993 -1.3074,0.42564 -1.51213,0.57557 -0.13733,0.10063 -0.13605,0.2327 -0.27338,0.33329 -0.0992,0.0727 -0.96384,0.36688 -1.13409,0.43169 -0.75606,0.28779 -1.51213,0.57557 -2.26819,0.86337 -0.88208,0.33576 -1.76415,0.67151 -2.64624,1.00725 -0.13901,0.0529 -1.04611,0.42565 -1.13409,0.43169 -0.630014,0.0432 -1.217414,0.005 -1.826114,0.007 z"
     id="path4949-2-4"
     inkscape:connector-curvature="0" />
  <path
     style="fill:none;fill-rule:evenodd;stroke:#000000;stroke-width:0.18897638;stroke-linecap:butt;stroke-linejoin:miter;stroke-miterlimit:4;stroke-dasharray:none;stroke-opacity:1"
     d="M 58.670015,146.69596 169.80705,74.092717"
     id="path4953-8-9"
     inkscape:connector-curvature="0"
     sodipodi:nodetypes="cc" />
  <path
     style="fill:none;fill-rule:evenodd;stroke:#ff0000;stroke-width:0.94488192;stroke-linecap:butt;stroke-linejoin:miter;stroke-miterlimit:4;stroke-dasharray:none;stroke-opacity:1;marker-end:url(#marker12348-9-5)"
     d="M 87.668329,127.76139 109.1773,113.7075"
     id="path4972-8-9"
     inkscape:connector-curvature="0"
     sodipodi:nodetypes="cc" />
  <circle
     style="opacity:1;fill:#000000;fill-opacity:1;stroke:none;stroke-width:0.13067237;stroke-miterlimit:4;stroke-dasharray:none;stroke-dashoffset:0"
     id="path4955-3-3-4"
     cx="163.09619"
     cy="42.71228"
     r="1.3346324"
     transform="rotate(18.995008)" />
  <circle
     style="opacity:1;fill:#000000;fill-opacity:1;stroke:none;stroke-width:0.13067237;stroke-miterlimit:4;stroke-dasharray:none;stroke-dashoffset:0"
     id="path4955-0-81"
     cx="87.652908"
     cy="127.78217"
     r="1.3346324" />
  <g
     transform="matrix(0.799998,0,0,0.799998,103.84549,105.83416)"
     ns1:version="1.8.2"
     ns1:texconverter="pdflatex"
     ns1:pdfconverter="inkscape"
     ns1:text="$\\vec{F}$"
     ns1:preamble="/media/topo/TOSEXT4/doctorado/upm/docencia/libros-apuntes/apuntes-fisica/figuras/TexText/preambulo_textext.tex"
     ns1:scale="0.6"
     ns1:alignment="middle center"
     ns1:stroke-to-path="0"
     ns1:inkscapeversion="0.92.1"
     ns1:jacobian_sqrt="0.799998"
     id="g766"
     style="fill:#ff0000">
    <defs
       id="id-213467cd-1858-4911-9677-db2ebc653fb6">
      <g
         id="id-c2f2d59f-791f-4a2d-8c5b-230b289083f8">
        <symbol
           overflow="visible"
           id="id-5f30f5df-026a-4782-8f47-ba2781784531">
          <path
             style="stroke:none"
             d=""
             id="id-ae716046-eb65-46e9-920a-b31f55e2161f" />
        </symbol>
        <symbol
           overflow="visible"
           id="id-ba1f03ae-529a-4832-846f-14253a59a81f">
          <path
             style="stroke:none"
             d="m 6.734375,-4.375 -0.3125,-2.40625 H 0.390625 V -6.3125 H 1.46875 v 5.84375 H 0.390625 V 0 c 0.375,-0.03125 1.390625,-0.03125 1.828125,-0.03125 0.484375,0 1.5625,0 2.015625,0.03125 V -0.46875 H 2.875 v -2.6875 h 0.5 c 0.96875,0 1.046875,0.421875 1.046875,1.15625 h 0.46875 V -4.796875 H 4.421875 C 4.421875,-4.0625 4.34375,-3.625 3.375,-3.625 h -0.5 v -2.6875 h 1.40625 c 1.59375,0 1.828125,0.765625 1.984375,1.9375 z m 0,0"
             id="id-3989932c-5cad-4409-aa22-55868cf6999e" />
        </symbol>
      </g>
    </defs>
    <g
       id="id-252e6fea-1d76-4b1d-b502-a028b76e7d6f"
       transform="translate(-149.103,-127.984)"
       style="fill:#ff0000">
      <g
         style="fill:#ff0000;fill-opacity:1"
         id="id-b09459af-d4c8-4f43-8cb9-0784133c9a1c">
        <g
           transform="translate(148.712,134.765)"
           id="g1341"
           style="fill:#ff0000">
          <path
             style="fill:#ff0000;stroke:none"
             d="m 6.734375,-4.375 -0.3125,-2.40625 H 0.390625 V -6.3125 H 1.46875 v 5.84375 H 0.390625 V 0 c 0.375,-0.03125 1.390625,-0.03125 1.828125,-0.03125 0.484375,0 1.5625,0 2.015625,0.03125 V -0.46875 H 2.875 v -2.6875 h 0.5 c 0.96875,0 1.046875,0.421875 1.046875,1.15625 h 0.46875 V -4.796875 H 4.421875 C 4.421875,-4.0625 4.34375,-3.625 3.375,-3.625 h -0.5 v -2.6875 h 1.40625 c 1.59375,0 1.828125,0.765625 1.984375,1.9375 z m 0,0"
             id="id-0acb3b2e-64b0-4e29-9e28-17938296b0fa" />
        </g>
      </g>
    </g>
  </g>
  <g
     transform="matrix(0.799998,0,0,0.799998,200.05262,106.35719)"
     ns1:version="1.8.2"
     ns1:texconverter="pdflatex"
     ns1:pdfconverter="inkscape"
     ns1:text="$\\vec{F}$"
     ns1:preamble="/media/topo/TOSEXT4/doctorado/upm/docencia/libros-apuntes/apuntes-fisica/figuras/TexText/preambulo_textext.tex"
     ns1:scale="0.6"
     ns1:alignment="middle center"
     ns1:stroke-to-path="0"
     ns1:inkscapeversion="0.92.1"
     ns1:jacobian_sqrt="0.799998"
     id="g766-3"
     style="fill:#ff0000">
    <defs
       id="id-213467cd-1858-4911-9677-db2ebc653fb6-6">
      <g
         id="g1828">
        <symbol
           overflow="visible"
           id="symbol1822">
          <path
             style="stroke:none"
             d=""
             id="path1820" />
        </symbol>
        <symbol
           overflow="visible"
           id="symbol1826">
          <path
             style="stroke:none"
             d="m 6.734375,-4.375 -0.3125,-2.40625 H 0.390625 V -6.3125 H 1.46875 v 5.84375 H 0.390625 V 0 c 0.375,-0.03125 1.390625,-0.03125 1.828125,-0.03125 0.484375,0 1.5625,0 2.015625,0.03125 V -0.46875 H 2.875 v -2.6875 h 0.5 c 0.96875,0 1.046875,0.421875 1.046875,1.15625 h 0.46875 V -4.796875 H 4.421875 C 4.421875,-4.0625 4.34375,-3.625 3.375,-3.625 h -0.5 v -2.6875 h 1.40625 c 1.59375,0 1.828125,0.765625 1.984375,1.9375 z m 0,0"
             id="path1824" />
        </symbol>
      </g>
    </defs>
    <g
       id="id-252e6fea-1d76-4b1d-b502-a028b76e7d6f-2"
       transform="translate(-149.103,-127.984)"
       style="fill:#ff0000">
      <g
         style="fill:#ff0000;fill-opacity:1"
         id="id-b09459af-d4c8-4f43-8cb9-0784133c9a1c-9">
        <g
           transform="translate(148.712,134.765)"
           id="g1341-1"
           style="fill:#ff0000">
          <path
             style="fill:#ff0000;stroke:none"
             d="m 6.734375,-4.375 -0.3125,-2.40625 H 0.390625 V -6.3125 H 1.46875 v 5.84375 H 0.390625 V 0 c 0.375,-0.03125 1.390625,-0.03125 1.828125,-0.03125 0.484375,0 1.5625,0 2.015625,0.03125 V -0.46875 H 2.875 v -2.6875 h 0.5 c 0.96875,0 1.046875,0.421875 1.046875,1.15625 h 0.46875 V -4.796875 H 4.421875 C 4.421875,-4.0625 4.34375,-3.625 3.375,-3.625 h -0.5 v -2.6875 h 1.40625 c 1.59375,0 1.828125,0.765625 1.984375,1.9375 z m 0,0"
             id="id-0acb3b2e-64b0-4e29-9e28-17938296b0fa-2" />
        </g>
      </g>
    </g>
  </g>
  <g
     transform="matrix(0.799998,0,0,0.799998,243.60755,79.469661)"
     ns1:version="1.8.2"
     ns1:texconverter="pdflatex"
     ns1:pdfconverter="inkscape"
     ns1:text="$\\vec{F}$"
     ns1:preamble="/media/topo/TOSEXT4/doctorado/upm/docencia/libros-apuntes/apuntes-fisica/figuras/TexText/preambulo_textext.tex"
     ns1:scale="0.6"
     ns1:alignment="middle center"
     ns1:stroke-to-path="0"
     ns1:inkscapeversion="0.92.1"
     ns1:jacobian_sqrt="0.799998"
     id="g766-3-7"
     style="fill:#0000ff">
    <defs
       id="id-213467cd-1858-4911-9677-db2ebc653fb6-6-0">
      <g
         id="g2522">
        <symbol
           overflow="visible"
           id="symbol2516">
          <path
             style="stroke:none"
             d=""
             id="path2514" />
        </symbol>
        <symbol
           overflow="visible"
           id="symbol2520">
          <path
             style="stroke:none"
             d="m 6.734375,-4.375 -0.3125,-2.40625 H 0.390625 V -6.3125 H 1.46875 v 5.84375 H 0.390625 V 0 c 0.375,-0.03125 1.390625,-0.03125 1.828125,-0.03125 0.484375,0 1.5625,0 2.015625,0.03125 V -0.46875 H 2.875 v -2.6875 h 0.5 c 0.96875,0 1.046875,0.421875 1.046875,1.15625 h 0.46875 V -4.796875 H 4.421875 C 4.421875,-4.0625 4.34375,-3.625 3.375,-3.625 h -0.5 v -2.6875 h 1.40625 c 1.59375,0 1.828125,0.765625 1.984375,1.9375 z m 0,0"
             id="path2518" />
        </symbol>
      </g>
    </defs>
    <g
       id="id-252e6fea-1d76-4b1d-b502-a028b76e7d6f-2-2"
       transform="translate(-149.103,-127.984)"
       style="fill:#0000ff">
      <g
         style="fill:#0000ff;fill-opacity:1"
         id="id-b09459af-d4c8-4f43-8cb9-0784133c9a1c-9-6">
        <g
           transform="translate(148.712,134.765)"
           id="g1341-1-1"
           style="fill:#0000ff">
          <path
             style="fill:#0000ff;stroke:none"
             d="m 6.734375,-4.375 -0.3125,-2.40625 H 0.390625 V -6.3125 H 1.46875 v 5.84375 H 0.390625 V 0 c 0.375,-0.03125 1.390625,-0.03125 1.828125,-0.03125 0.484375,0 1.5625,0 2.015625,0.03125 V -0.46875 H 2.875 v -2.6875 h 0.5 c 0.96875,0 1.046875,0.421875 1.046875,1.15625 h 0.46875 V -4.796875 H 4.421875 C 4.421875,-4.0625 4.34375,-3.625 3.375,-3.625 h -0.5 v -2.6875 h 1.40625 c 1.59375,0 1.828125,0.765625 1.984375,1.9375 z m 0,0"
             id="id-0acb3b2e-64b0-4e29-9e28-17938296b0fa-2-8" />
        </g>
      </g>
    </g>
  </g>
  <g
     transform="matrix(0.799998,0,0,0.799998,338.41763,79.540523)"
     ns1:version="1.8.2"
     ns1:texconverter="pdflatex"
     ns1:pdfconverter="inkscape"
     ns1:text="$\\vec{F}$"
     ns1:preamble="/media/topo/TOSEXT4/doctorado/upm/docencia/libros-apuntes/apuntes-fisica/figuras/TexText/preambulo_textext.tex"
     ns1:scale="0.6"
     ns1:alignment="middle center"
     ns1:stroke-to-path="0"
     ns1:inkscapeversion="0.92.1"
     ns1:jacobian_sqrt="0.799998"
     id="g766-3-7-7"
     style="fill:#0000ff">
    <defs
       id="id-213467cd-1858-4911-9677-db2ebc653fb6-6-0-9">
      <g
         id="g3216">
        <symbol
           overflow="visible"
           id="symbol3210">
          <path
             style="stroke:none"
             d=""
             id="path3208" />
        </symbol>
        <symbol
           overflow="visible"
           id="symbol3214">
          <path
             style="stroke:none"
             d="m 6.734375,-4.375 -0.3125,-2.40625 H 0.390625 V -6.3125 H 1.46875 v 5.84375 H 0.390625 V 0 c 0.375,-0.03125 1.390625,-0.03125 1.828125,-0.03125 0.484375,0 1.5625,0 2.015625,0.03125 V -0.46875 H 2.875 v -2.6875 h 0.5 c 0.96875,0 1.046875,0.421875 1.046875,1.15625 h 0.46875 V -4.796875 H 4.421875 C 4.421875,-4.0625 4.34375,-3.625 3.375,-3.625 h -0.5 v -2.6875 h 1.40625 c 1.59375,0 1.828125,0.765625 1.984375,1.9375 z m 0,0"
             id="path3212" />
        </symbol>
      </g>
    </defs>
    <g
       id="id-252e6fea-1d76-4b1d-b502-a028b76e7d6f-2-2-5"
       transform="translate(-149.103,-127.984)"
       style="fill:#0000ff">
      <g
         style="fill:#0000ff;fill-opacity:1"
         id="id-b09459af-d4c8-4f43-8cb9-0784133c9a1c-9-6-9">
        <g
           transform="translate(148.712,134.765)"
           id="g1341-1-1-2"
           style="fill:#0000ff">
          <path
             style="fill:#0000ff;stroke:none"
             d="m 6.734375,-4.375 -0.3125,-2.40625 H 0.390625 V -6.3125 H 1.46875 v 5.84375 H 0.390625 V 0 c 0.375,-0.03125 1.390625,-0.03125 1.828125,-0.03125 0.484375,0 1.5625,0 2.015625,0.03125 V -0.46875 H 2.875 v -2.6875 h 0.5 c 0.96875,0 1.046875,0.421875 1.046875,1.15625 h 0.46875 V -4.796875 H 4.421875 C 4.421875,-4.0625 4.34375,-3.625 3.375,-3.625 h -0.5 v -2.6875 h 1.40625 c 1.59375,0 1.828125,0.765625 1.984375,1.9375 z m 0,0"
             id="id-0acb3b2e-64b0-4e29-9e28-17938296b0fa-2-8-2" />
        </g>
      </g>
    </g>
  </g>
  <g
     transform="matrix(0.799998,0,0,0.799998,149.80375,134.97656)"
     ns1:version="1.8.2"
     ns1:texconverter="pdflatex"
     ns1:pdfconverter="inkscape"
     ns1:text="$-\\vec{F}$"
     ns1:preamble="/media/topo/TOSEXT4/doctorado/upm/docencia/libros-apuntes/apuntes-fisica/figuras/TexText/preambulo_textext.tex"
     ns1:scale="0.6"
     ns1:alignment="middle center"
     ns1:stroke-to-path="0"
     ns1:inkscapeversion="0.92.1"
     ns1:jacobian_sqrt="0.799998"
     style="fill:#0000ff;stroke-width:0"
     id="g766-3-7-7-8">
    <defs
       id="id-2c006576-6eaa-4209-bbf1-38707598f5b7"
       style="fill:#0000ff;stroke-width:0">
      <g
         id="id-037eb8bd-cd93-4894-8134-667ff88309a5"
         style="fill:#0000ff;stroke-width:0">
        <symbol
           overflow="visible"
           id="id-a01ddfe1-b547-4730-a425-1aa6fe7d4016"
           style="fill:#0000ff;stroke-width:0">
          <path
             style="fill:#0000ff;stroke:#0000ff;stroke-width:0"
             d=""
             id="id-9e37810a-1775-4cc2-8b69-0759e222a970" />
        </symbol>
        <symbol
           overflow="visible"
           id="id-9f7ca8d9-8b49-49b8-9168-58f7cec5c614"
           style="fill:#0000ff;stroke-width:0">
          <path
             style="fill:#0000ff;stroke:#0000ff;stroke-width:0"
             d="m 6.921875,-2.5 c 0,-0.1875 -0.1875,-0.1875 -0.328125,-0.1875 h -5.4375 c -0.140625,0 -0.328125,0 -0.328125,0.1875 0,0.203125 0.1875,0.203125 0.328125,0.203125 h 5.4375 c 0.140625,0 0.328125,0 0.328125,-0.203125 z m 0,0"
             id="id-d4b292f0-7538-440e-8b6c-a20c21b50733" />
        </symbol>
        <symbol
           overflow="visible"
           id="id-c8a566cf-b352-4fd2-bc95-cfe2133dfed3"
           style="fill:#0000ff;stroke-width:0">
          <path
             style="fill:#0000ff;stroke:#0000ff;stroke-width:0"
             d=""
             id="id-d2345fab-10ca-4d90-b43c-8b1a120f701d" />
        </symbol>
        <symbol
           overflow="visible"
           id="id-eab16f62-ae94-464e-b6f4-adcb77e38f94"
           style="fill:#0000ff;stroke-width:0">
          <path
             style="fill:#0000ff;stroke:#0000ff;stroke-width:0"
             d="m 6.734375,-4.375 -0.3125,-2.40625 H 0.390625 V -6.3125 H 1.46875 v 5.84375 H 0.390625 V 0 c 0.375,-0.03125 1.390625,-0.03125 1.828125,-0.03125 0.484375,0 1.5625,0 2.015625,0.03125 V -0.46875 H 2.875 v -2.6875 h 0.5 c 0.96875,0 1.046875,0.421875 1.046875,1.15625 h 0.46875 V -4.796875 H 4.421875 C 4.421875,-4.0625 4.34375,-3.625 3.375,-3.625 h -0.5 v -2.6875 h 1.40625 c 1.59375,0 1.828125,0.765625 1.984375,1.9375 z m 0,0"
             id="id-4d3e7036-2851-4edd-a349-dc875dd7eeca" />
        </symbol>
      </g>
    </defs>
    <g
       id="id-d9a05900-bd4c-418e-8700-5f939eb21b68"
       transform="translate(-149.54,-127.984)"
       style="fill:#0000ff;stroke-width:0">
      <g
         style="fill:#0000ff;fill-opacity:1;stroke-width:0"
         id="id-6aa35a77-b0b7-46d7-aa52-9902b5d9bafa">
        <g
           transform="translate(148.712,134.765)"
           style="fill:#0000ff;stroke-width:0"
           id="g4703">
          <path
             style="fill:#0000ff;stroke:#0000ff;stroke-width:0"
             d="m 6.921875,-2.5 c 0,-0.1875 -0.1875,-0.1875 -0.328125,-0.1875 h -5.4375 c -0.140625,0 -0.328125,0 -0.328125,0.1875 0,0.203125 0.1875,0.203125 0.328125,0.203125 h 5.4375 c 0.140625,0 0.328125,0 0.328125,-0.203125 z m 0,0"
             id="id-c533a676-f708-4e64-acdc-d6567ce3a084" />
        </g>
      </g>
      <g
         style="fill:#0000ff;fill-opacity:1;stroke-width:0"
         id="id-9e1dad44-89aa-462b-8ccc-e5943d0ff2fc">
        <g
           transform="translate(156.461,134.765)"
           style="fill:#0000ff;stroke-width:0"
           id="g4707">
          <path
             style="fill:#0000ff;stroke:#0000ff;stroke-width:0"
             d="m 6.734375,-4.375 -0.3125,-2.40625 H 0.390625 V -6.3125 H 1.46875 v 5.84375 H 0.390625 V 0 c 0.375,-0.03125 1.390625,-0.03125 1.828125,-0.03125 0.484375,0 1.5625,0 2.015625,0.03125 V -0.46875 H 2.875 v -2.6875 h 0.5 c 0.96875,0 1.046875,0.421875 1.046875,1.15625 h 0.46875 V -4.796875 H 4.421875 C 4.421875,-4.0625 4.34375,-3.625 3.375,-3.625 h -0.5 v -2.6875 h 1.40625 c 1.59375,0 1.828125,0.765625 1.984375,1.9375 z m 0,0"
             id="id-84a26272-f7d1-447d-89a7-4a5ac6293174" />
        </g>
      </g>
    </g>
  </g>
  <g
     transform="matrix(0.799998,0,0,0.799998,79.977382,121.60095)"
     ns1:version="1.8.2"
     ns1:texconverter="pdflatex"
     ns1:pdfconverter="inkscape"
     ns1:text="$O$"
     ns1:preamble="/media/topo/TOSEXT4/doctorado/upm/docencia/libros-apuntes/apuntes-fisica/figuras/TexText/preambulo_textext.tex"
     ns1:scale="0.6"
     ns1:alignment="middle center"
     ns1:stroke-to-path="0"
     ns1:inkscapeversion="0.92.1"
     ns1:jacobian_sqrt="0.799998"
     id="g5523">
    <defs
       id="id-17c17abb-56f5-47ea-9fbe-491f136964f9">
      <g
         id="id-a4cee333-dadc-4322-8e1f-c66eeec5237a">
        <symbol
           overflow="visible"
           id="id-90a9e08a-58e6-4eb7-b569-9df38eaa8007">
          <path
             style="stroke:none;stroke-width:0"
             d=""
             id="id-df0c116c-5ad0-47d2-a3ff-c4d98cffc97e" />
        </symbol>
        <symbol
           overflow="visible"
           id="id-f2abe1c7-a995-4819-974c-58d7138d7a66">
          <path
             style="stroke:none;stroke-width:0"
             d="m 7.375,-4.34375 c 0,-1.609375 -1.0625,-2.6875 -2.546875,-2.6875 -2.140625,0 -4.34375,2.265625 -4.34375,4.59375 0,1.65625 1.125,2.65625 2.5625,2.65625 2.109375,0 4.328125,-2.1875 4.328125,-4.5625 z M 6.484375,-4.734375 c 0,0.71875 -0.265625,2.265625 -1.25,3.5 C 4.75,-0.625 3.9375,-0.046875 3.09375,-0.046875 c -0.984375,0 -1.671875,-0.796875 -1.671875,-2.109375 0,-0.453125 0.140625,-1.90625 0.90625,-3.0625 0.6875,-1.046875 1.65625,-1.5625 2.453125,-1.5625 0.8125,0 1.703125,0.5625 1.703125,2.046875 z m 0,0"
             id="id-48d4e36a-4419-477e-8628-9c959a4284a2" />
        </symbol>
      </g>
    </defs>
    <g
       id="id-fe073251-0f82-4e46-8647-0c35cbabc574"
       transform="translate(-149.196,-127.734)">
      <g
         style="fill:#000000;fill-opacity:1"
         id="id-6e090fc5-3dad-41ba-bf22-99d7123d6c1a">
        <g
           transform="translate(148.712,134.765)"
           id="g5519">
          <path
             style="stroke:none;stroke-width:0"
             d="m 7.375,-4.34375 c 0,-1.609375 -1.0625,-2.6875 -2.546875,-2.6875 -2.140625,0 -4.34375,2.265625 -4.34375,4.59375 0,1.65625 1.125,2.65625 2.5625,2.65625 2.109375,0 4.328125,-2.1875 4.328125,-4.5625 z M 6.484375,-4.734375 c 0,0.71875 -0.265625,2.265625 -1.25,3.5 C 4.75,-0.625 3.9375,-0.046875 3.09375,-0.046875 c -0.984375,0 -1.671875,-0.796875 -1.671875,-2.109375 0,-0.453125 0.140625,-1.90625 0.90625,-3.0625 0.6875,-1.046875 1.65625,-1.5625 2.453125,-1.5625 0.8125,0 1.703125,0.5625 1.703125,2.046875 z m 0,0"
             id="id-701481bc-5b07-4884-be08-b481de3c3985" />
        </g>
      </g>
    </g>
  </g>
  <g
     transform="matrix(0.799998,0,0,0.799998,136.01061,85.038437)"
     ns1:version="1.8.2"
     ns1:texconverter="pdflatex"
     ns1:pdfconverter="inkscape"
     ns1:text="$O'$"
     ns1:preamble="/media/topo/TOSEXT4/doctorado/upm/docencia/libros-apuntes/apuntes-fisica/figuras/TexText/preambulo_textext.tex"
     ns1:scale="0.6"
     ns1:alignment="middle center"
     ns1:stroke-to-path="0"
     ns1:inkscapeversion="0.92.1"
     ns1:jacobian_sqrt="0.799998"
     id="g5523-4">
    <defs
       id="id-2e2ce22c-79d7-446e-8979-7a64f1b0db2c">
      <g
         id="id-1819568d-0e13-4e71-b540-4afb5e38f671">
        <symbol
           overflow="visible"
           id="id-94875f94-1a5b-4c8b-822e-bd61ed387ad5">
          <path
             style="stroke:none"
             d=""
             id="id-ae532db8-bfbc-4072-9b87-6194630aa094" />
        </symbol>
        <symbol
           overflow="visible"
           id="id-4fb3dee8-401a-48cd-9d0a-317583a76a59">
          <path
             style="stroke:none"
             d="m 7.375,-4.34375 c 0,-1.609375 -1.0625,-2.6875 -2.546875,-2.6875 -2.140625,0 -4.34375,2.265625 -4.34375,4.59375 0,1.65625 1.125,2.65625 2.5625,2.65625 2.109375,0 4.328125,-2.1875 4.328125,-4.5625 z M 6.484375,-4.734375 c 0,0.71875 -0.265625,2.265625 -1.25,3.5 C 4.75,-0.625 3.9375,-0.046875 3.09375,-0.046875 c -0.984375,0 -1.671875,-0.796875 -1.671875,-2.109375 0,-0.453125 0.140625,-1.90625 0.90625,-3.0625 0.6875,-1.046875 1.65625,-1.5625 2.453125,-1.5625 0.8125,0 1.703125,0.5625 1.703125,2.046875 z m 0,0"
             id="id-effecbe1-bfdd-4433-a7a6-5f0baaba6efc" />
        </symbol>
        <symbol
           overflow="visible"
           id="id-4f0d4ce2-e6f9-4737-bbd1-a6503a530324">
          <path
             style="stroke:none"
             d=""
             id="id-72f34e40-e59d-45d8-a041-c698e07b03c8" />
        </symbol>
        <symbol
           overflow="visible"
           id="id-24066d0f-352a-4a39-908a-a9d9ac68ddcf">
          <path
             style="stroke:none"
             d="m 2.078125,-3.515625 c 0,-0.21875 -0.1875,-0.375 -0.40625,-0.375 -0.28125,0 -0.34375,0.21875 -0.375,0.3125 L 0.375,-0.5625 0.328125,-0.4375 c 0,0.078125 0.21875,0.15625 0.28125,0.15625 0.046875,0 0.078125,-0.046875 0.09375,-0.109375 l 1.328125,-2.90625 c 0.03125,-0.0625 0.046875,-0.125 0.046875,-0.21875 z m 0,0"
             id="id-db63781a-1d03-4514-bfae-59e251e27f90" />
        </symbol>
      </g>
    </defs>
    <g
       id="id-cdbe4a6d-12c4-4584-ad40-8e3427fdf6d1"
       transform="translate(-149.196,-127.258)">
      <g
         style="fill:#000000;fill-opacity:1"
         id="id-446d00b9-4336-4238-958e-2d49bfd4ffe4">
        <g
           transform="translate(148.712,134.765)"
           id="g6858">
          <path
             style="stroke:none"
             d="m 7.375,-4.34375 c 0,-1.609375 -1.0625,-2.6875 -2.546875,-2.6875 -2.140625,0 -4.34375,2.265625 -4.34375,4.59375 0,1.65625 1.125,2.65625 2.5625,2.65625 2.109375,0 4.328125,-2.1875 4.328125,-4.5625 z M 6.484375,-4.734375 c 0,0.71875 -0.265625,2.265625 -1.25,3.5 C 4.75,-0.625 3.9375,-0.046875 3.09375,-0.046875 c -0.984375,0 -1.671875,-0.796875 -1.671875,-2.109375 0,-0.453125 0.140625,-1.90625 0.90625,-3.0625 0.6875,-1.046875 1.65625,-1.5625 2.453125,-1.5625 0.8125,0 1.703125,0.5625 1.703125,2.046875 z m 0,0"
             id="id-f254da8f-5d4c-4671-935b-5e72bc46f6d8" />
        </g>
      </g>
      <g
         style="fill:#000000;fill-opacity:1"
         id="id-5b0d357f-95db-4b6f-9ad1-4473ce411a3f">
        <g
           transform="translate(156.588,131.149)"
           id="g6862">
          <path
             style="stroke:none"
             d="m 2.078125,-3.515625 c 0,-0.21875 -0.1875,-0.375 -0.40625,-0.375 -0.28125,0 -0.34375,0.21875 -0.375,0.3125 L 0.375,-0.5625 0.328125,-0.4375 c 0,0.078125 0.21875,0.15625 0.28125,0.15625 0.046875,0 0.078125,-0.046875 0.09375,-0.109375 l 1.328125,-2.90625 c 0.03125,-0.0625 0.046875,-0.125 0.046875,-0.21875 z m 0,0"
             id="id-6fae1d17-c27e-44ae-b9c1-177c8b170697" />
        </g>
      </g>
    </g>
  </g>
  <g
     transform="matrix(0.799998,0,0,0.799998,176.55433,120.72388)"
     ns1:version="1.8.2"
     ns1:texconverter="pdflatex"
     ns1:pdfconverter="inkscape"
     ns1:text="$O$"
     ns1:preamble="/media/topo/TOSEXT4/doctorado/upm/docencia/libros-apuntes/apuntes-fisica/figuras/TexText/preambulo_textext.tex"
     ns1:scale="0.6"
     ns1:alignment="middle center"
     ns1:stroke-to-path="0"
     ns1:inkscapeversion="0.92.1"
     ns1:jacobian_sqrt="0.799998"
     id="g5523-3">
    <defs
       id="id-17c17abb-56f5-47ea-9fbe-491f136964f9-2">
      <g
         id="g8235">
        <symbol
           overflow="visible"
           id="symbol8229">
          <path
             style="stroke:none;stroke-width:0"
             d=""
             id="path8227" />
        </symbol>
        <symbol
           overflow="visible"
           id="symbol8233">
          <path
             style="stroke:none;stroke-width:0"
             d="m 7.375,-4.34375 c 0,-1.609375 -1.0625,-2.6875 -2.546875,-2.6875 -2.140625,0 -4.34375,2.265625 -4.34375,4.59375 0,1.65625 1.125,2.65625 2.5625,2.65625 2.109375,0 4.328125,-2.1875 4.328125,-4.5625 z M 6.484375,-4.734375 c 0,0.71875 -0.265625,2.265625 -1.25,3.5 C 4.75,-0.625 3.9375,-0.046875 3.09375,-0.046875 c -0.984375,0 -1.671875,-0.796875 -1.671875,-2.109375 0,-0.453125 0.140625,-1.90625 0.90625,-3.0625 0.6875,-1.046875 1.65625,-1.5625 2.453125,-1.5625 0.8125,0 1.703125,0.5625 1.703125,2.046875 z m 0,0"
             id="path8231" />
        </symbol>
      </g>
    </defs>
    <g
       id="id-fe073251-0f82-4e46-8647-0c35cbabc574-4"
       transform="translate(-149.196,-127.734)">
      <g
         style="fill:#000000;fill-opacity:1"
         id="id-6e090fc5-3dad-41ba-bf22-99d7123d6c1a-7">
        <g
           transform="translate(148.712,134.765)"
           id="g5519-6">
          <path
             style="stroke:none;stroke-width:0"
             d="m 7.375,-4.34375 c 0,-1.609375 -1.0625,-2.6875 -2.546875,-2.6875 -2.140625,0 -4.34375,2.265625 -4.34375,4.59375 0,1.65625 1.125,2.65625 2.5625,2.65625 2.109375,0 4.328125,-2.1875 4.328125,-4.5625 z M 6.484375,-4.734375 c 0,0.71875 -0.265625,2.265625 -1.25,3.5 C 4.75,-0.625 3.9375,-0.046875 3.09375,-0.046875 c -0.984375,0 -1.671875,-0.796875 -1.671875,-2.109375 0,-0.453125 0.140625,-1.90625 0.90625,-3.0625 0.6875,-1.046875 1.65625,-1.5625 2.453125,-1.5625 0.8125,0 1.703125,0.5625 1.703125,2.046875 z m 0,0"
             id="id-701481bc-5b07-4884-be08-b481de3c3985-5" />
        </g>
      </g>
    </g>
  </g>
  <g
     transform="matrix(0.799998,0,0,0.799998,232.58756,84.161363)"
     ns1:version="1.8.2"
     ns1:texconverter="pdflatex"
     ns1:pdfconverter="inkscape"
     ns1:text="$O'$"
     ns1:preamble="/media/topo/TOSEXT4/doctorado/upm/docencia/libros-apuntes/apuntes-fisica/figuras/TexText/preambulo_textext.tex"
     ns1:scale="0.6"
     ns1:alignment="middle center"
     ns1:stroke-to-path="0"
     ns1:inkscapeversion="0.92.1"
     ns1:jacobian_sqrt="0.799998"
     id="g5523-4-6">
    <defs
       id="id-2e2ce22c-79d7-446e-8979-7a64f1b0db2c-9">
      <g
         id="g8259">
        <symbol
           overflow="visible"
           id="symbol8245">
          <path
             style="stroke:none"
             d=""
             id="path8243" />
        </symbol>
        <symbol
           overflow="visible"
           id="symbol8249">
          <path
             style="stroke:none"
             d="m 7.375,-4.34375 c 0,-1.609375 -1.0625,-2.6875 -2.546875,-2.6875 -2.140625,0 -4.34375,2.265625 -4.34375,4.59375 0,1.65625 1.125,2.65625 2.5625,2.65625 2.109375,0 4.328125,-2.1875 4.328125,-4.5625 z M 6.484375,-4.734375 c 0,0.71875 -0.265625,2.265625 -1.25,3.5 C 4.75,-0.625 3.9375,-0.046875 3.09375,-0.046875 c -0.984375,0 -1.671875,-0.796875 -1.671875,-2.109375 0,-0.453125 0.140625,-1.90625 0.90625,-3.0625 0.6875,-1.046875 1.65625,-1.5625 2.453125,-1.5625 0.8125,0 1.703125,0.5625 1.703125,2.046875 z m 0,0"
             id="path8247" />
        </symbol>
        <symbol
           overflow="visible"
           id="symbol8253">
          <path
             style="stroke:none"
             d=""
             id="path8251" />
        </symbol>
        <symbol
           overflow="visible"
           id="symbol8257">
          <path
             style="stroke:none"
             d="m 2.078125,-3.515625 c 0,-0.21875 -0.1875,-0.375 -0.40625,-0.375 -0.28125,0 -0.34375,0.21875 -0.375,0.3125 L 0.375,-0.5625 0.328125,-0.4375 c 0,0.078125 0.21875,0.15625 0.28125,0.15625 0.046875,0 0.078125,-0.046875 0.09375,-0.109375 l 1.328125,-2.90625 c 0.03125,-0.0625 0.046875,-0.125 0.046875,-0.21875 z m 0,0"
             id="path8255" />
        </symbol>
      </g>
    </defs>
    <g
       id="id-cdbe4a6d-12c4-4584-ad40-8e3427fdf6d1-4"
       transform="translate(-149.196,-127.258)">
      <g
         style="fill:#000000;fill-opacity:1"
         id="id-446d00b9-4336-4238-958e-2d49bfd4ffe4-3">
        <g
           transform="translate(148.712,134.765)"
           id="g6858-0">
          <path
             style="stroke:none"
             d="m 7.375,-4.34375 c 0,-1.609375 -1.0625,-2.6875 -2.546875,-2.6875 -2.140625,0 -4.34375,2.265625 -4.34375,4.59375 0,1.65625 1.125,2.65625 2.5625,2.65625 2.109375,0 4.328125,-2.1875 4.328125,-4.5625 z M 6.484375,-4.734375 c 0,0.71875 -0.265625,2.265625 -1.25,3.5 C 4.75,-0.625 3.9375,-0.046875 3.09375,-0.046875 c -0.984375,0 -1.671875,-0.796875 -1.671875,-2.109375 0,-0.453125 0.140625,-1.90625 0.90625,-3.0625 0.6875,-1.046875 1.65625,-1.5625 2.453125,-1.5625 0.8125,0 1.703125,0.5625 1.703125,2.046875 z m 0,0"
             id="id-f254da8f-5d4c-4671-935b-5e72bc46f6d8-7" />
        </g>
      </g>
      <g
         style="fill:#000000;fill-opacity:1"
         id="id-5b0d357f-95db-4b6f-9ad1-4473ce411a3f-8">
        <g
           transform="translate(156.588,131.149)"
           id="g6862-6">
          <path
             style="stroke:none"
             d="m 2.078125,-3.515625 c 0,-0.21875 -0.1875,-0.375 -0.40625,-0.375 -0.28125,0 -0.34375,0.21875 -0.375,0.3125 L 0.375,-0.5625 0.328125,-0.4375 c 0,0.078125 0.21875,0.15625 0.28125,0.15625 0.046875,0 0.078125,-0.046875 0.09375,-0.109375 l 1.328125,-2.90625 c 0.03125,-0.0625 0.046875,-0.125 0.046875,-0.21875 z m 0,0"
             id="id-6fae1d17-c27e-44ae-b9c1-177c8b170697-8" />
        </g>
      </g>
    </g>
  </g>
  <g
     transform="matrix(0.799998,0,0,0.799998,270.27983,120.16885)"
     ns1:version="1.8.2"
     ns1:texconverter="pdflatex"
     ns1:pdfconverter="inkscape"
     ns1:text="$O$"
     ns1:preamble="/media/topo/TOSEXT4/doctorado/upm/docencia/libros-apuntes/apuntes-fisica/figuras/TexText/preambulo_textext.tex"
     ns1:scale="0.6"
     ns1:alignment="middle center"
     ns1:stroke-to-path="0"
     ns1:inkscapeversion="0.92.1"
     ns1:jacobian_sqrt="0.799998"
     id="g5523-8">
    <defs
       id="id-17c17abb-56f5-47ea-9fbe-491f136964f9-4">
      <g
         id="g8796">
        <symbol
           overflow="visible"
           id="symbol8790">
          <path
             style="stroke:none;stroke-width:0"
             d=""
             id="path8788" />
        </symbol>
        <symbol
           overflow="visible"
           id="symbol8794">
          <path
             style="stroke:none;stroke-width:0"
             d="m 7.375,-4.34375 c 0,-1.609375 -1.0625,-2.6875 -2.546875,-2.6875 -2.140625,0 -4.34375,2.265625 -4.34375,4.59375 0,1.65625 1.125,2.65625 2.5625,2.65625 2.109375,0 4.328125,-2.1875 4.328125,-4.5625 z M 6.484375,-4.734375 c 0,0.71875 -0.265625,2.265625 -1.25,3.5 C 4.75,-0.625 3.9375,-0.046875 3.09375,-0.046875 c -0.984375,0 -1.671875,-0.796875 -1.671875,-2.109375 0,-0.453125 0.140625,-1.90625 0.90625,-3.0625 0.6875,-1.046875 1.65625,-1.5625 2.453125,-1.5625 0.8125,0 1.703125,0.5625 1.703125,2.046875 z m 0,0"
             id="path8792" />
        </symbol>
      </g>
    </defs>
    <g
       id="id-fe073251-0f82-4e46-8647-0c35cbabc574-0"
       transform="translate(-149.196,-127.734)">
      <g
         style="fill:#000000;fill-opacity:1"
         id="id-6e090fc5-3dad-41ba-bf22-99d7123d6c1a-6">
        <g
           transform="translate(148.712,134.765)"
           id="g5519-8">
          <path
             style="stroke:none;stroke-width:0"
             d="m 7.375,-4.34375 c 0,-1.609375 -1.0625,-2.6875 -2.546875,-2.6875 -2.140625,0 -4.34375,2.265625 -4.34375,4.59375 0,1.65625 1.125,2.65625 2.5625,2.65625 2.109375,0 4.328125,-2.1875 4.328125,-4.5625 z M 6.484375,-4.734375 c 0,0.71875 -0.265625,2.265625 -1.25,3.5 C 4.75,-0.625 3.9375,-0.046875 3.09375,-0.046875 c -0.984375,0 -1.671875,-0.796875 -1.671875,-2.109375 0,-0.453125 0.140625,-1.90625 0.90625,-3.0625 0.6875,-1.046875 1.65625,-1.5625 2.453125,-1.5625 0.8125,0 1.703125,0.5625 1.703125,2.046875 z m 0,0"
             id="id-701481bc-5b07-4884-be08-b481de3c3985-9" />
        </g>
      </g>
    </g>
  </g>
  <g
     transform="matrix(0.799998,0,0,0.799998,326.31306,83.606336)"
     ns1:version="1.8.2"
     ns1:texconverter="pdflatex"
     ns1:pdfconverter="inkscape"
     ns1:text="$O'$"
     ns1:preamble="/media/topo/TOSEXT4/doctorado/upm/docencia/libros-apuntes/apuntes-fisica/figuras/TexText/preambulo_textext.tex"
     ns1:scale="0.6"
     ns1:alignment="middle center"
     ns1:stroke-to-path="0"
     ns1:inkscapeversion="0.92.1"
     ns1:jacobian_sqrt="0.799998"
     id="g5523-4-2">
    <defs
       id="id-2e2ce22c-79d7-446e-8979-7a64f1b0db2c-6">
      <g
         id="g8820">
        <symbol
           overflow="visible"
           id="symbol8806">
          <path
             style="stroke:none"
             d=""
             id="path8804" />
        </symbol>
        <symbol
           overflow="visible"
           id="symbol8810">
          <path
             style="stroke:none"
             d="m 7.375,-4.34375 c 0,-1.609375 -1.0625,-2.6875 -2.546875,-2.6875 -2.140625,0 -4.34375,2.265625 -4.34375,4.59375 0,1.65625 1.125,2.65625 2.5625,2.65625 2.109375,0 4.328125,-2.1875 4.328125,-4.5625 z M 6.484375,-4.734375 c 0,0.71875 -0.265625,2.265625 -1.25,3.5 C 4.75,-0.625 3.9375,-0.046875 3.09375,-0.046875 c -0.984375,0 -1.671875,-0.796875 -1.671875,-2.109375 0,-0.453125 0.140625,-1.90625 0.90625,-3.0625 0.6875,-1.046875 1.65625,-1.5625 2.453125,-1.5625 0.8125,0 1.703125,0.5625 1.703125,2.046875 z m 0,0"
             id="path8808" />
        </symbol>
        <symbol
           overflow="visible"
           id="symbol8814">
          <path
             style="stroke:none"
             d=""
             id="path8812" />
        </symbol>
        <symbol
           overflow="visible"
           id="symbol8818">
          <path
             style="stroke:none"
             d="m 2.078125,-3.515625 c 0,-0.21875 -0.1875,-0.375 -0.40625,-0.375 -0.28125,0 -0.34375,0.21875 -0.375,0.3125 L 0.375,-0.5625 0.328125,-0.4375 c 0,0.078125 0.21875,0.15625 0.28125,0.15625 0.046875,0 0.078125,-0.046875 0.09375,-0.109375 l 1.328125,-2.90625 c 0.03125,-0.0625 0.046875,-0.125 0.046875,-0.21875 z m 0,0"
             id="path8816" />
        </symbol>
      </g>
    </defs>
    <g
       id="id-cdbe4a6d-12c4-4584-ad40-8e3427fdf6d1-2"
       transform="translate(-149.196,-127.258)">
      <g
         style="fill:#000000;fill-opacity:1"
         id="id-446d00b9-4336-4238-958e-2d49bfd4ffe4-7">
        <g
           transform="translate(148.712,134.765)"
           id="g6858-2">
          <path
             style="stroke:none"
             d="m 7.375,-4.34375 c 0,-1.609375 -1.0625,-2.6875 -2.546875,-2.6875 -2.140625,0 -4.34375,2.265625 -4.34375,4.59375 0,1.65625 1.125,2.65625 2.5625,2.65625 2.109375,0 4.328125,-2.1875 4.328125,-4.5625 z M 6.484375,-4.734375 c 0,0.71875 -0.265625,2.265625 -1.25,3.5 C 4.75,-0.625 3.9375,-0.046875 3.09375,-0.046875 c -0.984375,0 -1.671875,-0.796875 -1.671875,-2.109375 0,-0.453125 0.140625,-1.90625 0.90625,-3.0625 0.6875,-1.046875 1.65625,-1.5625 2.453125,-1.5625 0.8125,0 1.703125,0.5625 1.703125,2.046875 z m 0,0"
             id="id-f254da8f-5d4c-4671-935b-5e72bc46f6d8-2" />
        </g>
      </g>
      <g
         style="fill:#000000;fill-opacity:1"
         id="id-5b0d357f-95db-4b6f-9ad1-4473ce411a3f-6">
        <g
           transform="translate(156.588,131.149)"
           id="g6862-1">
          <path
             style="stroke:none"
             d="m 2.078125,-3.515625 c 0,-0.21875 -0.1875,-0.375 -0.40625,-0.375 -0.28125,0 -0.34375,0.21875 -0.375,0.3125 L 0.375,-0.5625 0.328125,-0.4375 c 0,0.078125 0.21875,0.15625 0.28125,0.15625 0.046875,0 0.078125,-0.046875 0.09375,-0.109375 l 1.328125,-2.90625 c 0.03125,-0.0625 0.046875,-0.125 0.046875,-0.21875 z m 0,0"
             id="id-6fae1d17-c27e-44ae-b9c1-177c8b170697-0" />
        </g>
      </g>
    </g>
  </g>
</svg>
