<?xml version="1.0" encoding="UTF-8" standalone="no"?>
<!-- Created with Inkscape (http://www.inkscape.org/) -->

<svg
   width="210mm"
   height="297mm"
   viewBox="0 0 210 297"
   version="1.1"
   id="svg5"
   inkscape:version="1.2.2 (b0a8486541, 2022-12-01)"
   sodipodi:docname="fig-cap1-01-fuerzas.svg"
   xmlns:inkscape="http://www.inkscape.org/namespaces/inkscape"
   xmlns:sodipodi="http://sodipodi.sourceforge.net/DTD/sodipodi-0.dtd"
   xmlns="http://www.w3.org/2000/svg"
   xmlns:svg="http://www.w3.org/2000/svg">
  <sodipodi:namedview
     id="namedview7"
     pagecolor="#ffffff"
     bordercolor="#666666"
     borderopacity="1.0"
     inkscape:pageshadow="2"
     inkscape:pageopacity="0.0"
     inkscape:pagecheckerboard="0"
     inkscape:document-units="mm"
     showgrid="false"
     showguides="true"
     inkscape:guide-bbox="true"
     inkscape:zoom="2.044502"
     inkscape:cx="399.85287"
     inkscape:cy="452.67747"
     inkscape:window-width="1920"
     inkscape:window-height="1026"
     inkscape:window-x="0"
     inkscape:window-y="0"
     inkscape:window-maximized="1"
     inkscape:current-layer="layer1"
     inkscape:showpageshadow="2"
     inkscape:deskcolor="#d1d1d1">
    <sodipodi:guide
       position="110.51795,217.02332"
       orientation="0,-1"
       id="guide451"
       inkscape:locked="false" />
    <sodipodi:guide
       position="22.940026,191.87786"
       orientation="0,-1"
       id="guide453"
       inkscape:locked="false" />
    <sodipodi:guide
       position="40.764816,166.94083"
       orientation="0,-1"
       id="guide455"
       inkscape:locked="false" />
  </sodipodi:namedview>
  <defs
     id="defs2">
    <marker
       style="overflow:visible"
       id="Arrow1Send"
       refX="0"
       refY="0"
       orient="auto"
       inkscape:stockid="Arrow1Send"
       inkscape:isstock="true">
      <path
         transform="matrix(-0.2,0,0,-0.2,-1.2,0)"
         style="fill:context-stroke;fill-rule:evenodd;stroke:context-stroke;stroke-width:1pt"
         d="M 0,0 5,-5 -12.5,0 5,5 Z"
         id="path16822" />
    </marker>
    <marker
       style="overflow:visible;"
       id="Arrow2Mend"
       refX="0.0"
       refY="0.0"
       orient="auto"
       inkscape:stockid="Arrow2Mend"
       inkscape:isstock="true">
      <path
         transform="scale(0.6) rotate(180) translate(0,0)"
         d="M 8.7185878,4.0337352 L -2.2072895,0.016013256 L 8.7185884,-4.0017078 C 6.9730900,-1.6296469 6.9831476,1.6157441 8.7185878,4.0337352 z "
         style="stroke:context-stroke;fill-rule:evenodd;fill:context-stroke;stroke-width:0.62500000;stroke-linejoin:round;"
         id="path16834" />
    </marker>
    <marker
       style="overflow:visible"
       id="Arrow1Send-8"
       refX="0"
       refY="0"
       orient="auto"
       inkscape:stockid="Arrow1Send"
       inkscape:isstock="true">
      <path
         transform="matrix(-0.2,0,0,-0.2,-1.2,0)"
         style="fill:context-stroke;fill-rule:evenodd;stroke:context-stroke;stroke-width:1pt"
         d="M 0,0 5,-5 -12.5,0 5,5 Z"
         id="path16822-7" />
    </marker>
    <marker
       style="overflow:visible"
       id="Arrow1Send-2"
       refX="0"
       refY="0"
       orient="auto"
       inkscape:stockid="Arrow1Send"
       inkscape:isstock="true">
      <path
         transform="matrix(-0.2,0,0,-0.2,-1.2,0)"
         style="fill:context-stroke;fill-rule:evenodd;stroke:context-stroke;stroke-width:1pt"
         d="M 0,0 5,-5 -12.5,0 5,5 Z"
         id="path16822-0" />
    </marker>
    <marker
       style="overflow:visible"
       id="Arrow1Send-2-3"
       refX="0"
       refY="0"
       orient="auto"
       inkscape:stockid="Arrow1Send"
       inkscape:isstock="true">
      <path
         transform="matrix(-0.2,0,0,-0.2,-1.2,0)"
         style="fill:context-stroke;fill-rule:evenodd;stroke:context-stroke;stroke-width:1pt"
         d="M 0,0 5,-5 -12.5,0 5,5 Z"
         id="path16822-0-7" />
    </marker>
    <marker
       style="overflow:visible"
       id="Arrow1Send-2-9"
       refX="0"
       refY="0"
       orient="auto"
       inkscape:stockid="Arrow1Send"
       inkscape:isstock="true">
      <path
         transform="matrix(-0.2,0,0,-0.2,-1.2,0)"
         style="fill:context-stroke;fill-rule:evenodd;stroke:context-stroke;stroke-width:1pt"
         d="M 0,0 5,-5 -12.5,0 5,5 Z"
         id="path16822-0-2" />
    </marker>
    <marker
       style="overflow:visible"
       id="Arrow1Send-8-8"
       refX="0"
       refY="0"
       orient="auto"
       inkscape:stockid="Arrow1Send"
       inkscape:isstock="true">
      <path
         transform="matrix(-0.2,0,0,-0.2,-1.2,0)"
         style="fill:context-stroke;fill-rule:evenodd;stroke:context-stroke;stroke-width:1pt"
         d="M 0,0 5,-5 -12.5,0 5,5 Z"
         id="path16822-7-9" />
    </marker>
  </defs>
  <g
     inkscape:label="Capa 1"
     inkscape:groupmode="layer"
     id="layer1">
    <g
       id="g538">
      <g
         id="g10757"
         transform="translate(44.455091,-3.36504)">
        <circle
           style="fill:#ff6600;stroke:#ff6600;stroke-width:0.495141;stroke-miterlimit:4;stroke-dasharray:none;stroke-opacity:0.995475"
           id="path43"
           cx="29.343834"
           cy="83.341721"
           r="8.2973366" />
        <text
           xml:space="preserve"
           style="font-size:16.9333px;line-height:21.8966px;font-family:'Accanthis ADF Std No3';-inkscape-font-specification:'Accanthis ADF Std No3';letter-spacing:0px;word-spacing:0px;fill:none;stroke:#000000;stroke-width:0.264583px;stroke-linecap:butt;stroke-linejoin:miter;stroke-opacity:1"
           x="25.051243"
           y="87.067047"
           id="text6296"><tspan
             sodipodi:role="line"
             id="tspan6294"
             style="font-size:16.9333px;fill:#000000;stroke-width:0.264583px"
             x="25.051243"
             y="87.067047">+</tspan></text>
      </g>
      <g
         id="g10757-3"
         transform="translate(117.46547,-3.3650401)">
        <circle
           style="fill:#ff6600;stroke:#ff6600;stroke-width:0.495141;stroke-miterlimit:4;stroke-dasharray:none;stroke-opacity:0.995475"
           id="path43-5"
           cx="29.343834"
           cy="83.341721"
           r="8.2973366" />
        <text
           xml:space="preserve"
           style="font-size:16.9333px;line-height:21.8966px;font-family:'Accanthis ADF Std No3';-inkscape-font-specification:'Accanthis ADF Std No3';letter-spacing:0px;word-spacing:0px;fill:none;stroke:#000000;stroke-width:0.264583px;stroke-linecap:butt;stroke-linejoin:miter;stroke-opacity:1"
           x="25.051243"
           y="87.067047"
           id="text6296-6"><tspan
             sodipodi:role="line"
             id="tspan6294-2"
             style="font-size:16.9333px;fill:#000000;stroke-width:0.264583px"
             x="25.051243"
             y="87.067047">+</tspan></text>
      </g>
    </g>
    <g
       id="g542"
       transform="translate(0.66014292)">
      <path
         style="fill:none;fill-rule:evenodd;stroke:#ff0000;stroke-width:2.5;stroke-linecap:butt;stroke-linejoin:miter;stroke-miterlimit:4;stroke-dasharray:none;stroke-opacity:1;marker-end:url(#Arrow1Send-2)"
         d="M 60.065443,79.890175 H 43.015153"
         id="path16541-2"
         sodipodi:nodetypes="cc" />
      <path
         style="fill:none;fill-rule:evenodd;stroke:#ff0000;stroke-width:2.5;stroke-linecap:butt;stroke-linejoin:miter;stroke-miterlimit:4;stroke-dasharray:none;stroke-opacity:1;marker-end:url(#Arrow1Send)"
         d="m 159.2225,79.890175 h 17.05029"
         id="path16541"
         sodipodi:nodetypes="cc" />
    </g>
    <g
       id="g524">
      <g
         id="g16444"
         transform="translate(47.130491,-9.4027008)">
        <circle
           style="fill:#ffff00;stroke:#ffff00;stroke-width:0.495141;stroke-miterlimit:4;stroke-dasharray:none;stroke-opacity:0.995475"
           id="path43-7"
           cx="26.668434"
           cy="114.52484"
           r="8.2973366" />
        <text
           xml:space="preserve"
           style="font-size:19.7556px;line-height:25.546px;font-family:'Accanthis ADF Std No3';-inkscape-font-specification:'Accanthis ADF Std No3';letter-spacing:0px;word-spacing:0px;fill:none;stroke:#000000;stroke-width:0.264583px;stroke-linecap:butt;stroke-linejoin:miter;stroke-opacity:1"
           x="22.06538"
           y="118.8612"
           id="text11747"><tspan
             sodipodi:role="line"
             id="tspan11745"
             style="font-size:19.7556px;fill:#000000;stroke-width:0.264583px"
             x="22.06538"
             y="118.8612">-</tspan></text>
      </g>
      <g
         id="g16444-0"
         transform="translate(120.14087,-9.402701)">
        <circle
           style="fill:#ffff00;stroke:#ffff00;stroke-width:0.495141;stroke-miterlimit:4;stroke-dasharray:none;stroke-opacity:0.995475"
           id="path43-7-9"
           cx="26.668434"
           cy="114.52484"
           r="8.2973366" />
        <text
           xml:space="preserve"
           style="font-size:19.7556px;line-height:25.546px;font-family:'Accanthis ADF Std No3';-inkscape-font-specification:'Accanthis ADF Std No3';letter-spacing:0px;word-spacing:0px;fill:none;stroke:#000000;stroke-width:0.264583px;stroke-linecap:butt;stroke-linejoin:miter;stroke-opacity:1"
           x="22.06538"
           y="118.8612"
           id="text11747-3"><tspan
             sodipodi:role="line"
             id="tspan11745-6"
             style="font-size:19.7556px;fill:#000000;stroke-width:0.264583px"
             x="22.06538"
             y="118.8612">-</tspan></text>
      </g>
    </g>
    <g
       id="g528"
       transform="translate(0.66014318)">
      <path
         style="fill:none;fill-rule:evenodd;stroke:#ff0000;stroke-width:2.5;stroke-linecap:butt;stroke-linejoin:miter;stroke-miterlimit:4;stroke-dasharray:none;stroke-opacity:1;marker-end:url(#Arrow1Send-2-3)"
         d="M 60.065443,105.1233 H 43.015153"
         id="path16541-2-5"
         sodipodi:nodetypes="cc" />
      <path
         style="fill:none;fill-rule:evenodd;stroke:#ff0000;stroke-width:2.5;stroke-linecap:butt;stroke-linejoin:miter;stroke-miterlimit:4;stroke-dasharray:none;stroke-opacity:1;marker-end:url(#Arrow1Send-8)"
         d="m 159.2225,105.1233 h 17.05029"
         id="path16541-9"
         sodipodi:nodetypes="cc" />
    </g>
    <g
       id="g510">
      <g
         id="g499">
        <g
           id="g16444-06"
           transform="translate(47.130491,15.534329)">
          <circle
             style="fill:#ffff00;stroke:#ffff00;stroke-width:0.495141;stroke-miterlimit:4;stroke-dasharray:none;stroke-opacity:0.995475"
             id="path43-7-2"
             cx="26.668434"
             cy="114.52484"
             r="8.2973366" />
          <text
             xml:space="preserve"
             style="font-size:19.7556px;line-height:25.546px;font-family:'Accanthis ADF Std No3';-inkscape-font-specification:'Accanthis ADF Std No3';letter-spacing:0px;word-spacing:0px;fill:none;stroke:#000000;stroke-width:0.264583px;stroke-linecap:butt;stroke-linejoin:miter;stroke-opacity:1"
             x="22.06538"
             y="118.8612"
             id="text11747-6"><tspan
               sodipodi:role="line"
               id="tspan11745-1"
               style="font-size:19.7556px;fill:#000000;stroke-width:0.264583px"
               x="22.06538"
               y="118.8612">-</tspan></text>
        </g>
      </g>
      <g
         id="g10757-9"
         transform="translate(117.46547,46.71745)">
        <circle
           style="fill:#ff6600;stroke:#ff6600;stroke-width:0.495141;stroke-miterlimit:4;stroke-dasharray:none;stroke-opacity:0.995475"
           id="path43-1"
           cx="29.343834"
           cy="83.341721"
           r="8.2973366" />
        <text
           xml:space="preserve"
           style="font-size:16.9333px;line-height:21.8966px;font-family:'Accanthis ADF Std No3';-inkscape-font-specification:'Accanthis ADF Std No3';letter-spacing:0px;word-spacing:0px;fill:none;stroke:#000000;stroke-width:0.264583px;stroke-linecap:butt;stroke-linejoin:miter;stroke-opacity:1"
           x="25.051243"
           y="87.067047"
           id="text6296-2"><tspan
             sodipodi:role="line"
             id="tspan6294-7"
             style="font-size:16.9333px;fill:#000000;stroke-width:0.264583px"
             x="25.051243"
             y="87.067047">+</tspan></text>
      </g>
    </g>
    <g
       id="g514"
       transform="translate(0.61080553)">
      <path
         style="fill:none;fill-rule:evenodd;stroke:#ff0000;stroke-width:2.5;stroke-linecap:butt;stroke-linejoin:miter;stroke-miterlimit:4;stroke-dasharray:none;stroke-opacity:1;marker-end:url(#Arrow1Send-8-8)"
         d="M 83.892128,129.98625 H 100.94242"
         id="path16541-9-7"
         sodipodi:nodetypes="cc" />
      <path
         style="fill:none;fill-rule:evenodd;stroke:#ff0000;stroke-width:2.5;stroke-linecap:butt;stroke-linejoin:miter;stroke-miterlimit:4;stroke-dasharray:none;stroke-opacity:1;marker-end:url(#Arrow1Send-2-9)"
         d="M 135.49449,129.92329 H 118.4442"
         id="path16541-2-2"
         sodipodi:nodetypes="cc" />
    </g>
  </g>
</svg>
