<?xml version="1.0" encoding="UTF-8" standalone="no"?>
<!-- Created with Inkscape (http://www.inkscape.org/) -->

<svg
   width="210mm"
   height="297mm"
   viewBox="0 0 210 297"
   version="1.1"
   id="svg5"
   inkscape:version="1.1.1 (3bf5ae0d25, 2021-09-20)"
   sodipodi:docname="fig-cap1-03-induccion.svg"
   xmlns:inkscape="http://www.inkscape.org/namespaces/inkscape"
   xmlns:sodipodi="http://sodipodi.sourceforge.net/DTD/sodipodi-0.dtd"
   xmlns="http://www.w3.org/2000/svg"
   xmlns:svg="http://www.w3.org/2000/svg">
  <sodipodi:namedview
     id="namedview7"
     pagecolor="#ffffff"
     bordercolor="#666666"
     borderopacity="1.0"
     inkscape:pageshadow="2"
     inkscape:pageopacity="0.0"
     inkscape:pagecheckerboard="0"
     inkscape:document-units="mm"
     showgrid="false"
     showguides="true"
     inkscape:guide-bbox="true"
     inkscape:zoom="1.2961226"
     inkscape:cx="387.6948"
     inkscape:cy="442.47357"
     inkscape:window-width="1920"
     inkscape:window-height="1026"
     inkscape:window-x="0"
     inkscape:window-y="0"
     inkscape:window-maximized="1"
     inkscape:current-layer="layer1">
    <sodipodi:guide
       position="38.581418,193.09555"
       orientation="0,-1"
       id="guide42278" />
  </sodipodi:namedview>
  <defs
     id="defs2">
    <marker
       style="overflow:visible;"
       id="marker39646"
       refX="0.0"
       refY="0.0"
       orient="auto"
       inkscape:stockid="Arrow1Mend"
       inkscape:isstock="true">
      <path
         transform="scale(0.4) rotate(180) translate(10,0)"
         style="fill-rule:evenodd;fill:context-stroke;stroke:context-stroke;stroke-width:1.0pt;"
         d="M 0.0,0.0 L 5.0,-5.0 L -12.5,0.0 L 5.0,5.0 L 0.0,0.0 z "
         id="path39644" />
    </marker>
    <marker
       style="overflow:visible;"
       id="Arrow2Lend"
       refX="0.0"
       refY="0.0"
       orient="auto"
       inkscape:stockid="Arrow2Lend"
       inkscape:isstock="true">
      <path
         transform="scale(1.1) rotate(180) translate(1,0)"
         d="M 8.7185878,4.0337352 L -2.2072895,0.016013256 L 8.7185884,-4.0017078 C 6.9730900,-1.6296469 6.9831476,1.6157441 8.7185878,4.0337352 z "
         style="stroke:context-stroke;fill-rule:evenodd;fill:context-stroke;stroke-width:0.62500000;stroke-linejoin:round;"
         id="path39389" />
    </marker>
    <marker
       style="overflow:visible;"
       id="Arrow1Mend"
       refX="0.0"
       refY="0.0"
       orient="auto"
       inkscape:stockid="Arrow1Mend"
       inkscape:isstock="true">
      <path
         transform="scale(0.4) rotate(180) translate(10,0)"
         style="fill-rule:evenodd;fill:context-stroke;stroke:context-stroke;stroke-width:1.0pt;"
         d="M 0.0,0.0 L 5.0,-5.0 L -12.5,0.0 L 5.0,5.0 L 0.0,0.0 z "
         id="path39377" />
    </marker>
    <rect
       x="72.707454"
       y="311.68836"
       width="266.5083"
       height="255.87021"
       id="rect33592" />
    <clipPath
       clipPathUnits="userSpaceOnUse"
       id="clipPath838">
      <path
         d="M 0,0 H 959.9811 V 539.97165 H 0 Z"
         id="path836" />
    </clipPath>
    <clipPath
       clipPathUnits="userSpaceOnUse"
       id="clipPath842">
      <path
         d="M 0,0 H 960 V 540 H 0 Z"
         clip-rule="evenodd"
         id="path840" />
    </clipPath>
  </defs>
  <g
     inkscape:label="Capa 1"
     inkscape:groupmode="layer"
     id="layer1">
    <text
       xml:space="preserve"
       transform="scale(0.26458333)"
       id="text33590"
       style="fill:none;stroke:black;stroke-opacity:1;stroke-width:1px;stroke-linejoin:miter;stroke-linecap:butt;font-family:'Accanthis ADF Std No3';font-size:19.33333333px;line-height:25px;letter-spacing:0px;word-spacing:0px;-inkscape-font-specification:'Accanthis ADF Std No3';white-space:pre;shape-inside:url(#rect33592)" />
    <g
       id="g10023"
       transform="translate(-2.2583313,53.718003)">
      <ellipse
         style="fill:#b7bec8;stroke:#b7bec8;stroke-width:0.193285;stroke-opacity:0.995475"
         id="path3438"
         cx="17.583136"
         cy="24.47043"
         rx="32.448734"
         ry="24.248255" />
      <g
         id="g7875"
         transform="rotate(-33.056765,-18.832672,30.751916)">
        <ellipse
           style="fill:none;stroke:#000000;stroke-width:0.4;stroke-miterlimit:4;stroke-dasharray:none;stroke-opacity:0.995475"
           id="path3666"
           cx="26.959974"
           cy="32.540913"
           rx="5.7976446"
           ry="3.5102689" />
        <g
           id="g7625"
           transform="translate(-21.700878,-25.35198)">
          <text
             xml:space="preserve"
             style="font-size:7.05556px;line-height:9.12357px;font-family:'Accanthis ADF Std No3';-inkscape-font-specification:'Accanthis ADF Std No3';letter-spacing:0px;word-spacing:0px;fill:#000000;stroke:none;stroke-width:0.264583px;stroke-linecap:butt;stroke-linejoin:miter;stroke-opacity:1"
             x="43.825432"
             y="59.445118"
             id="text4644"><tspan
               sodipodi:role="line"
               id="tspan4642"
               style="font-size:7.05556px;fill:#000000;stroke:none;stroke-width:0.264583px"
               x="43.825432"
               y="59.445118">+</tspan></text>
          <text
             xml:space="preserve"
             style="font-size:7.05556px;line-height:9.12357px;font-family:'Accanthis ADF Std No3';-inkscape-font-specification:'Accanthis ADF Std No3';letter-spacing:0px;word-spacing:0px;fill:#000000;stroke:none;stroke-width:0.264583px;stroke-linecap:butt;stroke-linejoin:miter;stroke-opacity:1"
             x="50.596436"
             y="59.441589"
             id="text4644-3"><tspan
               sodipodi:role="line"
               id="tspan4642-6"
               style="font-size:7.05556px;fill:#000000;stroke:none;stroke-width:0.264583px"
               x="50.596436"
               y="59.441589">-</tspan></text>
        </g>
      </g>
      <g
         id="g7875-7"
         transform="rotate(42.067373,56.933141,30.107621)">
        <ellipse
           style="fill:none;stroke:#000000;stroke-width:0.4;stroke-miterlimit:4;stroke-dasharray:none;stroke-opacity:0.995475"
           id="path3666-5"
           cx="26.959974"
           cy="32.540913"
           rx="5.7976446"
           ry="3.5102689" />
        <g
           id="g7625-3"
           transform="translate(-21.700878,-25.35198)">
          <text
             xml:space="preserve"
             style="font-size:7.05556px;line-height:9.12357px;font-family:'Accanthis ADF Std No3';-inkscape-font-specification:'Accanthis ADF Std No3';letter-spacing:0px;word-spacing:0px;fill:#000000;stroke:none;stroke-width:0.264583px;stroke-linecap:butt;stroke-linejoin:miter;stroke-opacity:1"
             x="43.825432"
             y="59.445118"
             id="text4644-5"><tspan
               sodipodi:role="line"
               id="tspan4642-62"
               style="font-size:7.05556px;fill:#000000;stroke:none;stroke-width:0.264583px"
               x="43.825432"
               y="59.445118">+</tspan></text>
          <text
             xml:space="preserve"
             style="font-size:7.05556px;line-height:9.12357px;font-family:'Accanthis ADF Std No3';-inkscape-font-specification:'Accanthis ADF Std No3';letter-spacing:0px;word-spacing:0px;fill:#000000;stroke:none;stroke-width:0.264583px;stroke-linecap:butt;stroke-linejoin:miter;stroke-opacity:1"
             x="50.596436"
             y="59.441589"
             id="text4644-3-9"><tspan
               sodipodi:role="line"
               id="tspan4642-6-1"
               style="font-size:7.05556px;fill:#000000;stroke:none;stroke-width:0.264583px"
               x="50.596436"
               y="59.441589">-</tspan></text>
        </g>
      </g>
      <g
         id="g7875-2"
         transform="rotate(-167.11148,31.861033,26.710619)">
        <ellipse
           style="fill:none;stroke:#000000;stroke-width:0.4;stroke-miterlimit:4;stroke-dasharray:none;stroke-opacity:0.995475"
           id="path3666-7"
           cx="26.959974"
           cy="32.540913"
           rx="5.7976446"
           ry="3.5102689" />
        <g
           id="g7625-0"
           transform="translate(-21.700878,-25.35198)">
          <text
             xml:space="preserve"
             style="font-size:7.05556px;line-height:9.12357px;font-family:'Accanthis ADF Std No3';-inkscape-font-specification:'Accanthis ADF Std No3';letter-spacing:0px;word-spacing:0px;fill:#000000;stroke:none;stroke-width:0.264583px;stroke-linecap:butt;stroke-linejoin:miter;stroke-opacity:1"
             x="43.825432"
             y="59.445118"
             id="text4644-9"><tspan
               sodipodi:role="line"
               id="tspan4642-3"
               style="font-size:7.05556px;fill:#000000;stroke:none;stroke-width:0.264583px"
               x="43.825432"
               y="59.445118">+</tspan></text>
          <text
             xml:space="preserve"
             style="font-size:7.05556px;line-height:9.12357px;font-family:'Accanthis ADF Std No3';-inkscape-font-specification:'Accanthis ADF Std No3';letter-spacing:0px;word-spacing:0px;fill:#000000;stroke:none;stroke-width:0.264583px;stroke-linecap:butt;stroke-linejoin:miter;stroke-opacity:1"
             x="50.596436"
             y="59.441589"
             id="text4644-3-6"><tspan
               sodipodi:role="line"
               id="tspan4642-6-0"
               style="font-size:7.05556px;fill:#000000;stroke:none;stroke-width:0.264583px"
               x="50.596436"
               y="59.441589">-</tspan></text>
        </g>
      </g>
      <g
         id="g7875-6"
         transform="rotate(-33.644083,32.082969,14.040912)">
        <ellipse
           style="fill:none;stroke:#000000;stroke-width:0.4;stroke-miterlimit:4;stroke-dasharray:none;stroke-opacity:0.995475"
           id="path3666-2"
           cx="26.959974"
           cy="32.540913"
           rx="5.7976446"
           ry="3.5102689" />
        <g
           id="g7625-6"
           transform="translate(-21.700878,-25.35198)">
          <text
             xml:space="preserve"
             style="font-size:7.05556px;line-height:9.12357px;font-family:'Accanthis ADF Std No3';-inkscape-font-specification:'Accanthis ADF Std No3';letter-spacing:0px;word-spacing:0px;fill:#000000;stroke:none;stroke-width:0.264583px;stroke-linecap:butt;stroke-linejoin:miter;stroke-opacity:1"
             x="43.825432"
             y="59.445118"
             id="text4644-1"><tspan
               sodipodi:role="line"
               id="tspan4642-8"
               style="font-size:7.05556px;fill:#000000;stroke:none;stroke-width:0.264583px"
               x="43.825432"
               y="59.445118">+</tspan></text>
          <text
             xml:space="preserve"
             style="font-size:7.05556px;line-height:9.12357px;font-family:'Accanthis ADF Std No3';-inkscape-font-specification:'Accanthis ADF Std No3';letter-spacing:0px;word-spacing:0px;fill:#000000;stroke:none;stroke-width:0.264583px;stroke-linecap:butt;stroke-linejoin:miter;stroke-opacity:1"
             x="50.596436"
             y="59.441589"
             id="text4644-3-7"><tspan
               sodipodi:role="line"
               id="tspan4642-6-9"
               style="font-size:7.05556px;fill:#000000;stroke:none;stroke-width:0.264583px"
               x="50.596436"
               y="59.441589">-</tspan></text>
        </g>
      </g>
      <g
         id="g7875-20"
         transform="rotate(30.412848,17.850871,33.586455)">
        <ellipse
           style="fill:none;stroke:#000000;stroke-width:0.4;stroke-miterlimit:4;stroke-dasharray:none;stroke-opacity:0.995475"
           id="path3666-23"
           cx="26.959974"
           cy="32.540913"
           rx="5.7976446"
           ry="3.5102689" />
        <g
           id="g7625-7"
           transform="translate(-21.700878,-25.35198)">
          <text
             xml:space="preserve"
             style="font-size:7.05556px;line-height:9.12357px;font-family:'Accanthis ADF Std No3';-inkscape-font-specification:'Accanthis ADF Std No3';letter-spacing:0px;word-spacing:0px;fill:#000000;stroke:none;stroke-width:0.264583px;stroke-linecap:butt;stroke-linejoin:miter;stroke-opacity:1"
             x="43.825432"
             y="59.445118"
             id="text4644-59"><tspan
               sodipodi:role="line"
               id="tspan4642-2"
               style="font-size:7.05556px;fill:#000000;stroke:none;stroke-width:0.264583px"
               x="43.825432"
               y="59.445118">+</tspan></text>
          <text
             xml:space="preserve"
             style="font-size:7.05556px;line-height:9.12357px;font-family:'Accanthis ADF Std No3';-inkscape-font-specification:'Accanthis ADF Std No3';letter-spacing:0px;word-spacing:0px;fill:#000000;stroke:none;stroke-width:0.264583px;stroke-linecap:butt;stroke-linejoin:miter;stroke-opacity:1"
             x="50.596436"
             y="59.441589"
             id="text4644-3-2"><tspan
               sodipodi:role="line"
               id="tspan4642-6-8"
               style="font-size:7.05556px;fill:#000000;stroke:none;stroke-width:0.264583px"
               x="50.596436"
               y="59.441589">-</tspan></text>
        </g>
      </g>
      <g
         id="g7875-9"
         transform="translate(-12.684588,9.127782)">
        <ellipse
           style="fill:none;stroke:#000000;stroke-width:0.4;stroke-miterlimit:4;stroke-dasharray:none;stroke-opacity:0.995475"
           id="path3666-73"
           cx="26.959974"
           cy="32.540913"
           rx="5.7976446"
           ry="3.5102689" />
        <g
           id="g7625-61"
           transform="translate(-21.700878,-25.35198)">
          <text
             xml:space="preserve"
             style="font-size:7.05556px;line-height:9.12357px;font-family:'Accanthis ADF Std No3';-inkscape-font-specification:'Accanthis ADF Std No3';letter-spacing:0px;word-spacing:0px;fill:#000000;stroke:none;stroke-width:0.264583px;stroke-linecap:butt;stroke-linejoin:miter;stroke-opacity:1"
             x="43.825432"
             y="59.445118"
             id="text4644-2"><tspan
               sodipodi:role="line"
               id="tspan4642-9"
               style="font-size:7.05556px;fill:#000000;stroke:none;stroke-width:0.264583px"
               x="43.825432"
               y="59.445118">+</tspan></text>
          <text
             xml:space="preserve"
             style="font-size:7.05556px;line-height:9.12357px;font-family:'Accanthis ADF Std No3';-inkscape-font-specification:'Accanthis ADF Std No3';letter-spacing:0px;word-spacing:0px;fill:#000000;stroke:none;stroke-width:0.264583px;stroke-linecap:butt;stroke-linejoin:miter;stroke-opacity:1"
             x="50.596436"
             y="59.441589"
             id="text4644-3-3"><tspan
               sodipodi:role="line"
               id="tspan4642-6-19"
               style="font-size:7.05556px;fill:#000000;stroke:none;stroke-width:0.264583px"
               x="50.596436"
               y="59.441589">-</tspan></text>
        </g>
      </g>
      <g
         id="g7875-9-7"
         transform="rotate(-146.70659,12.898189,39.545683)">
        <ellipse
           style="fill:none;stroke:#000000;stroke-width:0.4;stroke-miterlimit:4;stroke-dasharray:none;stroke-opacity:0.995475"
           id="path3666-73-7"
           cx="26.959974"
           cy="32.540913"
           rx="5.7976446"
           ry="3.5102689" />
        <g
           id="g7625-61-1"
           transform="translate(-21.700878,-25.35198)">
          <text
             xml:space="preserve"
             style="font-size:7.05556px;line-height:9.12357px;font-family:'Accanthis ADF Std No3';-inkscape-font-specification:'Accanthis ADF Std No3';letter-spacing:0px;word-spacing:0px;fill:#000000;stroke:none;stroke-width:0.264583px;stroke-linecap:butt;stroke-linejoin:miter;stroke-opacity:1"
             x="43.825432"
             y="59.445118"
             id="text4644-2-1"><tspan
               sodipodi:role="line"
               id="tspan4642-9-5"
               style="font-size:7.05556px;fill:#000000;stroke:none;stroke-width:0.264583px"
               x="43.825432"
               y="59.445118">+</tspan></text>
          <text
             xml:space="preserve"
             style="font-size:7.05556px;line-height:9.12357px;font-family:'Accanthis ADF Std No3';-inkscape-font-specification:'Accanthis ADF Std No3';letter-spacing:0px;word-spacing:0px;fill:#000000;stroke:none;stroke-width:0.264583px;stroke-linecap:butt;stroke-linejoin:miter;stroke-opacity:1"
             x="50.596436"
             y="59.441589"
             id="text4644-3-3-9"><tspan
               sodipodi:role="line"
               id="tspan4642-6-19-7"
               style="font-size:7.05556px;fill:#000000;stroke:none;stroke-width:0.264583px"
               x="50.596436"
               y="59.441589">-</tspan></text>
        </g>
      </g>
      <g
         id="g7875-4"
         transform="rotate(66.516755,16.413847,14.690215)">
        <ellipse
           style="fill:none;stroke:#000000;stroke-width:0.4;stroke-miterlimit:4;stroke-dasharray:none;stroke-opacity:0.995475"
           id="path3666-78"
           cx="26.959974"
           cy="32.540913"
           rx="5.7976446"
           ry="3.5102689" />
        <g
           id="g7625-4"
           transform="translate(-21.700878,-25.35198)">
          <text
             xml:space="preserve"
             style="font-size:7.05556px;line-height:9.12357px;font-family:'Accanthis ADF Std No3';-inkscape-font-specification:'Accanthis ADF Std No3';letter-spacing:0px;word-spacing:0px;fill:#000000;stroke:none;stroke-width:0.264583px;stroke-linecap:butt;stroke-linejoin:miter;stroke-opacity:1"
             x="43.825432"
             y="59.445118"
             id="text4644-50"><tspan
               sodipodi:role="line"
               id="tspan4642-36"
               style="font-size:7.05556px;fill:#000000;stroke:none;stroke-width:0.264583px"
               x="43.825432"
               y="59.445118">+</tspan></text>
          <text
             xml:space="preserve"
             style="font-size:7.05556px;line-height:9.12357px;font-family:'Accanthis ADF Std No3';-inkscape-font-specification:'Accanthis ADF Std No3';letter-spacing:0px;word-spacing:0px;fill:#000000;stroke:none;stroke-width:0.264583px;stroke-linecap:butt;stroke-linejoin:miter;stroke-opacity:1"
             x="50.596436"
             y="59.441589"
             id="text4644-3-1"><tspan
               sodipodi:role="line"
               id="tspan4642-6-06"
               style="font-size:7.05556px;fill:#000000;stroke:none;stroke-width:0.264583px"
               x="50.596436"
               y="59.441589">-</tspan></text>
        </g>
      </g>
      <g
         id="g7875-3"
         transform="rotate(-114.892,7.5246758,33.632616)">
        <ellipse
           style="fill:none;stroke:#000000;stroke-width:0.4;stroke-miterlimit:4;stroke-dasharray:none;stroke-opacity:0.995475"
           id="path3666-20"
           cx="26.959974"
           cy="32.540913"
           rx="5.7976446"
           ry="3.5102689" />
        <g
           id="g7625-615"
           transform="translate(-21.700878,-25.35198)">
          <text
             xml:space="preserve"
             style="font-size:7.05556px;line-height:9.12357px;font-family:'Accanthis ADF Std No3';-inkscape-font-specification:'Accanthis ADF Std No3';letter-spacing:0px;word-spacing:0px;fill:#000000;stroke:none;stroke-width:0.264583px;stroke-linecap:butt;stroke-linejoin:miter;stroke-opacity:1"
             x="43.825432"
             y="59.445118"
             id="text4644-54"><tspan
               sodipodi:role="line"
               id="tspan4642-7"
               style="font-size:7.05556px;fill:#000000;stroke:none;stroke-width:0.264583px"
               x="43.825432"
               y="59.445118">+</tspan></text>
          <text
             xml:space="preserve"
             style="font-size:7.05556px;line-height:9.12357px;font-family:'Accanthis ADF Std No3';-inkscape-font-specification:'Accanthis ADF Std No3';letter-spacing:0px;word-spacing:0px;fill:#000000;stroke:none;stroke-width:0.264583px;stroke-linecap:butt;stroke-linejoin:miter;stroke-opacity:1"
             x="50.596436"
             y="59.441589"
             id="text4644-3-65"><tspan
               sodipodi:role="line"
               id="tspan4642-6-6"
               style="font-size:7.05556px;fill:#000000;stroke:none;stroke-width:0.264583px"
               x="50.596436"
               y="59.441589">-</tspan></text>
        </g>
      </g>
      <g
         id="g7875-3-5"
         transform="rotate(32.026921,22.236895,-32.9466)">
        <ellipse
           style="fill:none;stroke:#000000;stroke-width:0.4;stroke-miterlimit:4;stroke-dasharray:none;stroke-opacity:0.995475"
           id="path3666-20-9"
           cx="26.959974"
           cy="32.540913"
           rx="5.7976446"
           ry="3.5102689" />
        <g
           id="g7625-615-4"
           transform="translate(-21.700878,-25.35198)">
          <text
             xml:space="preserve"
             style="font-size:7.05556px;line-height:9.12357px;font-family:'Accanthis ADF Std No3';-inkscape-font-specification:'Accanthis ADF Std No3';letter-spacing:0px;word-spacing:0px;fill:#000000;stroke:none;stroke-width:0.264583px;stroke-linecap:butt;stroke-linejoin:miter;stroke-opacity:1"
             x="43.825432"
             y="59.445118"
             id="text4644-54-9"><tspan
               sodipodi:role="line"
               id="tspan4642-7-0"
               style="font-size:7.05556px;fill:#000000;stroke:none;stroke-width:0.264583px"
               x="43.825432"
               y="59.445118">+</tspan></text>
          <text
             xml:space="preserve"
             style="font-size:7.05556px;line-height:9.12357px;font-family:'Accanthis ADF Std No3';-inkscape-font-specification:'Accanthis ADF Std No3';letter-spacing:0px;word-spacing:0px;fill:#000000;stroke:none;stroke-width:0.264583px;stroke-linecap:butt;stroke-linejoin:miter;stroke-opacity:1"
             x="50.596436"
             y="59.441589"
             id="text4644-3-65-9"><tspan
               sodipodi:role="line"
               id="tspan4642-6-6-1"
               style="font-size:7.05556px;fill:#000000;stroke:none;stroke-width:0.264583px"
               x="50.596436"
               y="59.441589">-</tspan></text>
        </g>
      </g>
      <g
         id="g7875-93"
         transform="rotate(118.03598,22.586064,21.297906)">
        <ellipse
           style="fill:none;stroke:#000000;stroke-width:0.4;stroke-miterlimit:4;stroke-dasharray:none;stroke-opacity:0.995475"
           id="path3666-74"
           cx="26.959974"
           cy="32.540913"
           rx="5.7976446"
           ry="3.5102689" />
        <g
           id="g7625-5"
           transform="translate(-21.700878,-25.35198)">
          <text
             xml:space="preserve"
             style="font-size:7.05556px;line-height:9.12357px;font-family:'Accanthis ADF Std No3';-inkscape-font-specification:'Accanthis ADF Std No3';letter-spacing:0px;word-spacing:0px;fill:#000000;stroke:none;stroke-width:0.264583px;stroke-linecap:butt;stroke-linejoin:miter;stroke-opacity:1"
             x="43.825432"
             y="59.445118"
             id="text4644-25"><tspan
               sodipodi:role="line"
               id="tspan4642-4"
               style="font-size:7.05556px;fill:#000000;stroke:none;stroke-width:0.264583px"
               x="43.825432"
               y="59.445118">+</tspan></text>
          <text
             xml:space="preserve"
             style="font-size:7.05556px;line-height:9.12357px;font-family:'Accanthis ADF Std No3';-inkscape-font-specification:'Accanthis ADF Std No3';letter-spacing:0px;word-spacing:0px;fill:#000000;stroke:none;stroke-width:0.264583px;stroke-linecap:butt;stroke-linejoin:miter;stroke-opacity:1"
             x="50.596436"
             y="59.441589"
             id="text4644-3-74"><tspan
               sodipodi:role="line"
               id="tspan4642-6-4"
               style="font-size:7.05556px;fill:#000000;stroke:none;stroke-width:0.264583px"
               x="50.596436"
               y="59.441589">-</tspan></text>
        </g>
      </g>
      <g
         id="g8306"
         transform="rotate(26.824111,3.8478029,15.101119)">
        <g
           id="g7875-30"
           transform="translate(-23.101762,-24.567273)">
          <ellipse
             style="fill:none;stroke:#000000;stroke-width:0.4;stroke-miterlimit:4;stroke-dasharray:none;stroke-opacity:0.995475"
             id="path3666-786"
             cx="26.959974"
             cy="32.540913"
             rx="5.7976446"
             ry="3.5102689" />
          <g
             id="g7625-8"
             transform="translate(-21.700878,-25.35198)">
            <text
               xml:space="preserve"
               style="font-size:7.05556px;line-height:9.12357px;font-family:'Accanthis ADF Std No3';-inkscape-font-specification:'Accanthis ADF Std No3';letter-spacing:0px;word-spacing:0px;fill:#000000;stroke:none;stroke-width:0.264583px;stroke-linecap:butt;stroke-linejoin:miter;stroke-opacity:1"
               x="43.825432"
               y="59.445118"
               id="text4644-8"><tspan
                 sodipodi:role="line"
                 id="tspan4642-43"
                 style="font-size:7.05556px;fill:#000000;stroke:none;stroke-width:0.264583px"
                 x="43.825432"
                 y="59.445118">+</tspan></text>
            <text
               xml:space="preserve"
               style="font-size:7.05556px;line-height:9.12357px;font-family:'Accanthis ADF Std No3';-inkscape-font-specification:'Accanthis ADF Std No3';letter-spacing:0px;word-spacing:0px;fill:#000000;stroke:none;stroke-width:0.264583px;stroke-linecap:butt;stroke-linejoin:miter;stroke-opacity:1"
               x="50.596436"
               y="59.441589"
               id="text4644-3-14"><tspan
                 sodipodi:role="line"
                 id="tspan4642-6-92"
                 style="font-size:7.05556px;fill:#000000;stroke:none;stroke-width:0.264583px"
                 x="50.596436"
                 y="59.441589">-</tspan></text>
          </g>
        </g>
      </g>
      <g
         id="g7875-0"
         transform="rotate(82.101263,32.380712,26.535894)">
        <ellipse
           style="fill:none;stroke:#000000;stroke-width:0.4;stroke-miterlimit:4;stroke-dasharray:none;stroke-opacity:0.995475"
           id="path3666-6"
           cx="26.959974"
           cy="32.540913"
           rx="5.7976446"
           ry="3.5102689" />
        <g
           id="g7625-89"
           transform="translate(-21.700878,-25.35198)">
          <text
             xml:space="preserve"
             style="font-size:7.05556px;line-height:9.12357px;font-family:'Accanthis ADF Std No3';-inkscape-font-specification:'Accanthis ADF Std No3';letter-spacing:0px;word-spacing:0px;fill:#000000;stroke:none;stroke-width:0.264583px;stroke-linecap:butt;stroke-linejoin:miter;stroke-opacity:1"
             x="43.825432"
             y="59.445118"
             id="text4644-26"><tspan
               sodipodi:role="line"
               id="tspan4642-64"
               style="font-size:7.05556px;fill:#000000;stroke:none;stroke-width:0.264583px"
               x="43.825432"
               y="59.445118">+</tspan></text>
          <text
             xml:space="preserve"
             style="font-size:7.05556px;line-height:9.12357px;font-family:'Accanthis ADF Std No3';-inkscape-font-specification:'Accanthis ADF Std No3';letter-spacing:0px;word-spacing:0px;fill:#000000;stroke:none;stroke-width:0.264583px;stroke-linecap:butt;stroke-linejoin:miter;stroke-opacity:1"
             x="50.596436"
             y="59.441589"
             id="text4644-3-95"><tspan
               sodipodi:role="line"
               id="tspan4642-6-04"
               style="font-size:7.05556px;fill:#000000;stroke:none;stroke-width:0.264583px"
               x="50.596436"
               y="59.441589">-</tspan></text>
        </g>
      </g>
      <g
         id="g7875-8"
         transform="rotate(126.60373,22.517764,27.851505)">
        <ellipse
           style="fill:none;stroke:#000000;stroke-width:0.4;stroke-miterlimit:4;stroke-dasharray:none;stroke-opacity:0.995475"
           id="path3666-71"
           cx="26.959974"
           cy="32.540913"
           rx="5.7976446"
           ry="3.5102689" />
        <g
           id="g7625-72"
           transform="translate(-21.700878,-25.35198)">
          <text
             xml:space="preserve"
             style="font-size:7.05556px;line-height:9.12357px;font-family:'Accanthis ADF Std No3';-inkscape-font-specification:'Accanthis ADF Std No3';letter-spacing:0px;word-spacing:0px;fill:#000000;stroke:none;stroke-width:0.264583px;stroke-linecap:butt;stroke-linejoin:miter;stroke-opacity:1"
             x="43.825432"
             y="59.445118"
             id="text4644-7"><tspan
               sodipodi:role="line"
               id="tspan4642-22"
               style="font-size:7.05556px;fill:#000000;stroke:none;stroke-width:0.264583px"
               x="43.825432"
               y="59.445118">+</tspan></text>
          <text
             xml:space="preserve"
             style="font-size:7.05556px;line-height:9.12357px;font-family:'Accanthis ADF Std No3';-inkscape-font-specification:'Accanthis ADF Std No3';letter-spacing:0px;word-spacing:0px;fill:#000000;stroke:none;stroke-width:0.264583px;stroke-linecap:butt;stroke-linejoin:miter;stroke-opacity:1"
             x="50.596436"
             y="59.441589"
             id="text4644-3-61"><tspan
               sodipodi:role="line"
               id="tspan4642-6-061"
               style="font-size:7.05556px;fill:#000000;stroke:none;stroke-width:0.264583px"
               x="50.596436"
               y="59.441589">-</tspan></text>
        </g>
      </g>
    </g>
    <g
       id="g10427"
       transform="translate(-20.779177,53.424029)">
      <ellipse
         style="fill:#b7bec8;stroke:#b7bec8;stroke-width:0.193285;stroke-opacity:0.995475"
         id="path3438-5"
         cx="125.55553"
         cy="24.764404"
         rx="32.448734"
         ry="24.248255" />
      <g
         id="g7875-48"
         transform="rotate(-11.857285,-44.110608,-474.72206)">
        <ellipse
           style="fill:none;stroke:#000000;stroke-width:0.4;stroke-miterlimit:4;stroke-dasharray:none;stroke-opacity:0.995475"
           id="path3666-1"
           cx="26.959974"
           cy="32.540913"
           rx="5.7976446"
           ry="3.5102689" />
        <g
           id="g7625-2"
           transform="translate(-21.700878,-25.35198)">
          <text
             xml:space="preserve"
             style="font-size:7.05556px;line-height:9.12357px;font-family:'Accanthis ADF Std No3';-inkscape-font-specification:'Accanthis ADF Std No3';letter-spacing:0px;word-spacing:0px;fill:#000000;stroke:none;stroke-width:0.264583px;stroke-linecap:butt;stroke-linejoin:miter;stroke-opacity:1"
             x="43.825432"
             y="59.445118"
             id="text4644-89"><tspan
               sodipodi:role="line"
               id="tspan4642-368"
               style="font-size:7.05556px;fill:#000000;stroke:none;stroke-width:0.264583px"
               x="43.825432"
               y="59.445118">+</tspan></text>
          <text
             xml:space="preserve"
             style="font-size:7.05556px;line-height:9.12357px;font-family:'Accanthis ADF Std No3';-inkscape-font-specification:'Accanthis ADF Std No3';letter-spacing:0px;word-spacing:0px;fill:#000000;stroke:none;stroke-width:0.264583px;stroke-linecap:butt;stroke-linejoin:miter;stroke-opacity:1"
             x="50.596436"
             y="59.441589"
             id="text4644-3-0"><tspan
               sodipodi:role="line"
               id="tspan4642-6-2"
               style="font-size:7.05556px;fill:#000000;stroke:none;stroke-width:0.264583px"
               x="50.596436"
               y="59.441589">-</tspan></text>
        </g>
      </g>
      <g
         id="g7875-7-1"
         transform="rotate(14.419046,165.00663,478.60223)">
        <ellipse
           style="fill:none;stroke:#000000;stroke-width:0.4;stroke-miterlimit:4;stroke-dasharray:none;stroke-opacity:0.995475"
           id="path3666-5-0"
           cx="26.959974"
           cy="32.540913"
           rx="5.7976446"
           ry="3.5102689" />
        <g
           id="g7625-3-5"
           transform="translate(-21.700878,-25.35198)">
          <text
             xml:space="preserve"
             style="font-size:7.05556px;line-height:9.12357px;font-family:'Accanthis ADF Std No3';-inkscape-font-specification:'Accanthis ADF Std No3';letter-spacing:0px;word-spacing:0px;fill:#000000;stroke:none;stroke-width:0.264583px;stroke-linecap:butt;stroke-linejoin:miter;stroke-opacity:1"
             x="43.825432"
             y="59.445118"
             id="text4644-5-1"><tspan
               sodipodi:role="line"
               id="tspan4642-62-1"
               style="font-size:7.05556px;fill:#000000;stroke:none;stroke-width:0.264583px"
               x="43.825432"
               y="59.445118">+</tspan></text>
          <text
             xml:space="preserve"
             style="font-size:7.05556px;line-height:9.12357px;font-family:'Accanthis ADF Std No3';-inkscape-font-specification:'Accanthis ADF Std No3';letter-spacing:0px;word-spacing:0px;fill:#000000;stroke:none;stroke-width:0.264583px;stroke-linecap:butt;stroke-linejoin:miter;stroke-opacity:1"
             x="50.596436"
             y="59.441589"
             id="text4644-3-9-0"><tspan
               sodipodi:role="line"
               id="tspan4642-6-1-85"
               style="font-size:7.05556px;fill:#000000;stroke:none;stroke-width:0.264583px"
               x="50.596436"
               y="59.441589">-</tspan></text>
        </g>
      </g>
      <g
         id="g7875-2-0"
         transform="rotate(-6.59974,-1.380645,-1004.0602)">
        <ellipse
           style="fill:none;stroke:#000000;stroke-width:0.4;stroke-miterlimit:4;stroke-dasharray:none;stroke-opacity:0.995475"
           id="path3666-7-6"
           cx="26.959974"
           cy="32.540913"
           rx="5.7976446"
           ry="3.5102689" />
        <g
           id="g7625-0-4"
           transform="translate(-21.700878,-25.35198)">
          <text
             xml:space="preserve"
             style="font-size:7.05556px;line-height:9.12357px;font-family:'Accanthis ADF Std No3';-inkscape-font-specification:'Accanthis ADF Std No3';letter-spacing:0px;word-spacing:0px;fill:#000000;stroke:none;stroke-width:0.264583px;stroke-linecap:butt;stroke-linejoin:miter;stroke-opacity:1"
             x="43.825432"
             y="59.445118"
             id="text4644-9-62"><tspan
               sodipodi:role="line"
               id="tspan4642-3-5"
               style="font-size:7.05556px;fill:#000000;stroke:none;stroke-width:0.264583px"
               x="43.825432"
               y="59.445118">+</tspan></text>
          <text
             xml:space="preserve"
             style="font-size:7.05556px;line-height:9.12357px;font-family:'Accanthis ADF Std No3';-inkscape-font-specification:'Accanthis ADF Std No3';letter-spacing:0px;word-spacing:0px;fill:#000000;stroke:none;stroke-width:0.264583px;stroke-linecap:butt;stroke-linejoin:miter;stroke-opacity:1"
             x="50.596436"
             y="59.441589"
             id="text4644-3-6-86"><tspan
               sodipodi:role="line"
               id="tspan4642-6-0-2"
               style="font-size:7.05556px;fill:#000000;stroke:none;stroke-width:0.264583px"
               x="50.596436"
               y="59.441589">-</tspan></text>
        </g>
      </g>
      <g
         id="g7875-6-8"
         transform="rotate(6.9332966,86.224033,1015.4177)">
        <ellipse
           style="fill:none;stroke:#000000;stroke-width:0.4;stroke-miterlimit:4;stroke-dasharray:none;stroke-opacity:0.995475"
           id="path3666-2-4"
           cx="26.959974"
           cy="32.540913"
           rx="5.7976446"
           ry="3.5102689" />
        <g
           id="g7625-6-7"
           transform="translate(-21.700878,-25.35198)">
          <text
             xml:space="preserve"
             style="font-size:7.05556px;line-height:9.12357px;font-family:'Accanthis ADF Std No3';-inkscape-font-specification:'Accanthis ADF Std No3';letter-spacing:0px;word-spacing:0px;fill:#000000;stroke:none;stroke-width:0.264583px;stroke-linecap:butt;stroke-linejoin:miter;stroke-opacity:1"
             x="43.825432"
             y="59.445118"
             id="text4644-1-2"><tspan
               sodipodi:role="line"
               id="tspan4642-8-4"
               style="font-size:7.05556px;fill:#000000;stroke:none;stroke-width:0.264583px"
               x="43.825432"
               y="59.445118">+</tspan></text>
          <text
             xml:space="preserve"
             style="font-size:7.05556px;line-height:9.12357px;font-family:'Accanthis ADF Std No3';-inkscape-font-specification:'Accanthis ADF Std No3';letter-spacing:0px;word-spacing:0px;fill:#000000;stroke:none;stroke-width:0.264583px;stroke-linecap:butt;stroke-linejoin:miter;stroke-opacity:1"
             x="50.596436"
             y="59.441589"
             id="text4644-3-7-0"><tspan
               sodipodi:role="line"
               id="tspan4642-6-9-6"
               style="font-size:7.05556px;fill:#000000;stroke:none;stroke-width:0.264583px"
               x="50.596436"
               y="59.441589">-</tspan></text>
        </g>
      </g>
      <g
         id="g7875-20-2"
         transform="rotate(8.6836135,37.042226,755.92903)">
        <ellipse
           style="fill:none;stroke:#000000;stroke-width:0.4;stroke-miterlimit:4;stroke-dasharray:none;stroke-opacity:0.995475"
           id="path3666-23-9"
           cx="26.959974"
           cy="32.540913"
           rx="5.7976446"
           ry="3.5102689" />
        <g
           id="g7625-7-9"
           transform="translate(-21.700878,-25.35198)">
          <text
             xml:space="preserve"
             style="font-size:7.05556px;line-height:9.12357px;font-family:'Accanthis ADF Std No3';-inkscape-font-specification:'Accanthis ADF Std No3';letter-spacing:0px;word-spacing:0px;fill:#000000;stroke:none;stroke-width:0.264583px;stroke-linecap:butt;stroke-linejoin:miter;stroke-opacity:1"
             x="43.825432"
             y="59.445118"
             id="text4644-59-0"><tspan
               sodipodi:role="line"
               id="tspan4642-2-8"
               style="font-size:7.05556px;fill:#000000;stroke:none;stroke-width:0.264583px"
               x="43.825432"
               y="59.445118">+</tspan></text>
          <text
             xml:space="preserve"
             style="font-size:7.05556px;line-height:9.12357px;font-family:'Accanthis ADF Std No3';-inkscape-font-specification:'Accanthis ADF Std No3';letter-spacing:0px;word-spacing:0px;fill:#000000;stroke:none;stroke-width:0.264583px;stroke-linecap:butt;stroke-linejoin:miter;stroke-opacity:1"
             x="50.596436"
             y="59.441589"
             id="text4644-3-2-1"><tspan
               sodipodi:role="line"
               id="tspan4642-6-8-3"
               style="font-size:7.05556px;fill:#000000;stroke:none;stroke-width:0.264583px"
               x="50.596436"
               y="59.441589">-</tspan></text>
        </g>
      </g>
      <g
         id="g7875-9-1"
         transform="translate(95.287802,9.4217551)">
        <ellipse
           style="fill:none;stroke:#000000;stroke-width:0.4;stroke-miterlimit:4;stroke-dasharray:none;stroke-opacity:0.995475"
           id="path3666-73-1"
           cx="26.959974"
           cy="32.540913"
           rx="5.7976446"
           ry="3.5102689" />
        <g
           id="g7625-61-0"
           transform="translate(-21.700878,-25.35198)">
          <text
             xml:space="preserve"
             style="font-size:7.05556px;line-height:9.12357px;font-family:'Accanthis ADF Std No3';-inkscape-font-specification:'Accanthis ADF Std No3';letter-spacing:0px;word-spacing:0px;fill:#000000;stroke:none;stroke-width:0.264583px;stroke-linecap:butt;stroke-linejoin:miter;stroke-opacity:1"
             x="43.825432"
             y="59.445118"
             id="text4644-2-3"><tspan
               sodipodi:role="line"
               id="tspan4642-9-4"
               style="font-size:7.05556px;fill:#000000;stroke:none;stroke-width:0.264583px"
               x="43.825432"
               y="59.445118">+</tspan></text>
          <text
             xml:space="preserve"
             style="font-size:7.05556px;line-height:9.12357px;font-family:'Accanthis ADF Std No3';-inkscape-font-specification:'Accanthis ADF Std No3';letter-spacing:0px;word-spacing:0px;fill:#000000;stroke:none;stroke-width:0.264583px;stroke-linecap:butt;stroke-linejoin:miter;stroke-opacity:1"
             x="50.596436"
             y="59.441589"
             id="text4644-3-3-0"><tspan
               sodipodi:role="line"
               id="tspan4642-6-19-3"
               style="font-size:7.05556px;fill:#000000;stroke:none;stroke-width:0.264583px"
               x="50.596436"
               y="59.441589">-</tspan></text>
        </g>
      </g>
      <g
         id="g7875-9-7-91"
         transform="rotate(-8.8119732,100.57209,-485.4009)">
        <ellipse
           style="fill:none;stroke:#000000;stroke-width:0.4;stroke-miterlimit:4;stroke-dasharray:none;stroke-opacity:0.995475"
           id="path3666-73-7-9"
           cx="26.959974"
           cy="32.540913"
           rx="5.7976446"
           ry="3.5102689" />
        <g
           id="g7625-61-1-6"
           transform="translate(-21.700878,-25.35198)">
          <text
             xml:space="preserve"
             style="font-size:7.05556px;line-height:9.12357px;font-family:'Accanthis ADF Std No3';-inkscape-font-specification:'Accanthis ADF Std No3';letter-spacing:0px;word-spacing:0px;fill:#000000;stroke:none;stroke-width:0.264583px;stroke-linecap:butt;stroke-linejoin:miter;stroke-opacity:1"
             x="43.825432"
             y="59.445118"
             id="text4644-2-1-9"><tspan
               sodipodi:role="line"
               id="tspan4642-9-5-3"
               style="font-size:7.05556px;fill:#000000;stroke:none;stroke-width:0.264583px"
               x="43.825432"
               y="59.445118">+</tspan></text>
          <text
             xml:space="preserve"
             style="font-size:7.05556px;line-height:9.12357px;font-family:'Accanthis ADF Std No3';-inkscape-font-specification:'Accanthis ADF Std No3';letter-spacing:0px;word-spacing:0px;fill:#000000;stroke:none;stroke-width:0.264583px;stroke-linecap:butt;stroke-linejoin:miter;stroke-opacity:1"
             x="50.596436"
             y="59.441589"
             id="text4644-3-3-9-3"><tspan
               sodipodi:role="line"
               id="tspan4642-6-19-7-8"
               style="font-size:7.05556px;fill:#000000;stroke:none;stroke-width:0.264583px"
               x="50.596436"
               y="59.441589">-</tspan></text>
        </g>
      </g>
      <g
         id="g7875-4-0"
         transform="rotate(17.37357,72.942654,322.56128)">
        <ellipse
           style="fill:none;stroke:#000000;stroke-width:0.4;stroke-miterlimit:4;stroke-dasharray:none;stroke-opacity:0.995475"
           id="path3666-78-5"
           cx="26.959974"
           cy="32.540913"
           rx="5.7976446"
           ry="3.5102689" />
        <g
           id="g7625-4-6"
           transform="translate(-21.700878,-25.35198)">
          <text
             xml:space="preserve"
             style="font-size:7.05556px;line-height:9.12357px;font-family:'Accanthis ADF Std No3';-inkscape-font-specification:'Accanthis ADF Std No3';letter-spacing:0px;word-spacing:0px;fill:#000000;stroke:none;stroke-width:0.264583px;stroke-linecap:butt;stroke-linejoin:miter;stroke-opacity:1"
             x="43.825432"
             y="59.445118"
             id="text4644-50-6"><tspan
               sodipodi:role="line"
               id="tspan4642-36-4"
               style="font-size:7.05556px;fill:#000000;stroke:none;stroke-width:0.264583px"
               x="43.825432"
               y="59.445118">+</tspan></text>
          <text
             xml:space="preserve"
             style="font-size:7.05556px;line-height:9.12357px;font-family:'Accanthis ADF Std No3';-inkscape-font-specification:'Accanthis ADF Std No3';letter-spacing:0px;word-spacing:0px;fill:#000000;stroke:none;stroke-width:0.264583px;stroke-linecap:butt;stroke-linejoin:miter;stroke-opacity:1"
             x="50.596436"
             y="59.441589"
             id="text4644-3-1-0"><tspan
               sodipodi:role="line"
               id="tspan4642-6-06-0"
               style="font-size:7.05556px;fill:#000000;stroke:none;stroke-width:0.264583px"
               x="50.596436"
               y="59.441589">-</tspan></text>
        </g>
      </g>
      <g
         id="g7875-3-4"
         transform="rotate(-6.3486025,-75.666482,-690.89487)">
        <ellipse
           style="fill:none;stroke:#000000;stroke-width:0.4;stroke-miterlimit:4;stroke-dasharray:none;stroke-opacity:0.995475"
           id="path3666-20-6"
           cx="26.959974"
           cy="32.540913"
           rx="5.7976446"
           ry="3.5102689" />
        <g
           id="g7625-615-2"
           transform="translate(-21.700878,-25.35198)">
          <text
             xml:space="preserve"
             style="font-size:7.05556px;line-height:9.12357px;font-family:'Accanthis ADF Std No3';-inkscape-font-specification:'Accanthis ADF Std No3';letter-spacing:0px;word-spacing:0px;fill:#000000;stroke:none;stroke-width:0.264583px;stroke-linecap:butt;stroke-linejoin:miter;stroke-opacity:1"
             x="43.825432"
             y="59.445118"
             id="text4644-54-6"><tspan
               sodipodi:role="line"
               id="tspan4642-7-7"
               style="font-size:7.05556px;fill:#000000;stroke:none;stroke-width:0.264583px"
               x="43.825432"
               y="59.445118">+</tspan></text>
          <text
             xml:space="preserve"
             style="font-size:7.05556px;line-height:9.12357px;font-family:'Accanthis ADF Std No3';-inkscape-font-specification:'Accanthis ADF Std No3';letter-spacing:0px;word-spacing:0px;fill:#000000;stroke:none;stroke-width:0.264583px;stroke-linecap:butt;stroke-linejoin:miter;stroke-opacity:1"
             x="50.596436"
             y="59.441589"
             id="text4644-3-65-5"><tspan
               sodipodi:role="line"
               id="tspan4642-6-6-6"
               style="font-size:7.05556px;fill:#000000;stroke:none;stroke-width:0.264583px"
               x="50.596436"
               y="59.441589">-</tspan></text>
        </g>
      </g>
      <g
         id="g7875-3-5-9"
         transform="rotate(-17.085518,46.160155,-216.66595)">
        <ellipse
           style="fill:none;stroke:#000000;stroke-width:0.4;stroke-miterlimit:4;stroke-dasharray:none;stroke-opacity:0.995475"
           id="path3666-20-9-8"
           cx="26.959974"
           cy="32.540913"
           rx="5.7976446"
           ry="3.5102689" />
        <g
           id="g7625-615-4-7"
           transform="translate(-21.700878,-25.35198)">
          <text
             xml:space="preserve"
             style="font-size:7.05556px;line-height:9.12357px;font-family:'Accanthis ADF Std No3';-inkscape-font-specification:'Accanthis ADF Std No3';letter-spacing:0px;word-spacing:0px;fill:#000000;stroke:none;stroke-width:0.264583px;stroke-linecap:butt;stroke-linejoin:miter;stroke-opacity:1"
             x="43.825432"
             y="59.445118"
             id="text4644-54-9-2"><tspan
               sodipodi:role="line"
               id="tspan4642-7-0-8"
               style="font-size:7.05556px;fill:#000000;stroke:none;stroke-width:0.264583px"
               x="43.825432"
               y="59.445118">+</tspan></text>
          <text
             xml:space="preserve"
             style="font-size:7.05556px;line-height:9.12357px;font-family:'Accanthis ADF Std No3';-inkscape-font-specification:'Accanthis ADF Std No3';letter-spacing:0px;word-spacing:0px;fill:#000000;stroke:none;stroke-width:0.264583px;stroke-linecap:butt;stroke-linejoin:miter;stroke-opacity:1"
             x="50.596436"
             y="59.441589"
             id="text4644-3-65-9-2"><tspan
               sodipodi:role="line"
               id="tspan4642-6-6-1-9"
               style="font-size:7.05556px;fill:#000000;stroke:none;stroke-width:0.264583px"
               x="50.596436"
               y="59.441589">-</tspan></text>
        </g>
      </g>
      <g
         id="g7875-93-9"
         transform="rotate(-12.871909,17.926735,-379.74557)">
        <ellipse
           style="fill:none;stroke:#000000;stroke-width:0.4;stroke-miterlimit:4;stroke-dasharray:none;stroke-opacity:0.995475"
           id="path3666-74-6"
           cx="26.959974"
           cy="32.540913"
           rx="5.7976446"
           ry="3.5102689" />
        <g
           id="g7625-5-0"
           transform="translate(-21.700878,-25.35198)">
          <text
             xml:space="preserve"
             style="font-size:7.05556px;line-height:9.12357px;font-family:'Accanthis ADF Std No3';-inkscape-font-specification:'Accanthis ADF Std No3';letter-spacing:0px;word-spacing:0px;fill:#000000;stroke:none;stroke-width:0.264583px;stroke-linecap:butt;stroke-linejoin:miter;stroke-opacity:1"
             x="43.825432"
             y="59.445118"
             id="text4644-25-2"><tspan
               sodipodi:role="line"
               id="tspan4642-4-7"
               style="font-size:7.05556px;fill:#000000;stroke:none;stroke-width:0.264583px"
               x="43.825432"
               y="59.445118">+</tspan></text>
          <text
             xml:space="preserve"
             style="font-size:7.05556px;line-height:9.12357px;font-family:'Accanthis ADF Std No3';-inkscape-font-specification:'Accanthis ADF Std No3';letter-spacing:0px;word-spacing:0px;fill:#000000;stroke:none;stroke-width:0.264583px;stroke-linecap:butt;stroke-linejoin:miter;stroke-opacity:1"
             x="50.596436"
             y="59.441589"
             id="text4644-3-74-6"><tspan
               sodipodi:role="line"
               id="tspan4642-6-4-1"
               style="font-size:7.05556px;fill:#000000;stroke:none;stroke-width:0.264583px"
               x="50.596436"
               y="59.441589">-</tspan></text>
        </g>
      </g>
      <g
         id="g8306-3"
         transform="rotate(11.311101,55.036,565.63939)">
        <g
           id="g7875-30-2"
           transform="translate(-23.101762,-24.567273)">
          <ellipse
             style="fill:none;stroke:#000000;stroke-width:0.4;stroke-miterlimit:4;stroke-dasharray:none;stroke-opacity:0.995475"
             id="path3666-786-1"
             cx="26.959974"
             cy="32.540913"
             rx="5.7976446"
             ry="3.5102689" />
          <g
             id="g7625-8-5"
             transform="translate(-21.700878,-25.35198)">
            <text
               xml:space="preserve"
               style="font-size:7.05556px;line-height:9.12357px;font-family:'Accanthis ADF Std No3';-inkscape-font-specification:'Accanthis ADF Std No3';letter-spacing:0px;word-spacing:0px;fill:#000000;stroke:none;stroke-width:0.264583px;stroke-linecap:butt;stroke-linejoin:miter;stroke-opacity:1"
               x="43.825432"
               y="59.445118"
               id="text4644-8-9"><tspan
                 sodipodi:role="line"
                 id="tspan4642-43-9"
                 style="font-size:7.05556px;fill:#000000;stroke:none;stroke-width:0.264583px"
                 x="43.825432"
                 y="59.445118">+</tspan></text>
            <text
               xml:space="preserve"
               style="font-size:7.05556px;line-height:9.12357px;font-family:'Accanthis ADF Std No3';-inkscape-font-specification:'Accanthis ADF Std No3';letter-spacing:0px;word-spacing:0px;fill:#000000;stroke:none;stroke-width:0.264583px;stroke-linecap:butt;stroke-linejoin:miter;stroke-opacity:1"
               x="50.596436"
               y="59.441589"
               id="text4644-3-14-1"><tspan
                 sodipodi:role="line"
                 id="tspan4642-6-92-4"
                 style="font-size:7.05556px;fill:#000000;stroke:none;stroke-width:0.264583px"
                 x="50.596436"
                 y="59.441589">-</tspan></text>
          </g>
        </g>
      </g>
      <g
         id="g7875-0-9"
         transform="rotate(6.2054722,199.10615,994.39251)">
        <ellipse
           style="fill:none;stroke:#000000;stroke-width:0.4;stroke-miterlimit:4;stroke-dasharray:none;stroke-opacity:0.995475"
           id="path3666-6-1"
           cx="26.959974"
           cy="32.540913"
           rx="5.7976446"
           ry="3.5102689" />
        <g
           id="g7625-89-0"
           transform="translate(-21.700878,-25.35198)">
          <text
             xml:space="preserve"
             style="font-size:7.05556px;line-height:9.12357px;font-family:'Accanthis ADF Std No3';-inkscape-font-specification:'Accanthis ADF Std No3';letter-spacing:0px;word-spacing:0px;fill:#000000;stroke:none;stroke-width:0.264583px;stroke-linecap:butt;stroke-linejoin:miter;stroke-opacity:1"
             x="43.825432"
             y="59.445118"
             id="text4644-26-7"><tspan
               sodipodi:role="line"
               id="tspan4642-64-58"
               style="font-size:7.05556px;fill:#000000;stroke:none;stroke-width:0.264583px"
               x="43.825432"
               y="59.445118">+</tspan></text>
          <text
             xml:space="preserve"
             style="font-size:7.05556px;line-height:9.12357px;font-family:'Accanthis ADF Std No3';-inkscape-font-specification:'Accanthis ADF Std No3';letter-spacing:0px;word-spacing:0px;fill:#000000;stroke:none;stroke-width:0.264583px;stroke-linecap:butt;stroke-linejoin:miter;stroke-opacity:1"
             x="50.596436"
             y="59.441589"
             id="text4644-3-95-7"><tspan
               sodipodi:role="line"
               id="tspan4642-6-04-0"
               style="font-size:7.05556px;fill:#000000;stroke:none;stroke-width:0.264583px"
               x="50.596436"
               y="59.441589">-</tspan></text>
        </g>
      </g>
      <g
         id="g7875-8-4"
         transform="rotate(-7.3875172,50.313898,-755.06712)">
        <ellipse
           style="fill:none;stroke:#000000;stroke-width:0.4;stroke-miterlimit:4;stroke-dasharray:none;stroke-opacity:0.995475"
           id="path3666-71-8"
           cx="26.959974"
           cy="32.540913"
           rx="5.7976446"
           ry="3.5102689" />
        <g
           id="g7625-72-0"
           transform="translate(-21.700878,-25.35198)">
          <text
             xml:space="preserve"
             style="font-size:7.05556px;line-height:9.12357px;font-family:'Accanthis ADF Std No3';-inkscape-font-specification:'Accanthis ADF Std No3';letter-spacing:0px;word-spacing:0px;fill:#000000;stroke:none;stroke-width:0.264583px;stroke-linecap:butt;stroke-linejoin:miter;stroke-opacity:1"
             x="43.825432"
             y="59.445118"
             id="text4644-7-4"><tspan
               sodipodi:role="line"
               id="tspan4642-22-2"
               style="font-size:7.05556px;fill:#000000;stroke:none;stroke-width:0.264583px"
               x="43.825432"
               y="59.445118">+</tspan></text>
          <text
             xml:space="preserve"
             style="font-size:7.05556px;line-height:9.12357px;font-family:'Accanthis ADF Std No3';-inkscape-font-specification:'Accanthis ADF Std No3';letter-spacing:0px;word-spacing:0px;fill:#000000;stroke:none;stroke-width:0.264583px;stroke-linecap:butt;stroke-linejoin:miter;stroke-opacity:1"
             x="50.596436"
             y="59.441589"
             id="text4644-3-61-9"><tspan
               sodipodi:role="line"
               id="tspan4642-6-061-6"
               style="font-size:7.05556px;fill:#000000;stroke:none;stroke-width:0.264583px"
               x="50.596436"
               y="59.441589">-</tspan></text>
        </g>
      </g>
    </g>
    <g
       id="g9290"
       transform="translate(-3.0590284,53.089286)">
      <ellipse
         style="fill:#b7bec8;stroke:#b7bec8;stroke-width:0.193285;stroke-opacity:0.995475"
         id="path3438-7"
         cx="199.33815"
         cy="25.099148"
         rx="32.448734"
         ry="24.248255" />
      <g
         id="g7875-67"
         transform="rotate(-52.523716,89.650374,-157.44137)">
        <ellipse
           style="fill:none;stroke:#000000;stroke-width:0.4;stroke-miterlimit:4;stroke-dasharray:none;stroke-opacity:0.995475"
           id="path3666-3"
           cx="26.959974"
           cy="32.540913"
           rx="5.7976446"
           ry="3.5102689" />
        <g
           id="g7625-65"
           transform="translate(-21.700878,-25.35198)">
          <text
             xml:space="preserve"
             style="font-size:7.05556px;line-height:9.12357px;font-family:'Accanthis ADF Std No3';-inkscape-font-specification:'Accanthis ADF Std No3';letter-spacing:0px;word-spacing:0px;fill:#000000;stroke:none;stroke-width:0.264583px;stroke-linecap:butt;stroke-linejoin:miter;stroke-opacity:1"
             x="43.825432"
             y="59.445118"
             id="text4644-6"><tspan
               sodipodi:role="line"
               id="tspan4642-39"
               style="font-size:7.05556px;fill:#000000;stroke:none;stroke-width:0.264583px"
               x="43.825432"
               y="59.445118">+</tspan></text>
          <text
             xml:space="preserve"
             style="font-size:7.05556px;line-height:9.12357px;font-family:'Accanthis ADF Std No3';-inkscape-font-specification:'Accanthis ADF Std No3';letter-spacing:0px;word-spacing:0px;fill:#000000;stroke:none;stroke-width:0.264583px;stroke-linecap:butt;stroke-linejoin:miter;stroke-opacity:1"
             x="50.596436"
             y="59.441589"
             id="text4644-3-4"><tspan
               sodipodi:role="line"
               id="tspan4642-6-81"
               style="font-size:7.05556px;fill:#000000;stroke:none;stroke-width:0.264583px"
               x="50.596436"
               y="59.441589">-</tspan></text>
        </g>
      </g>
      <g
         id="g7875-7-2"
         transform="rotate(42.067373,146.99316,266.75059)">
        <ellipse
           style="fill:none;stroke:#000000;stroke-width:0.4;stroke-miterlimit:4;stroke-dasharray:none;stroke-opacity:0.995475"
           id="path3666-5-9"
           cx="26.959974"
           cy="32.540913"
           rx="5.7976446"
           ry="3.5102689" />
        <g
           id="g7625-3-3"
           transform="translate(-21.700878,-25.35198)">
          <text
             xml:space="preserve"
             style="font-size:7.05556px;line-height:9.12357px;font-family:'Accanthis ADF Std No3';-inkscape-font-specification:'Accanthis ADF Std No3';letter-spacing:0px;word-spacing:0px;fill:#000000;stroke:none;stroke-width:0.264583px;stroke-linecap:butt;stroke-linejoin:miter;stroke-opacity:1"
             x="43.825432"
             y="59.445118"
             id="text4644-5-9"><tspan
               sodipodi:role="line"
               id="tspan4642-62-0"
               style="font-size:7.05556px;fill:#000000;stroke:none;stroke-width:0.264583px"
               x="43.825432"
               y="59.445118">+</tspan></text>
          <text
             xml:space="preserve"
             style="font-size:7.05556px;line-height:9.12357px;font-family:'Accanthis ADF Std No3';-inkscape-font-specification:'Accanthis ADF Std No3';letter-spacing:0px;word-spacing:0px;fill:#000000;stroke:none;stroke-width:0.264583px;stroke-linecap:butt;stroke-linejoin:miter;stroke-opacity:1"
             x="50.596436"
             y="59.441589"
             id="text4644-3-9-8"><tspan
               sodipodi:role="line"
               id="tspan4642-6-1-8"
               style="font-size:7.05556px;fill:#000000;stroke:none;stroke-width:0.264583px"
               x="50.596436"
               y="59.441589">-</tspan></text>
        </g>
      </g>
      <g
         id="g7875-2-5"
         transform="rotate(-29.368792,104.6443,-340.09238)">
        <ellipse
           style="fill:none;stroke:#000000;stroke-width:0.4;stroke-miterlimit:4;stroke-dasharray:none;stroke-opacity:0.995475"
           id="path3666-7-0"
           cx="26.959974"
           cy="32.540913"
           rx="5.7976446"
           ry="3.5102689" />
        <g
           id="g7625-0-9"
           transform="translate(-21.700878,-25.35198)">
          <text
             xml:space="preserve"
             style="font-size:7.05556px;line-height:9.12357px;font-family:'Accanthis ADF Std No3';-inkscape-font-specification:'Accanthis ADF Std No3';letter-spacing:0px;word-spacing:0px;fill:#000000;stroke:none;stroke-width:0.264583px;stroke-linecap:butt;stroke-linejoin:miter;stroke-opacity:1"
             x="43.825432"
             y="59.445118"
             id="text4644-9-6"><tspan
               sodipodi:role="line"
               id="tspan4642-3-3"
               style="font-size:7.05556px;fill:#000000;stroke:none;stroke-width:0.264583px"
               x="43.825432"
               y="59.445118">+</tspan></text>
          <text
             xml:space="preserve"
             style="font-size:7.05556px;line-height:9.12357px;font-family:'Accanthis ADF Std No3';-inkscape-font-specification:'Accanthis ADF Std No3';letter-spacing:0px;word-spacing:0px;fill:#000000;stroke:none;stroke-width:0.264583px;stroke-linecap:butt;stroke-linejoin:miter;stroke-opacity:1"
             x="50.596436"
             y="59.441589"
             id="text4644-3-6-8"><tspan
               sodipodi:role="line"
               id="tspan4642-6-0-5"
               style="font-size:7.05556px;fill:#000000;stroke:none;stroke-width:0.264583px"
               x="50.596436"
               y="59.441589">-</tspan></text>
        </g>
      </g>
      <g
         id="g7875-6-6"
         transform="rotate(-33.644083,124.00024,-286.22761)">
        <g
           id="g9178"
           transform="rotate(-116.5043,26.959974,32.540913)">
          <ellipse
             style="fill:none;stroke:#000000;stroke-width:0.4;stroke-miterlimit:4;stroke-dasharray:none;stroke-opacity:0.995475"
             id="path3666-2-1"
             cx="26.959974"
             cy="32.540913"
             rx="5.7976446"
             ry="3.5102689" />
          <g
             id="g7625-6-1"
             transform="translate(-21.700878,-25.35198)">
            <text
               xml:space="preserve"
               style="font-size:7.05556px;line-height:9.12357px;font-family:'Accanthis ADF Std No3';-inkscape-font-specification:'Accanthis ADF Std No3';letter-spacing:0px;word-spacing:0px;fill:#000000;stroke:none;stroke-width:0.264583px;stroke-linecap:butt;stroke-linejoin:miter;stroke-opacity:1"
               x="43.825432"
               y="59.445118"
               id="text4644-1-5"><tspan
                 sodipodi:role="line"
                 id="tspan4642-8-9"
                 style="font-size:7.05556px;fill:#000000;stroke:none;stroke-width:0.264583px"
                 x="43.825432"
                 y="59.445118">+</tspan></text>
            <text
               xml:space="preserve"
               style="font-size:7.05556px;line-height:9.12357px;font-family:'Accanthis ADF Std No3';-inkscape-font-specification:'Accanthis ADF Std No3';letter-spacing:0px;word-spacing:0px;fill:#000000;stroke:none;stroke-width:0.264583px;stroke-linecap:butt;stroke-linejoin:miter;stroke-opacity:1"
               x="50.596436"
               y="59.441589"
               id="text4644-3-7-8"><tspan
                 sodipodi:role="line"
                 id="tspan4642-6-9-4"
                 style="font-size:7.05556px;fill:#000000;stroke:none;stroke-width:0.264583px"
                 x="50.596436"
                 y="59.441589">-</tspan></text>
          </g>
        </g>
      </g>
      <g
         id="g7875-20-8"
         transform="rotate(58.984104,112.71591,195.27015)">
        <ellipse
           style="fill:none;stroke:#000000;stroke-width:0.4;stroke-miterlimit:4;stroke-dasharray:none;stroke-opacity:0.995475"
           id="path3666-23-1"
           cx="26.959974"
           cy="32.540913"
           rx="5.7976446"
           ry="3.5102689" />
        <g
           id="g7625-7-0"
           transform="translate(-21.700878,-25.35198)">
          <text
             xml:space="preserve"
             style="font-size:7.05556px;line-height:9.12357px;font-family:'Accanthis ADF Std No3';-inkscape-font-specification:'Accanthis ADF Std No3';letter-spacing:0px;word-spacing:0px;fill:#000000;stroke:none;stroke-width:0.264583px;stroke-linecap:butt;stroke-linejoin:miter;stroke-opacity:1"
             x="43.825432"
             y="59.445118"
             id="text4644-59-3"><tspan
               sodipodi:role="line"
               id="tspan4642-2-0"
               style="font-size:7.05556px;fill:#000000;stroke:none;stroke-width:0.264583px"
               x="43.825432"
               y="59.445118">+</tspan></text>
          <text
             xml:space="preserve"
             style="font-size:7.05556px;line-height:9.12357px;font-family:'Accanthis ADF Std No3';-inkscape-font-specification:'Accanthis ADF Std No3';letter-spacing:0px;word-spacing:0px;fill:#000000;stroke:none;stroke-width:0.264583px;stroke-linecap:butt;stroke-linejoin:miter;stroke-opacity:1"
             x="50.596436"
             y="59.441589"
             id="text4644-3-2-4"><tspan
               sodipodi:role="line"
               id="tspan4642-6-8-4"
               style="font-size:7.05556px;fill:#000000;stroke:none;stroke-width:0.264583px"
               x="50.596436"
               y="59.441589">-</tspan></text>
        </g>
      </g>
      <g
         id="g7875-9-4"
         transform="translate(169.07043,9.7564993)">
        <g
           id="g9186"
           transform="rotate(-21.119857,26.959974,32.540913)">
          <ellipse
             style="fill:none;stroke:#000000;stroke-width:0.4;stroke-miterlimit:4;stroke-dasharray:none;stroke-opacity:0.995475"
             id="path3666-73-4"
             cx="26.959974"
             cy="32.540913"
             rx="5.7976446"
             ry="3.5102689" />
          <g
             id="g7625-61-7"
             transform="translate(-21.700878,-25.35198)">
            <text
               xml:space="preserve"
               style="font-size:7.05556px;line-height:9.12357px;font-family:'Accanthis ADF Std No3';-inkscape-font-specification:'Accanthis ADF Std No3';letter-spacing:0px;word-spacing:0px;fill:#000000;stroke:none;stroke-width:0.264583px;stroke-linecap:butt;stroke-linejoin:miter;stroke-opacity:1"
               x="43.825432"
               y="59.445118"
               id="text4644-2-6"><tspan
                 sodipodi:role="line"
                 id="tspan4642-9-3"
                 style="font-size:7.05556px;fill:#000000;stroke:none;stroke-width:0.264583px"
                 x="43.825432"
                 y="59.445118">+</tspan></text>
            <text
               xml:space="preserve"
               style="font-size:7.05556px;line-height:9.12357px;font-family:'Accanthis ADF Std No3';-inkscape-font-specification:'Accanthis ADF Std No3';letter-spacing:0px;word-spacing:0px;fill:#000000;stroke:none;stroke-width:0.264583px;stroke-linecap:butt;stroke-linejoin:miter;stroke-opacity:1"
               x="50.596436"
               y="59.441589"
               id="text4644-3-3-1"><tspan
                 sodipodi:role="line"
                 id="tspan4642-6-19-75"
                 style="font-size:7.05556px;fill:#000000;stroke:none;stroke-width:0.264583px"
                 x="50.596436"
                 y="59.441589">-</tspan></text>
          </g>
        </g>
      </g>
      <g
         id="g7875-9-7-9"
         transform="rotate(35.014962,93.861744,276.50672)">
        <ellipse
           style="fill:none;stroke:#000000;stroke-width:0.4;stroke-miterlimit:4;stroke-dasharray:none;stroke-opacity:0.995475"
           id="path3666-73-7-6"
           cx="26.959974"
           cy="32.540913"
           rx="5.7976446"
           ry="3.5102689" />
        <g
           id="g7625-61-1-2"
           transform="translate(-21.700878,-25.35198)">
          <text
             xml:space="preserve"
             style="font-size:7.05556px;line-height:9.12357px;font-family:'Accanthis ADF Std No3';-inkscape-font-specification:'Accanthis ADF Std No3';letter-spacing:0px;word-spacing:0px;fill:#000000;stroke:none;stroke-width:0.264583px;stroke-linecap:butt;stroke-linejoin:miter;stroke-opacity:1"
             x="43.825432"
             y="59.445118"
             id="text4644-2-1-1"><tspan
               sodipodi:role="line"
               id="tspan4642-9-5-7"
               style="font-size:7.05556px;fill:#000000;stroke:none;stroke-width:0.264583px"
               x="43.825432"
               y="59.445118">+</tspan></text>
          <text
             xml:space="preserve"
             style="font-size:7.05556px;line-height:9.12357px;font-family:'Accanthis ADF Std No3';-inkscape-font-specification:'Accanthis ADF Std No3';letter-spacing:0px;word-spacing:0px;fill:#000000;stroke:none;stroke-width:0.264583px;stroke-linecap:butt;stroke-linejoin:miter;stroke-opacity:1"
             x="50.596436"
             y="59.441589"
             id="text4644-3-3-9-8"><tspan
               sodipodi:role="line"
               id="tspan4642-6-19-7-5"
               style="font-size:7.05556px;fill:#000000;stroke:none;stroke-width:0.264583px"
               x="50.596436"
               y="59.441589">-</tspan></text>
        </g>
      </g>
      <g
         id="g7875-4-7"
         transform="rotate(79.778508,106.74043,127.46339)">
        <ellipse
           style="fill:none;stroke:#000000;stroke-width:0.4;stroke-miterlimit:4;stroke-dasharray:none;stroke-opacity:0.995475"
           id="path3666-78-4"
           cx="26.959974"
           cy="32.540913"
           rx="5.7976446"
           ry="3.5102689" />
        <g
           id="g7625-4-1"
           transform="translate(-21.700878,-25.35198)">
          <text
             xml:space="preserve"
             style="font-size:7.05556px;line-height:9.12357px;font-family:'Accanthis ADF Std No3';-inkscape-font-specification:'Accanthis ADF Std No3';letter-spacing:0px;word-spacing:0px;fill:#000000;stroke:none;stroke-width:0.264583px;stroke-linecap:butt;stroke-linejoin:miter;stroke-opacity:1"
             x="43.825432"
             y="59.445118"
             id="text4644-50-8"><tspan
               sodipodi:role="line"
               id="tspan4642-36-5"
               style="font-size:7.05556px;fill:#000000;stroke:none;stroke-width:0.264583px"
               x="43.825432"
               y="59.445118">+</tspan></text>
          <text
             xml:space="preserve"
             style="font-size:7.05556px;line-height:9.12357px;font-family:'Accanthis ADF Std No3';-inkscape-font-specification:'Accanthis ADF Std No3';letter-spacing:0px;word-spacing:0px;fill:#000000;stroke:none;stroke-width:0.264583px;stroke-linecap:butt;stroke-linejoin:miter;stroke-opacity:1"
             x="50.596436"
             y="59.441589"
             id="text4644-3-1-9"><tspan
               sodipodi:role="line"
               id="tspan4642-6-06-7"
               style="font-size:7.05556px;fill:#000000;stroke:none;stroke-width:0.264583px"
               x="50.596436"
               y="59.441589">-</tspan></text>
        </g>
      </g>
      <g
         id="g7875-3-53"
         transform="rotate(-114.892,98.602871,-24.068869)">
        <ellipse
           style="fill:none;stroke:#000000;stroke-width:0.4;stroke-miterlimit:4;stroke-dasharray:none;stroke-opacity:0.995475"
           id="path3666-20-8"
           cx="26.959974"
           cy="32.540913"
           rx="5.7976446"
           ry="3.5102689" />
        <g
           id="g7625-615-8"
           transform="translate(-21.700878,-25.35198)">
          <text
             xml:space="preserve"
             style="font-size:7.05556px;line-height:9.12357px;font-family:'Accanthis ADF Std No3';-inkscape-font-specification:'Accanthis ADF Std No3';letter-spacing:0px;word-spacing:0px;fill:#000000;stroke:none;stroke-width:0.264583px;stroke-linecap:butt;stroke-linejoin:miter;stroke-opacity:1"
             x="43.825432"
             y="59.445118"
             id="text4644-54-3"><tspan
               sodipodi:role="line"
               id="tspan4642-7-1"
               style="font-size:7.05556px;fill:#000000;stroke:none;stroke-width:0.264583px"
               x="43.825432"
               y="59.445118">+</tspan></text>
          <text
             xml:space="preserve"
             style="font-size:7.05556px;line-height:9.12357px;font-family:'Accanthis ADF Std No3';-inkscape-font-specification:'Accanthis ADF Std No3';letter-spacing:0px;word-spacing:0px;fill:#000000;stroke:none;stroke-width:0.264583px;stroke-linecap:butt;stroke-linejoin:miter;stroke-opacity:1"
             x="50.596436"
             y="59.441589"
             id="text4644-3-65-8"><tspan
               sodipodi:role="line"
               id="tspan4642-6-6-9"
               style="font-size:7.05556px;fill:#000000;stroke:none;stroke-width:0.264583px"
               x="50.596436"
               y="59.441589">-</tspan></text>
        </g>
      </g>
      <g
         id="g7875-3-5-6"
         transform="rotate(21.255624,116.95987,422.32443)">
        <ellipse
           style="fill:none;stroke:#000000;stroke-width:0.4;stroke-miterlimit:4;stroke-dasharray:none;stroke-opacity:0.995475"
           id="path3666-20-9-4"
           cx="26.959974"
           cy="32.540913"
           rx="5.7976446"
           ry="3.5102689" />
        <g
           id="g7625-615-4-3"
           transform="translate(-21.700878,-25.35198)">
          <text
             xml:space="preserve"
             style="font-size:7.05556px;line-height:9.12357px;font-family:'Accanthis ADF Std No3';-inkscape-font-specification:'Accanthis ADF Std No3';letter-spacing:0px;word-spacing:0px;fill:#000000;stroke:none;stroke-width:0.264583px;stroke-linecap:butt;stroke-linejoin:miter;stroke-opacity:1"
             x="43.825432"
             y="59.445118"
             id="text4644-54-9-3"><tspan
               sodipodi:role="line"
               id="tspan4642-7-0-3"
               style="font-size:7.05556px;fill:#000000;stroke:none;stroke-width:0.264583px"
               x="43.825432"
               y="59.445118">+</tspan></text>
          <text
             xml:space="preserve"
             style="font-size:7.05556px;line-height:9.12357px;font-family:'Accanthis ADF Std No3';-inkscape-font-specification:'Accanthis ADF Std No3';letter-spacing:0px;word-spacing:0px;fill:#000000;stroke:none;stroke-width:0.264583px;stroke-linecap:butt;stroke-linejoin:miter;stroke-opacity:1"
             x="50.596436"
             y="59.441589"
             id="text4644-3-65-9-8"><tspan
               sodipodi:role="line"
               id="tspan4642-6-6-1-6"
               style="font-size:7.05556px;fill:#000000;stroke:none;stroke-width:0.264583px"
               x="50.596436"
               y="59.441589">-</tspan></text>
        </g>
      </g>
      <g
         id="g7875-93-0"
         transform="rotate(146.35103,111.48084,51.529247)">
        <ellipse
           style="fill:none;stroke:#000000;stroke-width:0.4;stroke-miterlimit:4;stroke-dasharray:none;stroke-opacity:0.995475"
           id="path3666-74-4"
           cx="26.959974"
           cy="32.540913"
           rx="5.7976446"
           ry="3.5102689" />
        <g
           id="g7625-5-8"
           transform="translate(-21.700878,-25.35198)">
          <text
             xml:space="preserve"
             style="font-size:7.05556px;line-height:9.12357px;font-family:'Accanthis ADF Std No3';-inkscape-font-specification:'Accanthis ADF Std No3';letter-spacing:0px;word-spacing:0px;fill:#000000;stroke:none;stroke-width:0.264583px;stroke-linecap:butt;stroke-linejoin:miter;stroke-opacity:1"
             x="43.825432"
             y="59.445118"
             id="text4644-25-8"><tspan
               sodipodi:role="line"
               id="tspan4642-4-8"
               style="font-size:7.05556px;fill:#000000;stroke:none;stroke-width:0.264583px"
               x="43.825432"
               y="59.445118">+</tspan></text>
          <text
             xml:space="preserve"
             style="font-size:7.05556px;line-height:9.12357px;font-family:'Accanthis ADF Std No3';-inkscape-font-specification:'Accanthis ADF Std No3';letter-spacing:0px;word-spacing:0px;fill:#000000;stroke:none;stroke-width:0.264583px;stroke-linecap:butt;stroke-linejoin:miter;stroke-opacity:1"
             x="50.596436"
             y="59.441589"
             id="text4644-3-74-9"><tspan
               sodipodi:role="line"
               id="tspan4642-6-4-7"
               style="font-size:7.05556px;fill:#000000;stroke:none;stroke-width:0.264583px"
               x="50.596436"
               y="59.441589">-</tspan></text>
        </g>
      </g>
      <g
         id="g8306-7"
         transform="rotate(-164.40086,96.439218,-3.9943555)">
        <g
           id="g7875-30-6"
           transform="translate(-23.101762,-24.567273)">
          <ellipse
             style="fill:none;stroke:#000000;stroke-width:0.4;stroke-miterlimit:4;stroke-dasharray:none;stroke-opacity:0.995475"
             id="path3666-786-4"
             cx="26.959974"
             cy="32.540913"
             rx="5.7976446"
             ry="3.5102689" />
          <g
             id="g7625-8-3"
             transform="translate(-21.700878,-25.35198)">
            <text
               xml:space="preserve"
               style="font-size:7.05556px;line-height:9.12357px;font-family:'Accanthis ADF Std No3';-inkscape-font-specification:'Accanthis ADF Std No3';letter-spacing:0px;word-spacing:0px;fill:#000000;stroke:none;stroke-width:0.264583px;stroke-linecap:butt;stroke-linejoin:miter;stroke-opacity:1"
               x="43.825432"
               y="59.445118"
               id="text4644-8-0"><tspan
                 sodipodi:role="line"
                 id="tspan4642-43-3"
                 style="font-size:7.05556px;fill:#000000;stroke:none;stroke-width:0.264583px"
                 x="43.825432"
                 y="59.445118">+</tspan></text>
            <text
               xml:space="preserve"
               style="font-size:7.05556px;line-height:9.12357px;font-family:'Accanthis ADF Std No3';-inkscape-font-specification:'Accanthis ADF Std No3';letter-spacing:0px;word-spacing:0px;fill:#000000;stroke:none;stroke-width:0.264583px;stroke-linecap:butt;stroke-linejoin:miter;stroke-opacity:1"
               x="50.596436"
               y="59.441589"
               id="text4644-3-14-0"><tspan
                 sodipodi:role="line"
                 id="tspan4642-6-92-9"
                 style="font-size:7.05556px;fill:#000000;stroke:none;stroke-width:0.264583px"
                 x="50.596436"
                 y="59.441589">-</tspan></text>
          </g>
        </g>
      </g>
      <g
         id="g7875-0-2"
         transform="rotate(59.100203,125.95061,186.75691)">
        <ellipse
           style="fill:none;stroke:#000000;stroke-width:0.4;stroke-miterlimit:4;stroke-dasharray:none;stroke-opacity:0.995475"
           id="path3666-6-5"
           cx="26.959974"
           cy="32.540913"
           rx="5.7976446"
           ry="3.5102689" />
        <g
           id="g7625-89-4"
           transform="translate(-21.700878,-25.35198)">
          <text
             xml:space="preserve"
             style="font-size:7.05556px;line-height:9.12357px;font-family:'Accanthis ADF Std No3';-inkscape-font-specification:'Accanthis ADF Std No3';letter-spacing:0px;word-spacing:0px;fill:#000000;stroke:none;stroke-width:0.264583px;stroke-linecap:butt;stroke-linejoin:miter;stroke-opacity:1"
             x="43.825432"
             y="59.445118"
             id="text4644-26-0"><tspan
               sodipodi:role="line"
               id="tspan4642-64-5"
               style="font-size:7.05556px;fill:#000000;stroke:none;stroke-width:0.264583px"
               x="43.825432"
               y="59.445118">+</tspan></text>
          <text
             xml:space="preserve"
             style="font-size:7.05556px;line-height:9.12357px;font-family:'Accanthis ADF Std No3';-inkscape-font-specification:'Accanthis ADF Std No3';letter-spacing:0px;word-spacing:0px;fill:#000000;stroke:none;stroke-width:0.264583px;stroke-linecap:butt;stroke-linejoin:miter;stroke-opacity:1"
             x="50.596436"
             y="59.441589"
             id="text4644-3-95-9"><tspan
               sodipodi:role="line"
               id="tspan4642-6-04-4"
               style="font-size:7.05556px;fill:#000000;stroke:none;stroke-width:0.264583px"
               x="50.596436"
               y="59.441589">-</tspan></text>
        </g>
      </g>
      <g
         id="g7875-8-6"
         transform="rotate(-41.145088,108.02586,-196.77099)">
        <ellipse
           style="fill:none;stroke:#000000;stroke-width:0.4;stroke-miterlimit:4;stroke-dasharray:none;stroke-opacity:0.995475"
           id="path3666-71-9"
           cx="26.959974"
           cy="32.540913"
           rx="5.7976446"
           ry="3.5102689" />
        <g
           id="g7625-72-2"
           transform="translate(-21.700878,-25.35198)">
          <text
             xml:space="preserve"
             style="font-size:7.05556px;line-height:9.12357px;font-family:'Accanthis ADF Std No3';-inkscape-font-specification:'Accanthis ADF Std No3';letter-spacing:0px;word-spacing:0px;fill:#000000;stroke:none;stroke-width:0.264583px;stroke-linecap:butt;stroke-linejoin:miter;stroke-opacity:1"
             x="43.825432"
             y="59.445118"
             id="text4644-7-2"><tspan
               sodipodi:role="line"
               id="tspan4642-22-4"
               style="font-size:7.05556px;fill:#000000;stroke:none;stroke-width:0.264583px"
               x="43.825432"
               y="59.445118">+</tspan></text>
          <text
             xml:space="preserve"
             style="font-size:7.05556px;line-height:9.12357px;font-family:'Accanthis ADF Std No3';-inkscape-font-specification:'Accanthis ADF Std No3';letter-spacing:0px;word-spacing:0px;fill:#000000;stroke:none;stroke-width:0.264583px;stroke-linecap:butt;stroke-linejoin:miter;stroke-opacity:1"
             x="50.596436"
             y="59.441589"
             id="text4644-3-61-7"><tspan
               sodipodi:role="line"
               id="tspan4642-6-061-7"
               style="font-size:7.05556px;fill:#000000;stroke:none;stroke-width:0.264583px"
               x="50.596436"
               y="59.441589">-</tspan></text>
        </g>
      </g>
    </g>
    <g
       id="g19389"
       transform="translate(89.537236,-12.609916)">
      <ellipse
         style="fill:#b7bec8;stroke:#b7bec8;stroke-width:0.193285;stroke-opacity:0.995475"
         id="path3438-5-1"
         cx="15.239114"
         cy="159.54726"
         rx="32.448734"
         ry="24.248255" />
      <g
         id="g19381">
        <text
           xml:space="preserve"
           style="font-size:25.4px;line-height:32.8448px;font-family:'Accanthis ADF Std No3';-inkscape-font-specification:'Accanthis ADF Std No3';letter-spacing:0px;word-spacing:0px;fill:none;stroke:#000000;stroke-width:0.264583px;stroke-linecap:butt;stroke-linejoin:miter;stroke-opacity:1"
           x="-12.64514"
           y="165.13525"
           id="text13546"><tspan
             sodipodi:role="line"
             id="tspan13544"
             style="font-size:25.4px;fill:#000000;stroke:none;stroke-width:0.264583px"
             x="-12.64514"
             y="165.13525">+</tspan></text>
        <text
           xml:space="preserve"
           style="font-size:25.4px;line-height:32.8448px;font-family:'Accanthis ADF Std No3';-inkscape-font-specification:'Accanthis ADF Std No3';letter-spacing:0px;word-spacing:0px;fill:none;stroke:#000000;stroke-width:0.264583px;stroke-linecap:butt;stroke-linejoin:miter;stroke-opacity:1"
           x="32.683968"
           y="166.45349"
           id="text13546-4"><tspan
             sodipodi:role="line"
             id="tspan13544-8"
             style="font-size:25.4px;fill:#000000;stroke:none;stroke-width:0.264583px"
             x="32.683968"
             y="166.45349">-</tspan></text>
      </g>
    </g>
    <g
       id="g34702"
       transform="translate(-1.8372104,-5.5116313)">
      <g
         id="g22484"
         transform="rotate(-57.600852,24.145748,25.909833)">
        <path
           style="fill:#b7bec8;fill-rule:evenodd;stroke:#9393ac;stroke-width:0.264583px;stroke-linecap:butt;stroke-linejoin:miter;stroke-opacity:1"
           d="m -46.894587,105.91763 v -6.390921 h 37.1788809 v 6.390921 z"
           id="path21806" />
        <path
           style="fill:#b7bec8;stroke:#939dac;stroke-width:0.265;stroke-miterlimit:4;stroke-dasharray:none;stroke-opacity:0.995475"
           id="path19992-0"
           sodipodi:type="arc"
           sodipodi:cx="-10.049975"
           sodipodi:cy="102.71347"
           sodipodi:rx="4.5325341"
           sodipodi:ry="3.1954598"
           sodipodi:start="4.6894335"
           sodipodi:end="1.5773653"
           sodipodi:arc-type="arc"
           sodipodi:open="true"
           d="m -10.154013,99.518853 a 4.5325341,3.1954598 0 0 1 3.9992708,1.560737 4.5325341,3.1954598 0 0 1 0.037452,3.22255 4.5325341,3.1954598 0 0 1 -3.9624587,1.60672" />
        <path
           style="fill:#b7bec8;stroke:#939dac;stroke-width:0.265;stroke-miterlimit:4;stroke-dasharray:none;stroke-opacity:0.995475"
           id="path19992"
           sodipodi:type="arc"
           sodipodi:cx="-47.230663"
           sodipodi:cy="102.73097"
           sodipodi:rx="4.5325341"
           sodipodi:ry="3.1954598"
           sodipodi:start="4.7862047"
           sodipodi:end="4.7861939"
           sodipodi:arc-type="arc"
           sodipodi:open="true"
           d="m -46.896395,99.544214 a 4.5325341,3.1954598 0 0 1 4.185924,3.422406 4.5325341,3.1954598 0 0 1 -4.854436,2.95111 4.5325341,3.1954598 0 0 1 -4.18595,-3.42239 4.5325341,3.1954598 0 0 1 4.854413,-2.951128" />
      </g>
      <text
         xml:space="preserve"
         style="font-size:12.7px;line-height:16.4225px;font-family:'Accanthis ADF Std No3';-inkscape-font-specification:'Accanthis ADF Std No3';letter-spacing:0px;word-spacing:0px;fill:none;stroke:#000000;stroke-width:0.264583px;stroke-linecap:butt;stroke-linejoin:miter;stroke-opacity:1"
         x="67.420021"
         y="99.30265"
         id="text23604"><tspan
           sodipodi:role="line"
           id="tspan23602"
           style="font-size:12.7px;fill:#000000;stroke:none;stroke-width:0.264583px"
           x="67.420021"
           y="99.30265">-</tspan></text>
      <text
         xml:space="preserve"
         style="font-size:12.7px;line-height:16.4225px;font-family:'Accanthis ADF Std No3';-inkscape-font-specification:'Accanthis ADF Std No3';letter-spacing:0px;word-spacing:0px;fill:none;stroke:#000000;stroke-width:0.264583px;stroke-linecap:butt;stroke-linejoin:miter;stroke-opacity:1"
         x="63.692486"
         y="105.30991"
         id="text23604-8"><tspan
           sodipodi:role="line"
           id="tspan23602-6"
           style="font-size:12.7px;fill:#000000;stroke:none;stroke-width:0.264583px"
           x="63.692486"
           y="105.30991">-</tspan></text>
      <text
         xml:space="preserve"
         style="font-size:12.7px;line-height:16.4225px;font-family:'Accanthis ADF Std No3';-inkscape-font-specification:'Accanthis ADF Std No3';letter-spacing:0px;word-spacing:0px;fill:none;stroke:#000000;stroke-width:0.264583px;stroke-linecap:butt;stroke-linejoin:miter;stroke-opacity:1"
         x="60.380104"
         y="110.56125"
         id="text23604-2"><tspan
           sodipodi:role="line"
           id="tspan23602-4"
           style="font-size:12.7px;fill:#000000;stroke:none;stroke-width:0.264583px"
           x="60.380104"
           y="110.56125">-</tspan></text>
      <text
         xml:space="preserve"
         style="font-size:12.7px;line-height:16.4225px;font-family:'Accanthis ADF Std No3';-inkscape-font-specification:'Accanthis ADF Std No3';letter-spacing:0px;word-spacing:0px;fill:none;stroke:#000000;stroke-width:0.264583px;stroke-linecap:butt;stroke-linejoin:miter;stroke-opacity:1"
         x="56.582981"
         y="116.29731"
         id="text23604-7"><tspan
           sodipodi:role="line"
           id="tspan23602-9"
           style="font-size:12.7px;fill:#000000;stroke:none;stroke-width:0.264583px"
           x="56.582981"
           y="116.29731">-</tspan></text>
      <text
         xml:space="preserve"
         style="font-size:12.7px;line-height:16.4225px;font-family:'Accanthis ADF Std No3';-inkscape-font-specification:'Accanthis ADF Std No3';letter-spacing:0px;word-spacing:0px;fill:none;stroke:#000000;stroke-width:0.264583px;stroke-linecap:butt;stroke-linejoin:miter;stroke-opacity:1"
         x="53.10902"
         y="122.19498"
         id="text23604-3"><tspan
           sodipodi:role="line"
           id="tspan23602-92"
           style="font-size:12.7px;fill:#000000;stroke:none;stroke-width:0.264583px"
           x="53.10902"
           y="122.19498">-</tspan></text>
    </g>
    <text
       xml:space="preserve"
       style="font-size:4.93889px;line-height:6.3865px;font-family:'Accanthis ADF Std No3';-inkscape-font-specification:'Accanthis ADF Std No3';letter-spacing:0px;word-spacing:0px;fill:none;stroke:#000000;stroke-width:0.264583px;stroke-linecap:butt;stroke-linejoin:miter;stroke-opacity:1"
       x="-9.823946"
       y="107.87604"
       id="text35774"><tspan
         sodipodi:role="line"
         id="tspan35772"
         style="font-size:4.93889px;fill:#000000;stroke:none;stroke-width:0.264583px"
         x="-9.823946"
         y="107.87604">1. Cargas desordenadas</tspan></text>
    <text
       xml:space="preserve"
       style="font-size:4.93889px;line-height:5.29167px;font-family:'Accanthis ADF Std No3';-inkscape-font-specification:'Accanthis ADF Std No3';letter-spacing:0px;word-spacing:0px;fill:none;stroke:#000000;stroke-width:0.264583px;stroke-linecap:butt;stroke-linejoin:miter;stroke-opacity:1"
       x="69.967148"
       y="107.35342"
       id="text35774-8"><tspan
         sodipodi:role="line"
         id="tspan35772-3"
         style="font-size:4.93889px;fill:#000000;stroke:none;stroke-width:0.264583px"
         x="69.967148"
         y="107.35342"
         dy="0">2. Al acercar un cuerpo cargado</tspan><tspan
         sodipodi:role="line"
         style="font-size:4.93889px;fill:#000000;stroke:none;stroke-width:0.264583px"
         x="69.967148"
         y="112.64508"
         id="tspan38527">las cargas tienden a ordenarse</tspan></text>
    <text
       xml:space="preserve"
       style="font-size:4.93889px;line-height:6.3865px;font-family:'Accanthis ADF Std No3';-inkscape-font-specification:'Accanthis ADF Std No3';letter-spacing:0px;word-spacing:0px;fill:none;stroke:#000000;stroke-width:0.264583px;stroke-linecap:butt;stroke-linejoin:miter;stroke-opacity:1"
       x="141.85132"
       y="148.17206"
       id="text35774-8-8"><tspan
         sodipodi:role="line"
         style="font-size:4.93889px;fill:#000000;stroke:none;stroke-width:0.264583px"
         x="141.85132"
         y="148.17206"
         id="tspan38527-1">Dipolo equivalente</tspan></text>
    <text
       xml:space="preserve"
       style="font-size:4.93889px;line-height:5.29167px;font-family:'Accanthis ADF Std No3';-inkscape-font-specification:'Accanthis ADF Std No3';letter-spacing:0px;word-spacing:0px;fill:none;stroke:#000000;stroke-width:0.264583px;stroke-linecap:butt;stroke-linejoin:miter;stroke-opacity:1"
       x="161.4872"
       y="107.32207"
       id="text35774-8-0"><tspan
         sodipodi:role="line"
         style="font-size:4.93889px;fill:#000000;stroke:none;stroke-width:0.264583px"
         x="161.4872"
         y="107.32207"
         id="tspan38527-7">3. Al alejar el cuerpo cargado la</tspan><tspan
         sodipodi:role="line"
         style="font-size:4.93889px;fill:#000000;stroke:none;stroke-width:0.264583px"
         x="161.4872"
         y="112.61373"
         id="tspan38667">distribución de cargas retorna a</tspan><tspan
         sodipodi:role="line"
         style="font-size:4.93889px;fill:#000000;stroke:none;stroke-width:0.264583px"
         x="161.4872"
         y="117.9054"
         id="tspan38671">su estado desorganizado</tspan></text>
    <path
       style="fill:none;fill-rule:evenodd;stroke:#000000;stroke-width:0.5;stroke-linecap:butt;stroke-linejoin:miter;stroke-miterlimit:4;stroke-dasharray:none;stroke-opacity:1;marker-end:url(#marker39646)"
       d="m 105.22916,114.27399 v 6.5323"
       id="path39286" />
  </g>
</svg>
