<?xml version="1.0" encoding="UTF-8" standalone="no"?>
<!-- Created with Inkscape (http://www.inkscape.org/) -->

<svg
   width="210mm"
   height="297mm"
   viewBox="0 0 210 297"
   version="1.1"
   id="svg5"
   inkscape:version="1.2.1 (9c6d41e410, 2022-07-14)"
   sodipodi:docname="fig-cap1-06-campo-carga.svg"
   xmlns:inkscape="http://www.inkscape.org/namespaces/inkscape"
   xmlns:sodipodi="http://sodipodi.sourceforge.net/DTD/sodipodi-0.dtd"
   xmlns:xlink="http://www.w3.org/1999/xlink"
   xmlns="http://www.w3.org/2000/svg"
   xmlns:svg="http://www.w3.org/2000/svg"
   xmlns:ns1="http://www.iki.fi/pav/software/textext/">
  <sodipodi:namedview
     id="namedview7"
     pagecolor="#ffffff"
     bordercolor="#666666"
     borderopacity="1.0"
     inkscape:pageshadow="2"
     inkscape:pageopacity="0.0"
     inkscape:pagecheckerboard="0"
     inkscape:document-units="mm"
     showgrid="false"
     showguides="true"
     inkscape:guide-bbox="true"
     inkscape:zoom="1.5302352"
     inkscape:cx="392.09659"
     inkscape:cy="412.02816"
     inkscape:window-width="1920"
     inkscape:window-height="1026"
     inkscape:window-x="0"
     inkscape:window-y="0"
     inkscape:window-maximized="1"
     inkscape:current-layer="layer1"
     inkscape:showpageshadow="2"
     inkscape:deskcolor="#d1d1d1" />
  <defs
     id="defs2">
    <marker
       style="overflow:visible;"
       id="Arrow2Lend"
       refX="0.0"
       refY="0.0"
       orient="auto"
       inkscape:stockid="Arrow2Lend"
       inkscape:isstock="true">
      <path
         transform="scale(1.1) rotate(180) translate(1,0)"
         d="M 8.7185878,4.0337352 L -2.2072895,0.016013256 L 8.7185884,-4.0017078 C 6.9730900,-1.6296469 6.9831476,1.6157441 8.7185878,4.0337352 z "
         style="stroke:context-stroke;fill-rule:evenodd;fill:context-stroke;stroke-width:0.62500000;stroke-linejoin:round;"
         id="path4288" />
    </marker>
    <inkscape:path-effect
       effect="bspline"
       id="path-effect3682"
       is_visible="true"
       lpeversion="1"
       weight="33.333333"
       steps="2"
       helper_size="0"
       apply_no_weight="true"
       apply_with_weight="true"
       only_selected="false" />
    <inkscape:path-effect
       effect="bspline"
       id="path-effect1266"
       is_visible="true"
       lpeversion="1"
       weight="33.333333"
       steps="2"
       helper_size="0"
       apply_no_weight="true"
       apply_with_weight="true"
       only_selected="false" />
    <linearGradient
       inkscape:collect="always"
       id="linearGradient1594">
      <stop
         style="stop-color:#ff6600;stop-opacity:1;"
         offset="0"
         id="stop1590" />
      <stop
         style="stop-color:#ff6600;stop-opacity:0;"
         offset="1"
         id="stop1592" />
    </linearGradient>
    <marker
       style="overflow:visible;"
       id="Arrow1Mend"
       refX="0.0"
       refY="0.0"
       orient="auto"
       inkscape:stockid="Arrow1Mend"
       inkscape:isstock="true">
      <path
         transform="scale(0.4) rotate(180) translate(10,0)"
         style="fill-rule:evenodd;fill:context-stroke;stroke:context-stroke;stroke-width:1.0pt;"
         d="M 0.0,0.0 L 5.0,-5.0 L -12.5,0.0 L 5.0,5.0 L 0.0,0.0 z "
         id="path1436" />
    </marker>
    <marker
       style="overflow:visible;"
       id="Arrow1Send"
       refX="0.0"
       refY="0.0"
       orient="auto"
       inkscape:stockid="Arrow1Send"
       inkscape:isstock="true">
      <path
         transform="scale(0.2) rotate(180) translate(6,0)"
         style="fill-rule:evenodd;fill:context-stroke;stroke:context-stroke;stroke-width:1.0pt;"
         d="M 0.0,0.0 L 5.0,-5.0 L -12.5,0.0 L 5.0,5.0 L 0.0,0.0 z "
         id="path16822" />
    </marker>
    <marker
       style="overflow:visible;"
       id="Arrow2Mend"
       refX="0.0"
       refY="0.0"
       orient="auto"
       inkscape:stockid="Arrow2Mend"
       inkscape:isstock="true">
      <path
         transform="scale(0.6) rotate(180) translate(0,0)"
         d="M 8.7185878,4.0337352 L -2.2072895,0.016013256 L 8.7185884,-4.0017078 C 6.9730900,-1.6296469 6.9831476,1.6157441 8.7185878,4.0337352 z "
         style="stroke:context-stroke;fill-rule:evenodd;fill:context-stroke;stroke-width:0.62500000;stroke-linejoin:round;"
         id="path16834" />
    </marker>
    <marker
       style="overflow:visible"
       id="Arrow1Send-8"
       refX="0"
       refY="0"
       orient="auto"
       inkscape:stockid="Arrow1Send"
       inkscape:isstock="true">
      <path
         transform="matrix(-0.2,0,0,-0.2,-1.2,0)"
         style="fill:context-stroke;fill-rule:evenodd;stroke:context-stroke;stroke-width:1pt"
         d="M 0,0 5,-5 -12.5,0 5,5 Z"
         id="path16822-7" />
    </marker>
    <marker
       style="overflow:visible"
       id="Arrow1Send-2"
       refX="0"
       refY="0"
       orient="auto"
       inkscape:stockid="Arrow1Send"
       inkscape:isstock="true">
      <path
         transform="matrix(-0.2,0,0,-0.2,-1.2,0)"
         style="fill:context-stroke;fill-rule:evenodd;stroke:context-stroke;stroke-width:1pt"
         d="M 0,0 5,-5 -12.5,0 5,5 Z"
         id="path16822-0" />
    </marker>
    <marker
       style="overflow:visible"
       id="Arrow1Send-2-3"
       refX="0"
       refY="0"
       orient="auto"
       inkscape:stockid="Arrow1Send"
       inkscape:isstock="true">
      <path
         transform="matrix(-0.2,0,0,-0.2,-1.2,0)"
         style="fill:context-stroke;fill-rule:evenodd;stroke:context-stroke;stroke-width:1pt"
         d="M 0,0 5,-5 -12.5,0 5,5 Z"
         id="path16822-0-7" />
    </marker>
    <marker
       style="overflow:visible"
       id="Arrow1Send-2-9"
       refX="0"
       refY="0"
       orient="auto"
       inkscape:stockid="Arrow1Send"
       inkscape:isstock="true">
      <path
         transform="matrix(-0.2,0,0,-0.2,-1.2,0)"
         style="fill:context-stroke;fill-rule:evenodd;stroke:context-stroke;stroke-width:1pt"
         d="M 0,0 5,-5 -12.5,0 5,5 Z"
         id="path16822-0-2" />
    </marker>
    <marker
       style="overflow:visible"
       id="Arrow1Send-8-8"
       refX="0"
       refY="0"
       orient="auto"
       inkscape:stockid="Arrow1Send"
       inkscape:isstock="true">
      <path
         transform="matrix(-0.2,0,0,-0.2,-1.2,0)"
         style="fill:context-stroke;fill-rule:evenodd;stroke:context-stroke;stroke-width:1pt"
         d="M 0,0 5,-5 -12.5,0 5,5 Z"
         id="path16822-7-9" />
    </marker>
    <marker
       style="overflow:visible"
       id="Arrow1Mend-3"
       refX="0"
       refY="0"
       orient="auto"
       inkscape:stockid="Arrow1Mend"
       inkscape:isstock="true">
      <path
         transform="matrix(-0.4,0,0,-0.4,-4,0)"
         style="fill:context-stroke;fill-rule:evenodd;stroke:context-stroke;stroke-width:1pt"
         d="M 0,0 5,-5 -12.5,0 5,5 Z"
         id="path1436-6" />
    </marker>
    <marker
       style="overflow:visible"
       id="Arrow1Mend-3-3"
       refX="0"
       refY="0"
       orient="auto"
       inkscape:stockid="Arrow1Mend"
       inkscape:isstock="true">
      <path
         transform="matrix(-0.4,0,0,-0.4,-4,0)"
         style="fill:context-stroke;fill-rule:evenodd;stroke:context-stroke;stroke-width:1pt"
         d="M 0,0 5,-5 -12.5,0 5,5 Z"
         id="path1436-6-6" />
    </marker>
    <marker
       style="overflow:visible"
       id="Arrow1Mend-3-3-2"
       refX="0"
       refY="0"
       orient="auto"
       inkscape:stockid="Arrow1Mend"
       inkscape:isstock="true">
      <path
         transform="matrix(-0.4,0,0,-0.4,-4,0)"
         style="fill:context-stroke;fill-rule:evenodd;stroke:context-stroke;stroke-width:1pt"
         d="M 0,0 5,-5 -12.5,0 5,5 Z"
         id="path1436-6-6-9" />
    </marker>
    <marker
       style="overflow:visible"
       id="Arrow1Mend-3-1"
       refX="0"
       refY="0"
       orient="auto"
       inkscape:stockid="Arrow1Mend"
       inkscape:isstock="true">
      <path
         transform="matrix(-0.4,0,0,-0.4,-4,0)"
         style="fill:context-stroke;fill-rule:evenodd;stroke:context-stroke;stroke-width:1pt"
         d="M 0,0 5,-5 -12.5,0 5,5 Z"
         id="path1436-6-2" />
    </marker>
    <marker
       style="overflow:visible"
       id="Arrow1Mend-3-3-2-9"
       refX="0"
       refY="0"
       orient="auto"
       inkscape:stockid="Arrow1Mend"
       inkscape:isstock="true">
      <path
         transform="matrix(-0.4,0,0,-0.4,-4,0)"
         style="fill:context-stroke;fill-rule:evenodd;stroke:context-stroke;stroke-width:1pt"
         d="M 0,0 5,-5 -12.5,0 5,5 Z"
         id="path1436-6-6-9-3" />
    </marker>
    <marker
       style="overflow:visible"
       id="Arrow1Mend-3-1-1"
       refX="0"
       refY="0"
       orient="auto"
       inkscape:stockid="Arrow1Mend"
       inkscape:isstock="true">
      <path
         transform="matrix(-0.4,0,0,-0.4,-4,0)"
         style="fill:context-stroke;fill-rule:evenodd;stroke:context-stroke;stroke-width:1pt"
         d="M 0,0 5,-5 -12.5,0 5,5 Z"
         id="path1436-6-2-9" />
    </marker>
    <radialGradient
       inkscape:collect="always"
       xlink:href="#linearGradient1594"
       id="radialGradient1596"
       cx="59.214478"
       cy="105.40826"
       fx="59.214478"
       fy="105.40826"
       r="30.060108"
       gradientUnits="userSpaceOnUse"
       gradientTransform="translate(-29.786884,2.5117212)" />
    <radialGradient
       inkscape:collect="always"
       xlink:href="#linearGradient1594"
       id="radialGradient1596-3"
       cx="59.214478"
       cy="105.40826"
       fx="59.214478"
       fy="105.40826"
       r="30.060108"
       gradientUnits="userSpaceOnUse"
       gradientTransform="translate(45.928927,1.6407052)" />
    <marker
       style="overflow:visible"
       id="Arrow1Mend-3-3-3"
       refX="0"
       refY="0"
       orient="auto"
       inkscape:stockid="Arrow1Mend"
       inkscape:isstock="true">
      <path
         transform="matrix(-0.4,0,0,-0.4,-4,0)"
         style="fill:context-stroke;fill-rule:evenodd;stroke:context-stroke;stroke-width:1pt"
         d="M 0,0 5,-5 -12.5,0 5,5 Z"
         id="path1436-6-6-6" />
    </marker>
    <radialGradient
       inkscape:collect="always"
       xlink:href="#linearGradient1594"
       id="radialGradient1596-3-7"
       cx="59.214478"
       cy="105.40826"
       fx="59.214478"
       fy="105.40826"
       r="30.060108"
       gradientUnits="userSpaceOnUse"
       gradientTransform="translate(121.58189,1.2922988)" />
    <marker
       style="overflow:visible"
       id="Arrow1Mend-8"
       refX="0"
       refY="0"
       orient="auto"
       inkscape:stockid="Arrow1Mend"
       inkscape:isstock="true">
      <path
         transform="matrix(-0.4,0,0,-0.4,-4,0)"
         style="fill:context-stroke;fill-rule:evenodd;stroke:context-stroke;stroke-width:1pt"
         d="M 0,0 5,-5 -12.5,0 5,5 Z"
         id="path1436-7" />
    </marker>
    <marker
       style="overflow:visible"
       id="Arrow1Mend-3-3-37"
       refX="0"
       refY="0"
       orient="auto"
       inkscape:stockid="Arrow1Mend"
       inkscape:isstock="true">
      <path
         transform="matrix(-0.4,0,0,-0.4,-4,0)"
         style="fill:context-stroke;fill-rule:evenodd;stroke:context-stroke;stroke-width:1pt"
         d="M 0,0 5,-5 -12.5,0 5,5 Z"
         id="path1436-6-6-5" />
    </marker>
    <marker
       style="overflow:visible"
       id="Arrow1Mend-3-3-37-3"
       refX="0"
       refY="0"
       orient="auto"
       inkscape:stockid="Arrow1Mend"
       inkscape:isstock="true">
      <path
         transform="matrix(-0.4,0,0,-0.4,-4,0)"
         style="fill:context-stroke;fill-rule:evenodd;stroke:context-stroke;stroke-width:1pt"
         d="M 0,0 5,-5 -12.5,0 5,5 Z"
         id="path1436-6-6-5-6" />
    </marker>
    <marker
       style="overflow:visible"
       id="Arrow1Mend-8-5"
       refX="0"
       refY="0"
       orient="auto"
       inkscape:stockid="Arrow1Mend"
       inkscape:isstock="true">
      <path
         transform="matrix(-0.4,0,0,-0.4,-4,0)"
         style="fill:context-stroke;fill-rule:evenodd;stroke:context-stroke;stroke-width:1pt"
         d="M 0,0 5,-5 -12.5,0 5,5 Z"
         id="path1436-7-3" />
    </marker>
    <g
       id="id-4ae070ee-56d2-4c83-8cad-337ebd223c97-7">
      <symbol
         overflow="visible"
         id="id-f95c8e2a-f697-4998-b07f-da045d139442-5">
        <path
           style="stroke:none;stroke-width:0"
           d=""
           id="id-160edfb2-322b-4c6d-8af1-80b2d43b96ce-3" />
      </symbol>
      <symbol
         overflow="visible"
         id="id-48ece8c1-aeab-4cf9-8a38-34f2db6ce59a-5">
        <path
           style="stroke:none;stroke-width:0"
           d="m 7.203125,-2.734375 h -0.46875 c -0.21875,1.375 -0.5,2.265625 -2.34375,2.265625 H 2.875 v -2.8125 h 0.546875 c 0.96875,0 1.0625,0.4375 1.0625,1.171875 h 0.46875 v -2.8125 h -0.46875 c 0,0.75 -0.09375,1.171875 -1.0625,1.171875 H 2.875 v -2.5625 h 1.515625 c 1.609375,0 1.875,0.734375 2.03125,1.9375 h 0.46875 l -0.3125,-2.40625 h -6.1875 V -6.3125 H 1.46875 v 5.84375 H 0.390625 V 0 H 6.75 Z m 0,0"
           id="id-92d8be93-eaba-4295-8a8e-8fbb48e35a98-6" />
      </symbol>
    </g>
    <g
       id="id-4ae070ee-56d2-4c83-8cad-337ebd223c97-9">
      <symbol
         overflow="visible"
         id="id-f95c8e2a-f697-4998-b07f-da045d139442-3">
        <path
           style="stroke:none;stroke-width:0"
           d=""
           id="id-160edfb2-322b-4c6d-8af1-80b2d43b96ce-6" />
      </symbol>
      <symbol
         overflow="visible"
         id="id-48ece8c1-aeab-4cf9-8a38-34f2db6ce59a-0">
        <path
           style="stroke:none;stroke-width:0"
           d="m 7.203125,-2.734375 h -0.46875 c -0.21875,1.375 -0.5,2.265625 -2.34375,2.265625 H 2.875 v -2.8125 h 0.546875 c 0.96875,0 1.0625,0.4375 1.0625,1.171875 h 0.46875 v -2.8125 h -0.46875 c 0,0.75 -0.09375,1.171875 -1.0625,1.171875 H 2.875 v -2.5625 h 1.515625 c 1.609375,0 1.875,0.734375 2.03125,1.9375 h 0.46875 l -0.3125,-2.40625 h -6.1875 V -6.3125 H 1.46875 v 5.84375 H 0.390625 V 0 H 6.75 Z m 0,0"
           id="id-92d8be93-eaba-4295-8a8e-8fbb48e35a98-62" />
      </symbol>
    </g>
    <g
       id="g1823-0">
      <symbol
         overflow="visible"
         id="symbol1817-2">
        <path
           style="stroke:none;stroke-width:0"
           d=""
           id="path1815-3" />
      </symbol>
      <symbol
         overflow="visible"
         id="symbol1821-7">
        <path
           style="stroke:none;stroke-width:0"
           d="m 7.203125,-2.734375 h -0.46875 c -0.21875,1.375 -0.5,2.265625 -2.34375,2.265625 H 2.875 v -2.8125 h 0.546875 c 0.96875,0 1.0625,0.4375 1.0625,1.171875 h 0.46875 v -2.8125 h -0.46875 c 0,0.75 -0.09375,1.171875 -1.0625,1.171875 H 2.875 v -2.5625 h 1.515625 c 1.609375,0 1.875,0.734375 2.03125,1.9375 h 0.46875 l -0.3125,-2.40625 h -6.1875 V -6.3125 H 1.46875 v 5.84375 H 0.390625 V 0 H 6.75 Z m 0,0"
           id="path1819-5" />
      </symbol>
    </g>
    <g
       id="id-88f7365f-a58b-47e5-b131-2e330d5b242c-3"
       style="fill:#ff0000;stroke-width:0">
      <symbol
         overflow="visible"
         id="id-18e75446-a62b-4241-90ea-daeab44e5f8b-6"
         style="fill:#ff0000;stroke-width:0">
        <path
           style="fill:#ff0000;stroke:#ff0000;stroke-width:0"
           d=""
           id="id-351e9fdd-5624-4de6-8100-75bf7649dcfc-1" />
      </symbol>
      <symbol
         overflow="visible"
         id="id-2bebcf5c-4e53-46bf-9d32-3e8dfcafed2d-2"
         style="fill:#ff0000;stroke-width:0">
        <path
           style="fill:#ff0000;stroke:#ff0000;stroke-width:0"
           d="m 6.734375,-4.375 -0.3125,-2.40625 H 0.390625 V -6.3125 H 1.46875 v 5.84375 H 0.390625 V 0 c 0.375,-0.03125 1.390625,-0.03125 1.828125,-0.03125 0.484375,0 1.5625,0 2.015625,0.03125 V -0.46875 H 2.875 v -2.6875 h 0.5 c 0.96875,0 1.046875,0.421875 1.046875,1.15625 h 0.46875 V -4.796875 H 4.421875 C 4.421875,-4.0625 4.34375,-3.625 3.375,-3.625 h -0.5 v -2.6875 h 1.40625 c 1.59375,0 1.828125,0.765625 1.984375,1.9375 z m 0,0"
           id="id-6cdc4785-75b9-4441-9af0-2cd656090bd2-9" />
      </symbol>
    </g>
    <g
       id="id-0a9d25e3-03ca-4cf1-a812-10e1ace24459-4">
      <symbol
         overflow="visible"
         id="id-109f11c9-4b41-418e-948e-e743f767d490-5">
        <path
           style="stroke:none;stroke-width:0"
           d=""
           id="id-13d34ee0-3ffb-4705-b378-eea4e7e2aaa9-0" />
      </symbol>
      <symbol
         overflow="visible"
         id="id-e504a924-ff35-4935-bf62-3b2f73aa75c8-3">
        <path
           style="stroke:none;stroke-width:0"
           d="m 6.125,0 v -0.46875 c -0.609375,0 -0.6875,0 -0.6875,-0.390625 v -3.625 L 3.625,-4.40625 v 0.46875 c 0.609375,0 0.6875,0 0.6875,0.390625 v 1.90625 c 0,0.8125 -0.515625,1.34375 -1.234375,1.34375 -0.78125,0 -0.8125,-0.25 -0.8125,-0.796875 v -3.390625 l -1.8125,0.078125 v 0.46875 c 0.609375,0 0.6875,0 0.6875,0.390625 v 2.328125 c 0,1.0625 0.796875,1.28125 1.796875,1.28125 0.25,0 0.96875,0 1.421875,-0.78125 V 0.0625 Z m 0,0"
           id="id-c18551b6-9c39-441d-a8b3-460288c35a58-6" />
      </symbol>
      <symbol
         overflow="visible"
         id="id-68343686-974c-44a3-94e5-d55862edb48e-1">
        <path
           style="stroke:none;stroke-width:0"
           d=""
           id="id-cdc8f87f-c786-4e2a-a0c1-33f8689a2fde-0" />
      </symbol>
      <symbol
         overflow="visible"
         id="id-f22e4ee8-c3ce-4f21-8af5-912e85624780-6">
        <path
           style="stroke:none;stroke-width:0"
           d="M 3.296875,0 V -0.25 H 3.03125 c -0.703125,0 -0.703125,-0.09375 -0.703125,-0.328125 V -4.4375 c 0,-0.1875 0,-0.1875 -0.203125,-0.1875 -0.453125,0.4375 -1.078125,0.4375 -1.359375,0.4375 v 0.25 c 0.15625,0 0.625,0 1,-0.1875 v 3.546875 c 0,0.234375 0,0.328125 -0.6875,0.328125 H 0.8125 V 0 l 1.234375,-0.03125 z m 0,0"
           id="id-5c8a87d4-ebbd-468c-9318-d29045b26c57-3" />
      </symbol>
      <symbol
         overflow="visible"
         id="id-624ebc22-a254-4f39-8029-1ef3e113fdc9-2">
        <path
           style="stroke:none;stroke-width:0"
           d=""
           id="id-ba057f1c-7e3f-4200-ac41-67598285e683-0" />
      </symbol>
      <symbol
         overflow="visible"
         id="id-c25cd03f-68c2-4ad5-8b2e-9ede4e9613e7-6">
        <path
           style="stroke:none;stroke-width:0"
           d="m 5.8125,-3.671875 c 0,-0.59375 -0.578125,-1.09375 -1.53125,-1.09375 h -2.4375 c -0.140625,0 -0.21875,0 -0.21875,0.15625 0,0.09375 0.078125,0.09375 0.234375,0.09375 0.109375,0 0.140625,0 0.265625,0.015625 0.140625,0.015625 0.140625,0.03125 0.140625,0.109375 0,0 0,0.046875 -0.015625,0.140625 L 1.328125,-0.578125 C 1.25,-0.296875 1.25,-0.25 0.703125,-0.25 0.578125,-0.25 0.5,-0.25 0.5,-0.09375 0.5,-0.09375 0.5,0 0.609375,0 0.8125,0 1.3125,-0.03125 1.515625,-0.03125 1.625,-0.03125 1.875,-0.03125 2,-0.015625 2.125,-0.015625 2.3125,0 2.4375,0 2.484375,0 2.578125,0 2.578125,-0.15625 2.578125,-0.25 2.5,-0.25 2.359375,-0.25 c 0,0 -0.140625,0 -0.265625,-0.015625 C 1.9375,-0.28125 1.9375,-0.296875 1.9375,-0.375 c 0,0 0,-0.046875 0.03125,-0.140625 L 2.375,-2.15625 h 1.265625 c 1.171875,0 2.171875,-0.75 2.171875,-1.515625 z M 5.09375,-3.8125 c 0,0.203125 -0.078125,0.765625 -0.421875,1.078125 -0.25,0.21875 -0.65625,0.34375 -1.15625,0.34375 H 2.40625 l 0.46875,-1.875 c 0.0625,-0.21875 0.0625,-0.25 0.359375,-0.25 h 0.8125 c 0.65625,0 1.046875,0.203125 1.046875,0.703125 z m 0,0"
           id="id-24ef8586-92d6-433b-971f-0741b7606986-1" />
      </symbol>
    </g>
    <g
       id="id-2aa73dae-6065-4273-8817-1a8adab3f638-2">
      <symbol
         overflow="visible"
         id="id-d0b7dd16-f84b-4635-a649-3318385c3848-5">
        <path
           style="stroke:none;stroke-width:0"
           d=""
           id="id-1a35f0f6-f375-4add-9bfb-1c876c14ddb8-4" />
      </symbol>
      <symbol
         overflow="visible"
         id="id-1c8ff67e-a4c2-44f6-ac9c-bf7a7c69048d-7">
        <path
           style="stroke:none;stroke-width:0"
           d="M 3.828125,1.734375 C 3.828125,1.625 3.734375,1.625 3.5625,1.625 3.09375,1.625 3.09375,1.5625 3.09375,1.46875 3.09375,1.390625 3.109375,1.328125 3.125,1.25 L 4.5,-4.296875 c 0,-0.046875 -0.03125,-0.09375 -0.09375,-0.09375 -0.109375,0 -0.515625,0.390625 -0.671875,0.6875 C 3.515625,-4.25 3.125,-4.40625 2.796875,-4.40625 c -1.171875,0 -2.390625,1.46875 -2.390625,2.921875 0,0.96875 0.578125,1.59375 1.3125,1.59375 0.421875,0 0.8125,-0.234375 1.171875,-0.59375 L 2.4375,1.296875 C 2.359375,1.578125 2.28125,1.609375 1.71875,1.625 1.59375,1.625 1.5,1.625 1.5,1.828125 c 0,0 0,0.109375 0.125,0.109375 0.3125,0 0.671875,-0.03125 1,-0.03125 0.328125,0 0.6875,0.03125 1.03125,0.03125 0.046875,0 0.171875,0 0.171875,-0.203125 z M 3.59375,-3.3125 c 0,0.0625 -0.546875,2.25 -0.578125,2.28125 C 2.859375,-0.75 2.296875,-0.109375 1.75,-0.109375 c -0.609375,0 -0.640625,-0.765625 -0.640625,-0.9375 0,-0.484375 0.28125,-1.5625 0.453125,-1.984375 0.3125,-0.734375 0.828125,-1.15625 1.234375,-1.15625 0.65625,0 0.796875,0.8125 0.796875,0.875 z m 0,0"
           id="id-496fb859-1183-4bc1-a606-aa27c68014e6-4" />
      </symbol>
      <symbol
         overflow="visible"
         id="id-07e79972-02c7-4a01-8d8d-c18f6044c82a-4">
        <path
           style="stroke:none;stroke-width:0"
           d=""
           id="id-666ffe62-d0f2-418d-a163-5af12173b554-3" />
      </symbol>
      <symbol
         overflow="visible"
         id="id-0c5bdf84-56e0-44a5-8bf1-14610c6d1b1a-0">
        <path
           style="stroke:none;stroke-width:0"
           d="m 3.96875,-2.59375 c 0.078125,-0.5 -0.359375,-0.984375 -1.171875,-0.984375 H 0.90625 L 0.890625,-3.40625 c 0.46875,0 0.484375,0.046875 0.4375,0.328125 L 0.90625,-0.5 c -0.0625,0.28125 -0.09375,0.328125 -0.5625,0.328125 L 0.3125,0 1.078125,-0.015625 1.8125,0 1.84375,-0.171875 C 1.375,-0.171875 1.359375,-0.21875 1.40625,-0.5 l 0.1875,-1.125 h 0.921875 c 0.703125,0 1.359375,-0.4375 1.453125,-0.96875 z m -0.609375,0 c -0.03125,0.265625 -0.125,0.796875 -1,0.796875 H 1.59375 l 0.21875,-1.3125 C 1.859375,-3.390625 1.90625,-3.40625 2.140625,-3.40625 H 2.625 c 0.875,0 0.796875,0.53125 0.734375,0.8125 z m 0,0"
           id="id-0356ef81-2cd7-4641-a3d7-f7af8a6add81-7" />
      </symbol>
    </g>
  </defs>
  <g
     inkscape:label="Capa 1"
     inkscape:groupmode="layer"
     id="layer1">
    <circle
       style="fill:url(#radialGradient1596);fill-opacity:1;stroke:none;stroke-width:1.74186;stroke-miterlimit:4;stroke-dasharray:none;stroke-opacity:0.995475"
       id="path43-1-6"
       cx="29.427593"
       cy="107.91999"
       r="29.189178" />
    <g
       id="g10757-9"
       transform="matrix(0.49640246,0,0,0.49640246,14.861241,66.548954)">
      <circle
         style="fill:#ff6600;stroke:#ff6600;stroke-width:0.495141;stroke-miterlimit:4;stroke-dasharray:none;stroke-opacity:0.995475"
         id="path43-1"
         cx="29.343834"
         cy="83.341721"
         r="8.2973366" />
      <text
         xml:space="preserve"
         style="font-size:16.9333px;line-height:21.8966px;font-family:'Accanthis ADF Std No3';-inkscape-font-specification:'Accanthis ADF Std No3';letter-spacing:0px;word-spacing:0px;fill:none;stroke:#000000;stroke-width:0.264583px;stroke-linecap:butt;stroke-linejoin:miter;stroke-opacity:1"
         x="25.051243"
         y="87.067047"
         id="text6296-2"><tspan
           sodipodi:role="line"
           id="tspan6294-7"
           style="font-size:16.9333px;fill:#000000;stroke-width:0.264583px"
           x="25.051243"
           y="87.067047">+</tspan></text>
    </g>
    <circle
       style="fill:url(#radialGradient1596-3);fill-opacity:1;stroke:none;stroke-width:1.74186;stroke-miterlimit:4;stroke-dasharray:none;stroke-opacity:0.995475"
       id="path43-1-6-9"
       cx="105.14342"
       cy="107.04896"
       r="29.189178" />
    <path
       style="fill:none;fill-rule:evenodd;stroke:#000000;stroke-width:0.4;stroke-linecap:butt;stroke-linejoin:miter;stroke-miterlimit:4;stroke-dasharray:none;stroke-opacity:1;marker-end:url(#Arrow1Mend-8-5)"
       d="m 105.08639,107.10789 6.95561,-4.52501"
       id="path4185-9-5"
       sodipodi:nodetypes="cc"
       inkscape:transform-center-x="-3.4097116"
       inkscape:transform-center-y="-2.2451075" />
    <g
       id="g10757-9-3"
       transform="matrix(0.49640246,0,0,0.49640246,90.577066,65.677923)">
      <circle
         style="fill:#ff6600;stroke:#ff6600;stroke-width:0.495141;stroke-miterlimit:4;stroke-dasharray:none;stroke-opacity:0.995475"
         id="path43-1-67"
         cx="29.343834"
         cy="83.341721"
         r="8.2973366" />
      <text
         xml:space="preserve"
         style="font-size:16.9333px;line-height:21.8966px;font-family:'Accanthis ADF Std No3';-inkscape-font-specification:'Accanthis ADF Std No3';letter-spacing:0px;word-spacing:0px;fill:none;stroke:#000000;stroke-width:0.264583px;stroke-linecap:butt;stroke-linejoin:miter;stroke-opacity:1"
         x="25.051243"
         y="87.067047"
         id="text6296-2-5"><tspan
           sodipodi:role="line"
           id="tspan6294-7-3"
           style="font-size:16.9333px;fill:#000000;stroke-width:0.264583px"
           x="25.051243"
           y="87.067047">+</tspan></text>
    </g>
    <path
       style="fill:none;fill-rule:evenodd;stroke:#ff0000;stroke-width:0.75;stroke-linecap:butt;stroke-linejoin:miter;stroke-miterlimit:4;stroke-dasharray:none;stroke-opacity:1;marker-end:url(#Arrow1Mend-3-3-37-3)"
       d="m 124.14379,94.67652 10.46126,-6.990711"
       id="path1345-7-7-9-7"
       sodipodi:nodetypes="cc"
       inkscape:transform-center-x="-5.2748785"
       inkscape:transform-center-y="-3.4961903" />
    <circle
       style="fill:#ff6600;stroke:#ff6600;stroke-width:0.245789;stroke-miterlimit:4;stroke-dasharray:none;stroke-opacity:0.995475"
       id="path43-1-2-3"
       cx="123.81664"
       cy="94.494759"
       r="4.1188183" />
    <circle
       style="fill:url(#radialGradient1596-3-7);fill-opacity:1;stroke:none;stroke-width:1.74186;stroke-miterlimit:4;stroke-dasharray:none;stroke-opacity:0.995475"
       id="path43-1-6-9-2"
       cx="180.79637"
       cy="106.70055"
       r="29.189178" />
    <path
       style="fill:none;fill-rule:evenodd;stroke:#000000;stroke-width:0.4;stroke-linecap:butt;stroke-linejoin:miter;stroke-miterlimit:4;stroke-dasharray:none;stroke-opacity:1;marker-end:url(#Arrow1Mend-8)"
       d="m 180.73423,106.71357 6.4261,5.2499"
       id="path4185-9"
       sodipodi:nodetypes="cc" />
    <g
       id="g10757-9-5"
       transform="matrix(0.49640246,0,0,0.49640246,166.23002,65.329511)">
      <circle
         style="fill:#ff6600;stroke:#ff6600;stroke-width:0.495141;stroke-miterlimit:4;stroke-dasharray:none;stroke-opacity:0.995475"
         id="path43-1-62"
         cx="29.343834"
         cy="83.341721"
         r="8.2973366" />
      <text
         xml:space="preserve"
         style="font-size:16.9333px;line-height:21.8966px;font-family:'Accanthis ADF Std No3';-inkscape-font-specification:'Accanthis ADF Std No3';letter-spacing:0px;word-spacing:0px;fill:none;stroke:#000000;stroke-width:0.264583px;stroke-linecap:butt;stroke-linejoin:miter;stroke-opacity:1"
         x="25.051243"
         y="87.067047"
         id="text6296-2-9"><tspan
           sodipodi:role="line"
           id="tspan6294-7-1"
           style="font-size:16.9333px;fill:#000000;stroke-width:0.264583px"
           x="25.051243"
           y="87.067047">+</tspan></text>
    </g>
    <path
       style="fill:none;fill-rule:evenodd;stroke:#ff0000;stroke-width:0.75;stroke-linecap:butt;stroke-linejoin:miter;stroke-miterlimit:4;stroke-dasharray:none;stroke-opacity:1;marker-end:url(#Arrow1Mend-3-3-37)"
       d="m 199.06033,121.69941 -9.7053,-8.0072"
       id="path1345-7-7-9"
       sodipodi:nodetypes="cc" />
    <circle
       style="fill:#ffff00;stroke:#ffff00;stroke-width:0.245789;stroke-miterlimit:4;stroke-dasharray:none;stroke-opacity:0.995475"
       id="path43-1-2-3-8"
       cx="199.90364"
       cy="122.44491"
       r="4.1188183" />
    <g
       transform="matrix(0.846667,0,0,0.846667,10.208178,90.933347)"
       ns1:version="1.8.2"
       ns1:texconverter="pdflatex"
       ns1:pdfconverter="inkscape"
       ns1:text="$\\vec{E}$"
       ns1:preamble="/media/topo/TOSEXT4/doctorado/upm/docencia/libros-apuntes/apuntes-fisica/figuras/TexText/preambulo_textext.tex"
       ns1:scale="2.4"
       ns1:alignment="middle center"
       ns1:stroke-to-path="0"
       ns1:inkscapeversion="1.1.1"
       ns1:jacobian_sqrt="0.846667"
       id="g682"
       style="fill:#ff0000">
      <defs
         id="id-e0cf94c9-8327-468b-a889-e599b928c5d4">
        <g
           id="id-4ae070ee-56d2-4c83-8cad-337ebd223c97">
          <symbol
             overflow="visible"
             id="id-f95c8e2a-f697-4998-b07f-da045d139442">
            <path
               style="stroke:none;stroke-width:0"
               d=""
               id="id-160edfb2-322b-4c6d-8af1-80b2d43b96ce" />
          </symbol>
          <symbol
             overflow="visible"
             id="id-48ece8c1-aeab-4cf9-8a38-34f2db6ce59a">
            <path
               style="stroke:none;stroke-width:0"
               d="m 7.203125,-2.734375 h -0.46875 c -0.21875,1.375 -0.5,2.265625 -2.34375,2.265625 H 2.875 v -2.8125 h 0.546875 c 0.96875,0 1.0625,0.4375 1.0625,1.171875 h 0.46875 v -2.8125 h -0.46875 c 0,0.75 -0.09375,1.171875 -1.0625,1.171875 H 2.875 v -2.5625 h 1.515625 c 1.609375,0 1.875,0.734375 2.03125,1.9375 h 0.46875 l -0.3125,-2.40625 h -6.1875 V -6.3125 H 1.46875 v 5.84375 H 0.390625 V 0 H 6.75 Z m 0,0"
               id="id-92d8be93-eaba-4295-8a8e-8fbb48e35a98" />
          </symbol>
        </g>
      </defs>
      <g
         id="id-d635fca2-9016-4e84-af61-77f8f9918e48"
         transform="translate(-149.103,-127.984)"
         style="fill:#ff0000">
        <g
           style="fill:#ff0000;fill-opacity:1"
           id="id-a535ca7d-943b-41cd-9b96-2cb3bf1f8caa">
          <g
             transform="translate(148.712,134.765)"
             id="g678"
             style="fill:#ff0000">
            <path
               style="fill:#ff0000;stroke:none;stroke-width:0"
               d="m 7.203125,-2.734375 h -0.46875 c -0.21875,1.375 -0.5,2.265625 -2.34375,2.265625 H 2.875 v -2.8125 h 0.546875 c 0.96875,0 1.0625,0.4375 1.0625,1.171875 h 0.46875 v -2.8125 h -0.46875 c 0,0.75 -0.09375,1.171875 -1.0625,1.171875 H 2.875 v -2.5625 h 1.515625 c 1.609375,0 1.875,0.734375 2.03125,1.9375 h 0.46875 l -0.3125,-2.40625 h -6.1875 V -6.3125 H 1.46875 v 5.84375 H 0.390625 V 0 H 6.75 Z m 0,0"
               id="id-ecd6da6a-cc12-4fa0-b1f7-d4e562755583" />
          </g>
        </g>
      </g>
    </g>
    <g
       transform="matrix(0.846667,0,0,0.846667,84.778536,90.933347)"
       ns1:version="1.8.2"
       ns1:texconverter="pdflatex"
       ns1:pdfconverter="inkscape"
       ns1:text="$\\vec{E}$"
       ns1:preamble="/media/topo/TOSEXT4/doctorado/upm/docencia/libros-apuntes/apuntes-fisica/figuras/TexText/preambulo_textext.tex"
       ns1:scale="2.4"
       ns1:alignment="middle center"
       ns1:stroke-to-path="0"
       ns1:inkscapeversion="1.1.1"
       ns1:jacobian_sqrt="0.846667"
       id="g682-3"
       style="fill:#ff0000">
      <defs
         id="id-e0cf94c9-8327-468b-a889-e599b928c5d4-6">
        <g
           id="g1640">
          <symbol
             overflow="visible"
             id="symbol1634">
            <path
               style="stroke:none;stroke-width:0"
               d=""
               id="path1632" />
          </symbol>
          <symbol
             overflow="visible"
             id="symbol1638">
            <path
               style="stroke:none;stroke-width:0"
               d="m 7.203125,-2.734375 h -0.46875 c -0.21875,1.375 -0.5,2.265625 -2.34375,2.265625 H 2.875 v -2.8125 h 0.546875 c 0.96875,0 1.0625,0.4375 1.0625,1.171875 h 0.46875 v -2.8125 h -0.46875 c 0,0.75 -0.09375,1.171875 -1.0625,1.171875 H 2.875 v -2.5625 h 1.515625 c 1.609375,0 1.875,0.734375 2.03125,1.9375 h 0.46875 l -0.3125,-2.40625 h -6.1875 V -6.3125 H 1.46875 v 5.84375 H 0.390625 V 0 H 6.75 Z m 0,0"
               id="path1636" />
          </symbol>
        </g>
      </defs>
      <g
         id="id-d635fca2-9016-4e84-af61-77f8f9918e48-2"
         transform="translate(-149.103,-127.984)"
         style="fill:#ff0000">
        <g
           style="fill:#ff0000;fill-opacity:1"
           id="id-a535ca7d-943b-41cd-9b96-2cb3bf1f8caa-9">
          <g
             transform="translate(148.712,134.765)"
             id="g678-1"
             style="fill:#ff0000">
            <path
               style="fill:#ff0000;stroke:none;stroke-width:0"
               d="m 7.203125,-2.734375 h -0.46875 c -0.21875,1.375 -0.5,2.265625 -2.34375,2.265625 H 2.875 v -2.8125 h 0.546875 c 0.96875,0 1.0625,0.4375 1.0625,1.171875 h 0.46875 v -2.8125 h -0.46875 c 0,0.75 -0.09375,1.171875 -1.0625,1.171875 H 2.875 v -2.5625 h 1.515625 c 1.609375,0 1.875,0.734375 2.03125,1.9375 h 0.46875 l -0.3125,-2.40625 h -6.1875 V -6.3125 H 1.46875 v 5.84375 H 0.390625 V 0 H 6.75 Z m 0,0"
               id="id-ecd6da6a-cc12-4fa0-b1f7-d4e562755583-2" />
          </g>
        </g>
      </g>
    </g>
    <g
       transform="matrix(0.846667,0,0,0.846667,160.85617,90.933347)"
       ns1:version="1.8.2"
       ns1:texconverter="pdflatex"
       ns1:pdfconverter="inkscape"
       ns1:text="$\\vec{E}$"
       ns1:preamble="/media/topo/TOSEXT4/doctorado/upm/docencia/libros-apuntes/apuntes-fisica/figuras/TexText/preambulo_textext.tex"
       ns1:scale="2.4"
       ns1:alignment="middle center"
       ns1:stroke-to-path="0"
       ns1:inkscapeversion="1.1.1"
       ns1:jacobian_sqrt="0.846667"
       id="g682-7"
       style="fill:#ff0000">
      <defs
         id="id-e0cf94c9-8327-468b-a889-e599b928c5d4-0">
        <g
           id="g1823">
          <symbol
             overflow="visible"
             id="symbol1817">
            <path
               style="stroke:none;stroke-width:0"
               d=""
               id="path1815" />
          </symbol>
          <symbol
             overflow="visible"
             id="symbol1821">
            <path
               style="stroke:none;stroke-width:0"
               d="m 7.203125,-2.734375 h -0.46875 c -0.21875,1.375 -0.5,2.265625 -2.34375,2.265625 H 2.875 v -2.8125 h 0.546875 c 0.96875,0 1.0625,0.4375 1.0625,1.171875 h 0.46875 v -2.8125 h -0.46875 c 0,0.75 -0.09375,1.171875 -1.0625,1.171875 H 2.875 v -2.5625 h 1.515625 c 1.609375,0 1.875,0.734375 2.03125,1.9375 h 0.46875 l -0.3125,-2.40625 h -6.1875 V -6.3125 H 1.46875 v 5.84375 H 0.390625 V 0 H 6.75 Z m 0,0"
               id="path1819" />
          </symbol>
        </g>
      </defs>
      <g
         id="id-d635fca2-9016-4e84-af61-77f8f9918e48-6"
         transform="translate(-149.103,-127.984)"
         style="fill:#ff0000">
        <g
           style="fill:#ff0000;fill-opacity:1"
           id="id-a535ca7d-943b-41cd-9b96-2cb3bf1f8caa-1">
          <g
             transform="translate(148.712,134.765)"
             id="g678-8"
             style="fill:#ff0000">
            <path
               style="fill:#ff0000;stroke:none;stroke-width:0"
               d="m 7.203125,-2.734375 h -0.46875 c -0.21875,1.375 -0.5,2.265625 -2.34375,2.265625 H 2.875 v -2.8125 h 0.546875 c 0.96875,0 1.0625,0.4375 1.0625,1.171875 h 0.46875 v -2.8125 h -0.46875 c 0,0.75 -0.09375,1.171875 -1.0625,1.171875 H 2.875 v -2.5625 h 1.515625 c 1.609375,0 1.875,0.734375 2.03125,1.9375 h 0.46875 l -0.3125,-2.40625 h -6.1875 V -6.3125 H 1.46875 v 5.84375 H 0.390625 V 0 H 6.75 Z m 0,0"
               id="id-ecd6da6a-cc12-4fa0-b1f7-d4e562755583-7" />
          </g>
        </g>
      </g>
    </g>
    <g
       transform="matrix(0.846667,0,0,0.846667,127.32185,81.027888)"
       ns1:version="1.8.2"
       ns1:texconverter="pdflatex"
       ns1:pdfconverter="inkscape"
       ns1:text="$\\vec{F}$"
       ns1:preamble="/media/topo/TOSEXT4/doctorado/upm/docencia/libros-apuntes/apuntes-fisica/figuras/TexText/preambulo_textext.tex"
       ns1:scale="2.4"
       ns1:alignment="middle center"
       ns1:stroke-to-path="0"
       ns1:inkscapeversion="1.1.1"
       ns1:jacobian_sqrt="0.846667"
       style="fill:#ff0000;stroke-width:0"
       id="g682-7-9">
      <defs
         id="id-c32c65c5-2f47-49ec-8888-8a308529437d"
         style="fill:#ff0000;stroke-width:0">
        <g
           id="id-88f7365f-a58b-47e5-b131-2e330d5b242c"
           style="fill:#ff0000;stroke-width:0">
          <symbol
             overflow="visible"
             id="id-18e75446-a62b-4241-90ea-daeab44e5f8b"
             style="fill:#ff0000;stroke-width:0">
            <path
               style="fill:#ff0000;stroke:#ff0000;stroke-width:0"
               d=""
               id="id-351e9fdd-5624-4de6-8100-75bf7649dcfc" />
          </symbol>
          <symbol
             overflow="visible"
             id="id-2bebcf5c-4e53-46bf-9d32-3e8dfcafed2d"
             style="fill:#ff0000;stroke-width:0">
            <path
               style="fill:#ff0000;stroke:#ff0000;stroke-width:0"
               d="m 6.734375,-4.375 -0.3125,-2.40625 H 0.390625 V -6.3125 H 1.46875 v 5.84375 H 0.390625 V 0 c 0.375,-0.03125 1.390625,-0.03125 1.828125,-0.03125 0.484375,0 1.5625,0 2.015625,0.03125 V -0.46875 H 2.875 v -2.6875 h 0.5 c 0.96875,0 1.046875,0.421875 1.046875,1.15625 h 0.46875 V -4.796875 H 4.421875 C 4.421875,-4.0625 4.34375,-3.625 3.375,-3.625 h -0.5 v -2.6875 h 1.40625 c 1.59375,0 1.828125,0.765625 1.984375,1.9375 z m 0,0"
               id="id-6cdc4785-75b9-4441-9af0-2cd656090bd2" />
          </symbol>
        </g>
      </defs>
      <g
         id="id-c2c24ff6-c507-4365-990d-f4844ea79949"
         transform="translate(-149.103,-127.984)"
         style="fill:#ff0000;stroke-width:0">
        <g
           style="fill:#ff0000;fill-opacity:1;stroke-width:0"
           id="id-5fd6ae9b-2a19-4a55-a7fe-c288184a2a51">
          <g
             transform="translate(148.712,134.765)"
             style="fill:#ff0000;stroke-width:0"
             id="g2467">
            <path
               style="fill:#ff0000;stroke:#ff0000;stroke-width:0"
               d="m 6.734375,-4.375 -0.3125,-2.40625 H 0.390625 V -6.3125 H 1.46875 v 5.84375 H 0.390625 V 0 c 0.375,-0.03125 1.390625,-0.03125 1.828125,-0.03125 0.484375,0 1.5625,0 2.015625,0.03125 V -0.46875 H 2.875 v -2.6875 h 0.5 c 0.96875,0 1.046875,0.421875 1.046875,1.15625 h 0.46875 V -4.796875 H 4.421875 C 4.421875,-4.0625 4.34375,-3.625 3.375,-3.625 h -0.5 v -2.6875 h 1.40625 c 1.59375,0 1.828125,0.765625 1.984375,1.9375 z m 0,0"
               id="id-116faea8-3f80-4496-950f-8876f9540f32" />
          </g>
        </g>
      </g>
    </g>
    <g
       transform="matrix(0.846667,0,0,0.846667,194.73144,108.66621)"
       ns1:version="1.8.2"
       ns1:texconverter="pdflatex"
       ns1:pdfconverter="inkscape"
       ns1:text="$\\vec{F}$"
       ns1:preamble="/media/topo/TOSEXT4/doctorado/upm/docencia/libros-apuntes/apuntes-fisica/figuras/TexText/preambulo_textext.tex"
       ns1:scale="2.4"
       ns1:alignment="middle center"
       ns1:stroke-to-path="0"
       ns1:inkscapeversion="1.1.1"
       ns1:jacobian_sqrt="0.846667"
       style="fill:#ff0000;stroke-width:0"
       id="g682-7-9-9">
      <defs
         id="id-c32c65c5-2f47-49ec-8888-8a308529437d-7"
         style="fill:#ff0000;stroke-width:0">
        <g
           id="g2787"
           style="fill:#ff0000;stroke-width:0">
          <symbol
             overflow="visible"
             id="symbol2781"
             style="fill:#ff0000;stroke-width:0">
            <path
               style="fill:#ff0000;stroke:#ff0000;stroke-width:0"
               d=""
               id="path2779" />
          </symbol>
          <symbol
             overflow="visible"
             id="symbol2785"
             style="fill:#ff0000;stroke-width:0">
            <path
               style="fill:#ff0000;stroke:#ff0000;stroke-width:0"
               d="m 6.734375,-4.375 -0.3125,-2.40625 H 0.390625 V -6.3125 H 1.46875 v 5.84375 H 0.390625 V 0 c 0.375,-0.03125 1.390625,-0.03125 1.828125,-0.03125 0.484375,0 1.5625,0 2.015625,0.03125 V -0.46875 H 2.875 v -2.6875 h 0.5 c 0.96875,0 1.046875,0.421875 1.046875,1.15625 h 0.46875 V -4.796875 H 4.421875 C 4.421875,-4.0625 4.34375,-3.625 3.375,-3.625 h -0.5 v -2.6875 h 1.40625 c 1.59375,0 1.828125,0.765625 1.984375,1.9375 z m 0,0"
               id="path2783" />
          </symbol>
        </g>
      </defs>
      <g
         id="id-c2c24ff6-c507-4365-990d-f4844ea79949-3"
         transform="translate(-149.103,-127.984)"
         style="fill:#ff0000;stroke-width:0">
        <g
           style="fill:#ff0000;fill-opacity:1;stroke-width:0"
           id="id-5fd6ae9b-2a19-4a55-a7fe-c288184a2a51-1">
          <g
             transform="translate(148.712,134.765)"
             style="fill:#ff0000;stroke-width:0"
             id="g2467-9">
            <path
               style="fill:#ff0000;stroke:#ff0000;stroke-width:0"
               d="m 6.734375,-4.375 -0.3125,-2.40625 H 0.390625 V -6.3125 H 1.46875 v 5.84375 H 0.390625 V 0 c 0.375,-0.03125 1.390625,-0.03125 1.828125,-0.03125 0.484375,0 1.5625,0 2.015625,0.03125 V -0.46875 H 2.875 v -2.6875 h 0.5 c 0.96875,0 1.046875,0.421875 1.046875,1.15625 h 0.46875 V -4.796875 H 4.421875 C 4.421875,-4.0625 4.34375,-3.625 3.375,-3.625 h -0.5 v -2.6875 h 1.40625 c 1.59375,0 1.828125,0.765625 1.984375,1.9375 z m 0,0"
               id="id-116faea8-3f80-4496-950f-8876f9540f32-4" />
          </g>
        </g>
      </g>
    </g>
    <g
       transform="matrix(0.846667,0,0,0.846667,111.96712,104.92886)"
       ns1:version="1.8.2"
       ns1:texconverter="pdflatex"
       ns1:pdfconverter="inkscape"
       ns1:text="$\\vec{u}_{1P}$"
       ns1:preamble="/media/topo/TOSEXT4/doctorado/upm/docencia/libros-apuntes/apuntes-fisica/figuras/TexText/preambulo_textext.tex"
       ns1:scale="2.4"
       ns1:alignment="middle center"
       ns1:stroke-to-path="0"
       ns1:inkscapeversion="1.1.1"
       ns1:jacobian_sqrt="0.846667"
       id="g3276">
      <defs
         id="id-2d8421f9-b0fa-44f9-9364-3516d59b092c">
        <g
           id="id-0a9d25e3-03ca-4cf1-a812-10e1ace24459">
          <symbol
             overflow="visible"
             id="id-109f11c9-4b41-418e-948e-e743f767d490">
            <path
               style="stroke:none;stroke-width:0"
               d=""
               id="id-13d34ee0-3ffb-4705-b378-eea4e7e2aaa9" />
          </symbol>
          <symbol
             overflow="visible"
             id="id-e504a924-ff35-4935-bf62-3b2f73aa75c8">
            <path
               style="stroke:none;stroke-width:0"
               d="m 6.125,0 v -0.46875 c -0.609375,0 -0.6875,0 -0.6875,-0.390625 v -3.625 L 3.625,-4.40625 v 0.46875 c 0.609375,0 0.6875,0 0.6875,0.390625 v 1.90625 c 0,0.8125 -0.515625,1.34375 -1.234375,1.34375 -0.78125,0 -0.8125,-0.25 -0.8125,-0.796875 v -3.390625 l -1.8125,0.078125 v 0.46875 c 0.609375,0 0.6875,0 0.6875,0.390625 v 2.328125 c 0,1.0625 0.796875,1.28125 1.796875,1.28125 0.25,0 0.96875,0 1.421875,-0.78125 V 0.0625 Z m 0,0"
               id="id-c18551b6-9c39-441d-a8b3-460288c35a58" />
          </symbol>
          <symbol
             overflow="visible"
             id="id-68343686-974c-44a3-94e5-d55862edb48e">
            <path
               style="stroke:none;stroke-width:0"
               d=""
               id="id-cdc8f87f-c786-4e2a-a0c1-33f8689a2fde" />
          </symbol>
          <symbol
             overflow="visible"
             id="id-f22e4ee8-c3ce-4f21-8af5-912e85624780">
            <path
               style="stroke:none;stroke-width:0"
               d="M 3.296875,0 V -0.25 H 3.03125 c -0.703125,0 -0.703125,-0.09375 -0.703125,-0.328125 V -4.4375 c 0,-0.1875 0,-0.1875 -0.203125,-0.1875 -0.453125,0.4375 -1.078125,0.4375 -1.359375,0.4375 v 0.25 c 0.15625,0 0.625,0 1,-0.1875 v 3.546875 c 0,0.234375 0,0.328125 -0.6875,0.328125 H 0.8125 V 0 l 1.234375,-0.03125 z m 0,0"
               id="id-5c8a87d4-ebbd-468c-9318-d29045b26c57" />
          </symbol>
          <symbol
             overflow="visible"
             id="id-624ebc22-a254-4f39-8029-1ef3e113fdc9">
            <path
               style="stroke:none;stroke-width:0"
               d=""
               id="id-ba057f1c-7e3f-4200-ac41-67598285e683" />
          </symbol>
          <symbol
             overflow="visible"
             id="id-c25cd03f-68c2-4ad5-8b2e-9ede4e9613e7">
            <path
               style="stroke:none;stroke-width:0"
               d="m 5.8125,-3.671875 c 0,-0.59375 -0.578125,-1.09375 -1.53125,-1.09375 h -2.4375 c -0.140625,0 -0.21875,0 -0.21875,0.15625 0,0.09375 0.078125,0.09375 0.234375,0.09375 0.109375,0 0.140625,0 0.265625,0.015625 0.140625,0.015625 0.140625,0.03125 0.140625,0.109375 0,0 0,0.046875 -0.015625,0.140625 L 1.328125,-0.578125 C 1.25,-0.296875 1.25,-0.25 0.703125,-0.25 0.578125,-0.25 0.5,-0.25 0.5,-0.09375 0.5,-0.09375 0.5,0 0.609375,0 0.8125,0 1.3125,-0.03125 1.515625,-0.03125 1.625,-0.03125 1.875,-0.03125 2,-0.015625 2.125,-0.015625 2.3125,0 2.4375,0 2.484375,0 2.578125,0 2.578125,-0.15625 2.578125,-0.25 2.5,-0.25 2.359375,-0.25 c 0,0 -0.140625,0 -0.265625,-0.015625 C 1.9375,-0.28125 1.9375,-0.296875 1.9375,-0.375 c 0,0 0,-0.046875 0.03125,-0.140625 L 2.375,-2.15625 h 1.265625 c 1.171875,0 2.171875,-0.75 2.171875,-1.515625 z M 5.09375,-3.8125 c 0,0.203125 -0.078125,0.765625 -0.421875,1.078125 -0.25,0.21875 -0.65625,0.34375 -1.15625,0.34375 H 2.40625 l 0.46875,-1.875 c 0.0625,-0.21875 0.0625,-0.25 0.359375,-0.25 h 0.8125 c 0.65625,0 1.046875,0.203125 1.046875,0.703125 z m 0,0"
               id="id-24ef8586-92d6-433b-971f-0741b7606986" />
          </symbol>
        </g>
      </defs>
      <g
         id="id-cabf9e4f-27d1-425a-aa52-647d1365fcb0"
         transform="translate(-149.165,-130.281)">
        <g
           style="fill:#000000;fill-opacity:1"
           id="id-78eb3ec6-048e-47b4-9bed-666aea0dd7d8">
          <g
             transform="translate(148.712,134.765)"
             id="g3264">
            <path
               style="stroke:none;stroke-width:0"
               d="m 6.125,0 v -0.46875 c -0.609375,0 -0.6875,0 -0.6875,-0.390625 v -3.625 L 3.625,-4.40625 v 0.46875 c 0.609375,0 0.6875,0 0.6875,0.390625 v 1.90625 c 0,0.8125 -0.515625,1.34375 -1.234375,1.34375 -0.78125,0 -0.8125,-0.25 -0.8125,-0.796875 v -3.390625 l -1.8125,0.078125 v 0.46875 c 0.609375,0 0.6875,0 0.6875,0.390625 v 2.328125 c 0,1.0625 0.796875,1.28125 1.796875,1.28125 0.25,0 0.96875,0 1.421875,-0.78125 V 0.0625 Z m 0,0"
               id="id-8e34cb11-0873-4f95-a8e6-c7bf4f93e32f" />
          </g>
        </g>
        <g
           style="fill:#000000;fill-opacity:1"
           id="id-5e51bcd7-c01d-4b2f-85f1-f099d67c3df7">
          <g
             transform="translate(155.077,136.259)"
             id="g3268">
            <path
               style="stroke:none;stroke-width:0"
               d="M 3.296875,0 V -0.25 H 3.03125 c -0.703125,0 -0.703125,-0.09375 -0.703125,-0.328125 V -4.4375 c 0,-0.1875 0,-0.1875 -0.203125,-0.1875 -0.453125,0.4375 -1.078125,0.4375 -1.359375,0.4375 v 0.25 c 0.15625,0 0.625,0 1,-0.1875 v 3.546875 c 0,0.234375 0,0.328125 -0.6875,0.328125 H 0.8125 V 0 l 1.234375,-0.03125 z m 0,0"
               id="id-8a9945be-397e-4295-81c8-4ff04f7099d8" />
          </g>
        </g>
        <g
           style="fill:#000000;fill-opacity:1"
           id="id-4438935e-f16f-44d5-9eb8-59261c7250aa">
          <g
             transform="translate(159.049,136.259)"
             id="g3272">
            <path
               style="stroke:none;stroke-width:0"
               d="m 5.8125,-3.671875 c 0,-0.59375 -0.578125,-1.09375 -1.53125,-1.09375 h -2.4375 c -0.140625,0 -0.21875,0 -0.21875,0.15625 0,0.09375 0.078125,0.09375 0.234375,0.09375 0.109375,0 0.140625,0 0.265625,0.015625 0.140625,0.015625 0.140625,0.03125 0.140625,0.109375 0,0 0,0.046875 -0.015625,0.140625 L 1.328125,-0.578125 C 1.25,-0.296875 1.25,-0.25 0.703125,-0.25 0.578125,-0.25 0.5,-0.25 0.5,-0.09375 0.5,-0.09375 0.5,0 0.609375,0 0.8125,0 1.3125,-0.03125 1.515625,-0.03125 1.625,-0.03125 1.875,-0.03125 2,-0.015625 2.125,-0.015625 2.3125,0 2.4375,0 2.484375,0 2.578125,0 2.578125,-0.15625 2.578125,-0.25 2.5,-0.25 2.359375,-0.25 c 0,0 -0.140625,0 -0.265625,-0.015625 C 1.9375,-0.28125 1.9375,-0.296875 1.9375,-0.375 c 0,0 0,-0.046875 0.03125,-0.140625 L 2.375,-2.15625 h 1.265625 c 1.171875,0 2.171875,-0.75 2.171875,-1.515625 z M 5.09375,-3.8125 c 0,0.203125 -0.078125,0.765625 -0.421875,1.078125 -0.25,0.21875 -0.65625,0.34375 -1.15625,0.34375 H 2.40625 l 0.46875,-1.875 c 0.0625,-0.21875 0.0625,-0.25 0.359375,-0.25 h 0.8125 c 0.65625,0 1.046875,0.203125 1.046875,0.703125 z m 0,0"
               id="id-08a2720d-fb3d-460b-8be0-2a2a7a8d49c4" />
          </g>
        </g>
      </g>
    </g>
    <g
       transform="matrix(0.846667,0,0,0.846667,172.20751,112.23166)"
       ns1:version="1.8.2"
       ns1:texconverter="pdflatex"
       ns1:pdfconverter="inkscape"
       ns1:text="$\\vec{u}_{1P}$"
       ns1:preamble="/media/topo/TOSEXT4/doctorado/upm/docencia/libros-apuntes/apuntes-fisica/figuras/TexText/preambulo_textext.tex"
       ns1:scale="2.4"
       ns1:alignment="middle center"
       ns1:stroke-to-path="0"
       ns1:inkscapeversion="1.1.1"
       ns1:jacobian_sqrt="0.846667"
       id="g3276-7">
      <defs
         id="id-2d8421f9-b0fa-44f9-9364-3516d59b092c-8">
        <g
           id="g3673">
          <symbol
             overflow="visible"
             id="symbol3651">
            <path
               style="stroke:none;stroke-width:0"
               d=""
               id="path3649" />
          </symbol>
          <symbol
             overflow="visible"
             id="symbol3655">
            <path
               style="stroke:none;stroke-width:0"
               d="m 6.125,0 v -0.46875 c -0.609375,0 -0.6875,0 -0.6875,-0.390625 v -3.625 L 3.625,-4.40625 v 0.46875 c 0.609375,0 0.6875,0 0.6875,0.390625 v 1.90625 c 0,0.8125 -0.515625,1.34375 -1.234375,1.34375 -0.78125,0 -0.8125,-0.25 -0.8125,-0.796875 v -3.390625 l -1.8125,0.078125 v 0.46875 c 0.609375,0 0.6875,0 0.6875,0.390625 v 2.328125 c 0,1.0625 0.796875,1.28125 1.796875,1.28125 0.25,0 0.96875,0 1.421875,-0.78125 V 0.0625 Z m 0,0"
               id="path3653" />
          </symbol>
          <symbol
             overflow="visible"
             id="symbol3659">
            <path
               style="stroke:none;stroke-width:0"
               d=""
               id="path3657" />
          </symbol>
          <symbol
             overflow="visible"
             id="symbol3663">
            <path
               style="stroke:none;stroke-width:0"
               d="M 3.296875,0 V -0.25 H 3.03125 c -0.703125,0 -0.703125,-0.09375 -0.703125,-0.328125 V -4.4375 c 0,-0.1875 0,-0.1875 -0.203125,-0.1875 -0.453125,0.4375 -1.078125,0.4375 -1.359375,0.4375 v 0.25 c 0.15625,0 0.625,0 1,-0.1875 v 3.546875 c 0,0.234375 0,0.328125 -0.6875,0.328125 H 0.8125 V 0 l 1.234375,-0.03125 z m 0,0"
               id="path3661" />
          </symbol>
          <symbol
             overflow="visible"
             id="symbol3667">
            <path
               style="stroke:none;stroke-width:0"
               d=""
               id="path3665" />
          </symbol>
          <symbol
             overflow="visible"
             id="symbol3671">
            <path
               style="stroke:none;stroke-width:0"
               d="m 5.8125,-3.671875 c 0,-0.59375 -0.578125,-1.09375 -1.53125,-1.09375 h -2.4375 c -0.140625,0 -0.21875,0 -0.21875,0.15625 0,0.09375 0.078125,0.09375 0.234375,0.09375 0.109375,0 0.140625,0 0.265625,0.015625 0.140625,0.015625 0.140625,0.03125 0.140625,0.109375 0,0 0,0.046875 -0.015625,0.140625 L 1.328125,-0.578125 C 1.25,-0.296875 1.25,-0.25 0.703125,-0.25 0.578125,-0.25 0.5,-0.25 0.5,-0.09375 0.5,-0.09375 0.5,0 0.609375,0 0.8125,0 1.3125,-0.03125 1.515625,-0.03125 1.625,-0.03125 1.875,-0.03125 2,-0.015625 2.125,-0.015625 2.3125,0 2.4375,0 2.484375,0 2.578125,0 2.578125,-0.15625 2.578125,-0.25 2.5,-0.25 2.359375,-0.25 c 0,0 -0.140625,0 -0.265625,-0.015625 C 1.9375,-0.28125 1.9375,-0.296875 1.9375,-0.375 c 0,0 0,-0.046875 0.03125,-0.140625 L 2.375,-2.15625 h 1.265625 c 1.171875,0 2.171875,-0.75 2.171875,-1.515625 z M 5.09375,-3.8125 c 0,0.203125 -0.078125,0.765625 -0.421875,1.078125 -0.25,0.21875 -0.65625,0.34375 -1.15625,0.34375 H 2.40625 l 0.46875,-1.875 c 0.0625,-0.21875 0.0625,-0.25 0.359375,-0.25 h 0.8125 c 0.65625,0 1.046875,0.203125 1.046875,0.703125 z m 0,0"
               id="path3669" />
          </symbol>
        </g>
      </defs>
      <g
         id="id-cabf9e4f-27d1-425a-aa52-647d1365fcb0-5"
         transform="translate(-149.165,-130.281)">
        <g
           style="fill:#000000;fill-opacity:1"
           id="id-78eb3ec6-048e-47b4-9bed-666aea0dd7d8-5">
          <g
             transform="translate(148.712,134.765)"
             id="g3264-4">
            <path
               style="stroke:none;stroke-width:0"
               d="m 6.125,0 v -0.46875 c -0.609375,0 -0.6875,0 -0.6875,-0.390625 v -3.625 L 3.625,-4.40625 v 0.46875 c 0.609375,0 0.6875,0 0.6875,0.390625 v 1.90625 c 0,0.8125 -0.515625,1.34375 -1.234375,1.34375 -0.78125,0 -0.8125,-0.25 -0.8125,-0.796875 v -3.390625 l -1.8125,0.078125 v 0.46875 c 0.609375,0 0.6875,0 0.6875,0.390625 v 2.328125 c 0,1.0625 0.796875,1.28125 1.796875,1.28125 0.25,0 0.96875,0 1.421875,-0.78125 V 0.0625 Z m 0,0"
               id="id-8e34cb11-0873-4f95-a8e6-c7bf4f93e32f-7" />
          </g>
        </g>
        <g
           style="fill:#000000;fill-opacity:1"
           id="id-5e51bcd7-c01d-4b2f-85f1-f099d67c3df7-6">
          <g
             transform="translate(155.077,136.259)"
             id="g3268-5">
            <path
               style="stroke:none;stroke-width:0"
               d="M 3.296875,0 V -0.25 H 3.03125 c -0.703125,0 -0.703125,-0.09375 -0.703125,-0.328125 V -4.4375 c 0,-0.1875 0,-0.1875 -0.203125,-0.1875 -0.453125,0.4375 -1.078125,0.4375 -1.359375,0.4375 v 0.25 c 0.15625,0 0.625,0 1,-0.1875 v 3.546875 c 0,0.234375 0,0.328125 -0.6875,0.328125 H 0.8125 V 0 l 1.234375,-0.03125 z m 0,0"
               id="id-8a9945be-397e-4295-81c8-4ff04f7099d8-6" />
          </g>
        </g>
        <g
           style="fill:#000000;fill-opacity:1"
           id="id-4438935e-f16f-44d5-9eb8-59261c7250aa-9">
          <g
             transform="translate(159.049,136.259)"
             id="g3272-3">
            <path
               style="stroke:none;stroke-width:0"
               d="m 5.8125,-3.671875 c 0,-0.59375 -0.578125,-1.09375 -1.53125,-1.09375 h -2.4375 c -0.140625,0 -0.21875,0 -0.21875,0.15625 0,0.09375 0.078125,0.09375 0.234375,0.09375 0.109375,0 0.140625,0 0.265625,0.015625 0.140625,0.015625 0.140625,0.03125 0.140625,0.109375 0,0 0,0.046875 -0.015625,0.140625 L 1.328125,-0.578125 C 1.25,-0.296875 1.25,-0.25 0.703125,-0.25 0.578125,-0.25 0.5,-0.25 0.5,-0.09375 0.5,-0.09375 0.5,0 0.609375,0 0.8125,0 1.3125,-0.03125 1.515625,-0.03125 1.625,-0.03125 1.875,-0.03125 2,-0.015625 2.125,-0.015625 2.3125,0 2.4375,0 2.484375,0 2.578125,0 2.578125,-0.15625 2.578125,-0.25 2.5,-0.25 2.359375,-0.25 c 0,0 -0.140625,0 -0.265625,-0.015625 C 1.9375,-0.28125 1.9375,-0.296875 1.9375,-0.375 c 0,0 0,-0.046875 0.03125,-0.140625 L 2.375,-2.15625 h 1.265625 c 1.171875,0 2.171875,-0.75 2.171875,-1.515625 z M 5.09375,-3.8125 c 0,0.203125 -0.078125,0.765625 -0.421875,1.078125 -0.25,0.21875 -0.65625,0.34375 -1.15625,0.34375 H 2.40625 l 0.46875,-1.875 c 0.0625,-0.21875 0.0625,-0.25 0.359375,-0.25 h 0.8125 c 0.65625,0 1.046875,0.203125 1.046875,0.703125 z m 0,0"
               id="id-08a2720d-fb3d-460b-8be0-2a2a7a8d49c4-7" />
          </g>
        </g>
      </g>
    </g>
    <g
       transform="matrix(0.846667,0,0,0.846667,120.42153,91.809448)"
       ns1:version="1.8.2"
       ns1:texconverter="pdflatex"
       ns1:pdfconverter="inkscape"
       ns1:text="$q_\\vc{p}$"
       ns1:preamble="/media/topo/TOSEXT4/doctorado/upm/docencia/libros-apuntes/apuntes-fisica/figuras/TexText/preambulo_textext.tex"
       ns1:scale="2.4"
       ns1:alignment="middle center"
       ns1:stroke-to-path="0"
       ns1:inkscapeversion="1.1.1"
       ns1:jacobian_sqrt="0.846667"
       id="g4288">
      <defs
         id="id-8cfc1534-4644-4b5c-9695-5fff5fe4b1a1">
        <g
           id="id-2aa73dae-6065-4273-8817-1a8adab3f638">
          <symbol
             overflow="visible"
             id="id-d0b7dd16-f84b-4635-a649-3318385c3848">
            <path
               style="stroke:none;stroke-width:0"
               d=""
               id="id-1a35f0f6-f375-4add-9bfb-1c876c14ddb8" />
          </symbol>
          <symbol
             overflow="visible"
             id="id-1c8ff67e-a4c2-44f6-ac9c-bf7a7c69048d">
            <path
               style="stroke:none;stroke-width:0"
               d="M 3.828125,1.734375 C 3.828125,1.625 3.734375,1.625 3.5625,1.625 3.09375,1.625 3.09375,1.5625 3.09375,1.46875 3.09375,1.390625 3.109375,1.328125 3.125,1.25 L 4.5,-4.296875 c 0,-0.046875 -0.03125,-0.09375 -0.09375,-0.09375 -0.109375,0 -0.515625,0.390625 -0.671875,0.6875 C 3.515625,-4.25 3.125,-4.40625 2.796875,-4.40625 c -1.171875,0 -2.390625,1.46875 -2.390625,2.921875 0,0.96875 0.578125,1.59375 1.3125,1.59375 0.421875,0 0.8125,-0.234375 1.171875,-0.59375 L 2.4375,1.296875 C 2.359375,1.578125 2.28125,1.609375 1.71875,1.625 1.59375,1.625 1.5,1.625 1.5,1.828125 c 0,0 0,0.109375 0.125,0.109375 0.3125,0 0.671875,-0.03125 1,-0.03125 0.328125,0 0.6875,0.03125 1.03125,0.03125 0.046875,0 0.171875,0 0.171875,-0.203125 z M 3.59375,-3.3125 c 0,0.0625 -0.546875,2.25 -0.578125,2.28125 C 2.859375,-0.75 2.296875,-0.109375 1.75,-0.109375 c -0.609375,0 -0.640625,-0.765625 -0.640625,-0.9375 0,-0.484375 0.28125,-1.5625 0.453125,-1.984375 0.3125,-0.734375 0.828125,-1.15625 1.234375,-1.15625 0.65625,0 0.796875,0.8125 0.796875,0.875 z m 0,0"
               id="id-496fb859-1183-4bc1-a606-aa27c68014e6" />
          </symbol>
          <symbol
             overflow="visible"
             id="id-07e79972-02c7-4a01-8d8d-c18f6044c82a">
            <path
               style="stroke:none;stroke-width:0"
               d=""
               id="id-666ffe62-d0f2-418d-a163-5af12173b554" />
          </symbol>
          <symbol
             overflow="visible"
             id="id-0c5bdf84-56e0-44a5-8bf1-14610c6d1b1a">
            <path
               style="stroke:none;stroke-width:0"
               d="m 3.96875,-2.59375 c 0.078125,-0.5 -0.359375,-0.984375 -1.171875,-0.984375 H 0.90625 L 0.890625,-3.40625 c 0.46875,0 0.484375,0.046875 0.4375,0.328125 L 0.90625,-0.5 c -0.0625,0.28125 -0.09375,0.328125 -0.5625,0.328125 L 0.3125,0 1.078125,-0.015625 1.8125,0 1.84375,-0.171875 C 1.375,-0.171875 1.359375,-0.21875 1.40625,-0.5 l 0.1875,-1.125 h 0.921875 c 0.703125,0 1.359375,-0.4375 1.453125,-0.96875 z m -0.609375,0 c -0.03125,0.265625 -0.125,0.796875 -1,0.796875 H 1.59375 l 0.21875,-1.3125 C 1.859375,-3.390625 1.90625,-3.40625 2.140625,-3.40625 H 2.625 c 0.875,0 0.796875,0.53125 0.734375,0.8125 z m 0,0"
               id="id-0356ef81-2cd7-4641-a3d7-f7af8a6add81" />
          </symbol>
        </g>
      </defs>
      <g
         id="id-45bf3b37-1757-4c91-9b64-f19e309fef4f"
         transform="translate(-149.118,-130.359)">
        <g
           style="fill:#000000;fill-opacity:1"
           id="id-68d8d5b3-fad3-4a6b-9bd1-78be05094dab">
          <g
             transform="translate(148.712,134.765)"
             id="g4280">
            <path
               style="stroke:none;stroke-width:0"
               d="M 3.828125,1.734375 C 3.828125,1.625 3.734375,1.625 3.5625,1.625 3.09375,1.625 3.09375,1.5625 3.09375,1.46875 3.09375,1.390625 3.109375,1.328125 3.125,1.25 L 4.5,-4.296875 c 0,-0.046875 -0.03125,-0.09375 -0.09375,-0.09375 -0.109375,0 -0.515625,0.390625 -0.671875,0.6875 C 3.515625,-4.25 3.125,-4.40625 2.796875,-4.40625 c -1.171875,0 -2.390625,1.46875 -2.390625,2.921875 0,0.96875 0.578125,1.59375 1.3125,1.59375 0.421875,0 0.8125,-0.234375 1.171875,-0.59375 L 2.4375,1.296875 C 2.359375,1.578125 2.28125,1.609375 1.71875,1.625 1.59375,1.625 1.5,1.625 1.5,1.828125 c 0,0 0,0.109375 0.125,0.109375 0.3125,0 0.671875,-0.03125 1,-0.03125 0.328125,0 0.6875,0.03125 1.03125,0.03125 0.046875,0 0.171875,0 0.171875,-0.203125 z M 3.59375,-3.3125 c 0,0.0625 -0.546875,2.25 -0.578125,2.28125 C 2.859375,-0.75 2.296875,-0.109375 1.75,-0.109375 c -0.609375,0 -0.640625,-0.765625 -0.640625,-0.9375 0,-0.484375 0.28125,-1.5625 0.453125,-1.984375 0.3125,-0.734375 0.828125,-1.15625 1.234375,-1.15625 0.65625,0 0.796875,0.8125 0.796875,0.875 z m 0,0"
               id="id-21523f1e-2f33-45ff-9356-d8731938a72e" />
          </g>
        </g>
        <g
           style="fill:#000000;fill-opacity:1"
           id="id-a8c9bebd-d2ec-4fa4-aa89-504a27d1ab1b">
          <g
             transform="translate(153.16,136.259)"
             id="g4284">
            <path
               style="stroke:none;stroke-width:0"
               d="m 3.96875,-2.59375 c 0.078125,-0.5 -0.359375,-0.984375 -1.171875,-0.984375 H 0.90625 L 0.890625,-3.40625 c 0.46875,0 0.484375,0.046875 0.4375,0.328125 L 0.90625,-0.5 c -0.0625,0.28125 -0.09375,0.328125 -0.5625,0.328125 L 0.3125,0 1.078125,-0.015625 1.8125,0 1.84375,-0.171875 C 1.375,-0.171875 1.359375,-0.21875 1.40625,-0.5 l 0.1875,-1.125 h 0.921875 c 0.703125,0 1.359375,-0.4375 1.453125,-0.96875 z m -0.609375,0 c -0.03125,0.265625 -0.125,0.796875 -1,0.796875 H 1.59375 l 0.21875,-1.3125 C 1.859375,-3.390625 1.90625,-3.40625 2.140625,-3.40625 H 2.625 c 0.875,0 0.796875,0.53125 0.734375,0.8125 z m 0,0"
               id="id-23e594c9-0a36-4f3f-bcac-c8a730b00030" />
          </g>
        </g>
      </g>
    </g>
    <g
       transform="matrix(0.846667,0,0,0.846667,194.97686,119.7596)"
       ns1:version="1.8.2"
       ns1:texconverter="pdflatex"
       ns1:pdfconverter="inkscape"
       ns1:text="-$q_\\vc{p}$"
       ns1:preamble="/media/topo/TOSEXT4/doctorado/upm/docencia/libros-apuntes/apuntes-fisica/figuras/TexText/preambulo_textext.tex"
       ns1:scale="2.4"
       ns1:alignment="middle center"
       ns1:stroke-to-path="0"
       ns1:inkscapeversion="1.1.1"
       ns1:jacobian_sqrt="0.846667"
       id="g4288-4">
      <defs
         id="id-87e9c18d-7c87-44be-b596-f4b1faa5c21b">
        <g
           id="id-4552b3a9-49c9-4746-962e-ccb1b5b03421">
          <symbol
             overflow="visible"
             id="id-f2c1df5e-3338-4af7-a900-e1670044d3f8">
            <path
               style="stroke:none"
               d=""
               id="id-7b320a33-72af-4cb6-a399-8ebade321d40" />
          </symbol>
          <symbol
             overflow="visible"
             id="id-e85ecbfc-610b-435f-8f37-f3d794165977">
            <path
               style="stroke:none"
               d="M 2.75,-1.859375 V -2.4375 H 0.109375 v 0.578125 z m 0,0"
               id="id-9cc52d0b-d141-45a5-aa02-918acfe490b3" />
          </symbol>
          <symbol
             overflow="visible"
             id="id-26556baa-3d25-44e4-8220-d57294a3d020">
            <path
               style="stroke:none"
               d=""
               id="id-6fda0575-10ed-49d3-b57f-166ecf5ac105" />
          </symbol>
          <symbol
             overflow="visible"
             id="id-e91d66c9-9c2c-41dc-ab82-efb29a112036">
            <path
               style="stroke:none"
               d="M 3.828125,1.734375 C 3.828125,1.625 3.734375,1.625 3.5625,1.625 3.09375,1.625 3.09375,1.5625 3.09375,1.46875 3.09375,1.390625 3.109375,1.328125 3.125,1.25 L 4.5,-4.296875 c 0,-0.046875 -0.03125,-0.09375 -0.09375,-0.09375 -0.109375,0 -0.515625,0.390625 -0.671875,0.6875 C 3.515625,-4.25 3.125,-4.40625 2.796875,-4.40625 c -1.171875,0 -2.390625,1.46875 -2.390625,2.921875 0,0.96875 0.578125,1.59375 1.3125,1.59375 0.421875,0 0.8125,-0.234375 1.171875,-0.59375 L 2.4375,1.296875 C 2.359375,1.578125 2.28125,1.609375 1.71875,1.625 1.59375,1.625 1.5,1.625 1.5,1.828125 c 0,0 0,0.109375 0.125,0.109375 0.3125,0 0.671875,-0.03125 1,-0.03125 0.328125,0 0.6875,0.03125 1.03125,0.03125 0.046875,0 0.171875,0 0.171875,-0.203125 z M 3.59375,-3.3125 c 0,0.0625 -0.546875,2.25 -0.578125,2.28125 C 2.859375,-0.75 2.296875,-0.109375 1.75,-0.109375 c -0.609375,0 -0.640625,-0.765625 -0.640625,-0.9375 0,-0.484375 0.28125,-1.5625 0.453125,-1.984375 0.3125,-0.734375 0.828125,-1.15625 1.234375,-1.15625 0.65625,0 0.796875,0.8125 0.796875,0.875 z m 0,0"
               id="id-4f2b6e76-a544-469e-adb1-0c7e095b80f7" />
          </symbol>
          <symbol
             overflow="visible"
             id="id-e10ff49b-fdc4-412c-b8bc-b8c364a5b6b8">
            <path
               style="stroke:none"
               d=""
               id="id-4691dffa-e5b7-44a1-905c-1b6ffd9f99eb" />
          </symbol>
          <symbol
             overflow="visible"
             id="id-66fcfe04-f444-4a33-8cf7-5918f4931db7">
            <path
               style="stroke:none"
               d="m 3.96875,-2.59375 c 0.078125,-0.5 -0.359375,-0.984375 -1.171875,-0.984375 H 0.90625 L 0.890625,-3.40625 c 0.46875,0 0.484375,0.046875 0.4375,0.328125 L 0.90625,-0.5 c -0.0625,0.28125 -0.09375,0.328125 -0.5625,0.328125 L 0.3125,0 1.078125,-0.015625 1.8125,0 1.84375,-0.171875 C 1.375,-0.171875 1.359375,-0.21875 1.40625,-0.5 l 0.1875,-1.125 h 0.921875 c 0.703125,0 1.359375,-0.4375 1.453125,-0.96875 z m -0.609375,0 c -0.03125,0.265625 -0.125,0.796875 -1,0.796875 H 1.59375 l 0.21875,-1.3125 C 1.859375,-3.390625 1.90625,-3.40625 2.140625,-3.40625 H 2.625 c 0.875,0 0.796875,0.53125 0.734375,0.8125 z m 0,0"
               id="id-ee56611b-f8ca-4fd4-9a69-680a7f13377a" />
          </symbol>
        </g>
      </defs>
      <g
         id="id-84a00c00-5129-444f-9131-4b315fb7ba1b"
         transform="translate(-148.821,-130.359)">
        <g
           style="fill:#000000;fill-opacity:1"
           id="id-8e62c287-594c-4797-a478-d40a52371ac0">
          <g
             transform="translate(148.712,134.765)"
             id="g6914">
            <path
               style="stroke:none"
               d="M 2.75,-1.859375 V -2.4375 H 0.109375 v 0.578125 z m 0,0"
               id="id-5b7d055c-c8d4-4bdb-9174-7a65ff98550c" />
          </g>
        </g>
        <g
           style="fill:#000000;fill-opacity:1"
           id="id-e5508ffd-a721-4ac4-ab05-54478f800d3b">
          <g
             transform="translate(152.033,134.765)"
             id="g6918">
            <path
               style="stroke:none"
               d="M 3.828125,1.734375 C 3.828125,1.625 3.734375,1.625 3.5625,1.625 3.09375,1.625 3.09375,1.5625 3.09375,1.46875 3.09375,1.390625 3.109375,1.328125 3.125,1.25 L 4.5,-4.296875 c 0,-0.046875 -0.03125,-0.09375 -0.09375,-0.09375 -0.109375,0 -0.515625,0.390625 -0.671875,0.6875 C 3.515625,-4.25 3.125,-4.40625 2.796875,-4.40625 c -1.171875,0 -2.390625,1.46875 -2.390625,2.921875 0,0.96875 0.578125,1.59375 1.3125,1.59375 0.421875,0 0.8125,-0.234375 1.171875,-0.59375 L 2.4375,1.296875 C 2.359375,1.578125 2.28125,1.609375 1.71875,1.625 1.59375,1.625 1.5,1.625 1.5,1.828125 c 0,0 0,0.109375 0.125,0.109375 0.3125,0 0.671875,-0.03125 1,-0.03125 0.328125,0 0.6875,0.03125 1.03125,0.03125 0.046875,0 0.171875,0 0.171875,-0.203125 z M 3.59375,-3.3125 c 0,0.0625 -0.546875,2.25 -0.578125,2.28125 C 2.859375,-0.75 2.296875,-0.109375 1.75,-0.109375 c -0.609375,0 -0.640625,-0.765625 -0.640625,-0.9375 0,-0.484375 0.28125,-1.5625 0.453125,-1.984375 0.3125,-0.734375 0.828125,-1.15625 1.234375,-1.15625 0.65625,0 0.796875,0.8125 0.796875,0.875 z m 0,0"
               id="id-b480764f-e436-463a-be70-0577fc824060" />
          </g>
        </g>
        <g
           style="fill:#000000;fill-opacity:1"
           id="id-609a0ae0-76d6-4203-a21b-4c51afaca298">
          <g
             transform="translate(156.481,136.259)"
             id="g6922">
            <path
               style="stroke:none"
               d="m 3.96875,-2.59375 c 0.078125,-0.5 -0.359375,-0.984375 -1.171875,-0.984375 H 0.90625 L 0.890625,-3.40625 c 0.46875,0 0.484375,0.046875 0.4375,0.328125 L 0.90625,-0.5 c -0.0625,0.28125 -0.09375,0.328125 -0.5625,0.328125 L 0.3125,0 1.078125,-0.015625 1.8125,0 1.84375,-0.171875 C 1.375,-0.171875 1.359375,-0.21875 1.40625,-0.5 l 0.1875,-1.125 h 0.921875 c 0.703125,0 1.359375,-0.4375 1.453125,-0.96875 z m -0.609375,0 c -0.03125,0.265625 -0.125,0.796875 -1,0.796875 H 1.59375 l 0.21875,-1.3125 C 1.859375,-3.390625 1.90625,-3.40625 2.140625,-3.40625 H 2.625 c 0.875,0 0.796875,0.53125 0.734375,0.8125 z m 0,0"
               id="id-77f477aa-65ce-4dd2-ad8d-f507dd37e6ff" />
          </g>
        </g>
      </g>
    </g>
  </g>
</svg>
