<?xml version="1.0" encoding="UTF-8" standalone="no"?>
<svg
   width="418pt"
   height="314pt"
   viewBox="0 0 418 314"
   version="1.1"
   id="svg127"
   sodipodi:docname="fig-cap4-07-grafico-sinusoide-c-alterna.svg"
   inkscape:version="1.2.1 (9c6d41e410, 2022-07-14)"
   xmlns:inkscape="http://www.inkscape.org/namespaces/inkscape"
   xmlns:sodipodi="http://sodipodi.sourceforge.net/DTD/sodipodi-0.dtd"
   xmlns="http://www.w3.org/2000/svg"
   xmlns:svg="http://www.w3.org/2000/svg"
   xmlns:rdf="http://www.w3.org/1999/02/22-rdf-syntax-ns#"
   xmlns:cc="http://creativecommons.org/ns#"
   xmlns:dc="http://purl.org/dc/elements/1.1/"
   xmlns:ns1="http://www.iki.fi/pav/software/textext/">
  <sodipodi:namedview
     id="namedview129"
     pagecolor="#ffffff"
     bordercolor="#666666"
     borderopacity="1.0"
     inkscape:pageshadow="2"
     inkscape:pageopacity="0.0"
     inkscape:pagecheckerboard="0"
     inkscape:document-units="pt"
     showgrid="false"
     showguides="true"
     inkscape:guide-bbox="true"
     inkscape:zoom="2.6811414"
     inkscape:cx="280.47757"
     inkscape:cy="191.89589"
     inkscape:window-width="1920"
     inkscape:window-height="1026"
     inkscape:window-x="0"
     inkscape:window-y="0"
     inkscape:window-maximized="1"
     inkscape:current-layer="svg127"
     inkscape:showpageshadow="2"
     inkscape:deskcolor="#d1d1d1">
    <sodipodi:guide
       position="276.68188,162.46579"
       orientation="0,-1"
       id="guide1378"
       inkscape:locked="false" />
    <sodipodi:guide
       position="54.480743,300.32731"
       orientation="1,0"
       id="guide1380"
       inkscape:locked="false" />
    <sodipodi:guide
       position="251.42618,243.88716"
       orientation="0,-1"
       id="guide1498"
       inkscape:locked="false" />
    <sodipodi:guide
       position="336.99401,81.421371"
       orientation="0,-1"
       id="guide1500"
       inkscape:locked="false" />
    <sodipodi:guide
       position="135.32534,116.85474"
       orientation="1,0"
       id="guide1502"
       inkscape:locked="false" />
    <sodipodi:guide
       position="298.16808,51.265307"
       orientation="1,0"
       id="guide1504"
       inkscape:locked="false" />
    <sodipodi:guide
       position="28.2748,207.03269"
       orientation="1,0"
       id="guide17458"
       inkscape:locked="false" />
    <sodipodi:guide
       position="256.72385,154.44331"
       orientation="0,-1"
       id="guide26222"
       inkscape:locked="false" />
  </sodipodi:namedview>
  <title
     id="title2">gl2ps_renderer figure</title>
  <desc
     id="desc4">
Creator: GL2PS 1.4.2, (C) 1999-2020 C. Geuzaine
For: Octave
CreationDate: Fri Nov 26 14:49:06 2021
</desc>
  <defs
     id="defs6">
    <marker
       style="overflow:visible;"
       id="Arrow1Mend"
       refX="0.0"
       refY="0.0"
       orient="auto"
       inkscape:stockid="Arrow1Mend"
       inkscape:isstock="true">
      <path
         transform="scale(0.4) rotate(180) translate(10,0)"
         style="fill-rule:evenodd;fill:context-stroke;stroke:context-stroke;stroke-width:1.0pt;"
         d="M 0.0,0.0 L 5.0,-5.0 L -12.5,0.0 L 5.0,5.0 L 0.0,0.0 z "
         id="path1550" />
    </marker>
    <clipPath
       id="cp00418314">
      <polygon
         points="0,314 418,314 418,0 0,0"
         id="polygon12" />
    </clipPath>
    <g
       id="id-476836cd-8d49-4c8a-a78d-f9db2e2cb77a-7">
      <symbol
         overflow="visible"
         id="id-f3a0aa29-6299-4362-9f07-f59a7b90e583-5">
        <path
           style="stroke:none"
           d=""
           id="id-7b2ad593-9a6e-4cf0-9ec6-4b18affed147-3" />
      </symbol>
      <symbol
         overflow="visible"
         id="id-c09af411-f552-41b9-b83b-8f9bc7c3a620-5">
        <path
           style="stroke:none"
           d="M 6.734375,-4.734375 7,-6.46875 C 7.015625,-6.515625 7.015625,-6.609375 7.015625,-6.640625 7.015625,-6.75 6.921875,-6.75 6.75,-6.75 H 1.21875 c -0.234375,0 -0.25,0.015625 -0.328125,0.203125 l -0.59375,1.75 c 0,0.015625 -0.0625,0.1875 -0.0625,0.1875 0,0.046875 0.0625,0.109375 0.125,0.109375 0.09375,0 0.109375,-0.0625 0.171875,-0.21875 C 1.0625,-6.265625 1.328125,-6.4375 2.796875,-6.4375 H 3.1875 c 0.28125,0 0.28125,0.03125 0.28125,0.125 0,0.046875 -0.03125,0.171875 -0.046875,0.203125 L 2.09375,-0.78125 C 2,-0.421875 1.96875,-0.3125 0.90625,-0.3125 c -0.359375,0 -0.421875,0 -0.421875,0.1875 C 0.484375,0 0.59375,0 0.65625,0 0.921875,0 1.203125,-0.015625 1.46875,-0.015625 L 2.328125,-0.03125 3.15625,-0.015625 C 3.4375,-0.015625 3.734375,0 4.015625,0 c 0.09375,0 0.21875,0 0.21875,-0.203125 0,-0.109375 -0.078125,-0.109375 -0.34375,-0.109375 -0.234375,0 -0.375,0 -0.625,-0.015625 -0.296875,-0.03125 -0.375,-0.0625 -0.375,-0.21875 0,0 0,-0.0625 0.046875,-0.203125 L 4.25,-6.046875 c 0.078125,-0.28125 0.109375,-0.34375 0.234375,-0.375 0.09375,-0.015625 0.421875,-0.015625 0.625,-0.015625 1.015625,0 1.453125,0.03125 1.453125,0.8125 0,0.15625 -0.03125,0.546875 -0.078125,0.796875 0,0.046875 -0.03125,0.15625 -0.03125,0.1875 0,0.0625 0.03125,0.140625 0.125,0.140625 0.109375,0 0.125,-0.078125 0.15625,-0.234375 z m 0,0"
           id="id-7898783d-1749-4108-86a8-66fedf525c12-6" />
      </symbol>
    </g>
    <g
       id="id-cd3d1ccd-0eeb-44ab-9f32-2acae618a704-9">
      <symbol
         overflow="visible"
         id="id-bb627c07-ae90-4578-8cc0-215bbe1d896f-3">
        <path
           style="stroke:none"
           d=""
           id="id-5afdc53e-cea9-496c-ae89-6da05f28eaa9-6" />
      </symbol>
      <symbol
         overflow="visible"
         id="id-62ecc160-ebd4-42a5-b28d-efe2ac3c271b-0">
        <path
           style="stroke:none"
           d="m 3.578125,-1.203125 c 0,-0.546875 -0.4375,-1.09375 -1.203125,-1.25 0.71875,-0.265625 0.984375,-0.78125 0.984375,-1.21875 0,-0.546875 -0.625,-0.953125 -1.40625,-0.953125 -0.765625,0 -1.359375,0.375 -1.359375,0.9375 0,0.234375 0.15625,0.359375 0.359375,0.359375 0.21875,0 0.359375,-0.15625 0.359375,-0.34375 0,-0.203125 -0.140625,-0.359375 -0.359375,-0.375 0.25,-0.296875 0.71875,-0.375 0.984375,-0.375 0.3125,0 0.75,0.15625 0.75,0.75 0,0.296875 -0.09375,0.625 -0.28125,0.828125 -0.21875,0.265625 -0.421875,0.28125 -0.765625,0.3125 -0.171875,0.015625 -0.1875,0.015625 -0.21875,0.015625 0,0 -0.078125,0.015625 -0.078125,0.09375 0,0.09375 0.0625,0.09375 0.1875,0.09375 h 0.375 c 0.546875,0 0.9375,0.375 0.9375,1.125 0,0.859375 -0.515625,1.125 -0.90625,1.125 -0.28125,0 -0.90625,-0.078125 -1.1875,-0.5 0.328125,0 0.40625,-0.234375 0.40625,-0.390625 0,-0.21875 -0.171875,-0.375 -0.390625,-0.375 -0.1875,0 -0.390625,0.125 -0.390625,0.40625 0,0.65625 0.71875,1.078125 1.5625,1.078125 0.96875,0 1.640625,-0.65625 1.640625,-1.34375 z m 0,0"
           id="id-4d29736d-ef2d-4686-aad9-f7d8eb1401c4-6" />
      </symbol>
      <symbol
         overflow="visible"
         id="id-26eeb0a3-4e9b-4295-a2c7-98fe746a6e51-2">
        <path
           style="stroke:none"
           d="m 3.6875,-1.140625 v -0.25 H 2.90625 V -4.5 c 0,-0.140625 0,-0.203125 -0.140625,-0.203125 -0.09375,0 -0.125,0 -0.1875,0.109375 l -2.3125,3.203125 v 0.25 h 2.0625 v 0.5625 c 0,0.25 0,0.328125 -0.578125,0.328125 H 1.5625 V 0 L 2.609375,-0.03125 3.671875,0 v -0.25 h -0.1875 C 2.90625,-0.25 2.90625,-0.328125 2.90625,-0.578125 v -0.5625 z m -1.3125,-0.25 H 0.53125 L 2.375,-3.9375 Z m 0,0"
           id="id-ee6e3e6f-a168-4316-94e9-b1487edeeab9-6" />
      </symbol>
      <symbol
         overflow="visible"
         id="id-8dd697b7-44bf-475d-8f0f-503e3a69b1ab-1">
        <path
           style="stroke:none"
           d=""
           id="id-12385ab5-635a-4c20-9825-20f9f7482a49-8" />
      </symbol>
      <symbol
         overflow="visible"
         id="id-c0f3ce01-2291-4852-9bb1-bde8d11420b4-7">
        <path
           style="stroke:none"
           d="M 5.3125,-3.28125 5.5,-4.609375 c 0,-0.09375 -0.078125,-0.09375 -0.203125,-0.09375 h -4.28125 c -0.171875,0 -0.1875,0 -0.234375,0.140625 l -0.453125,1.234375 c 0,0.03125 -0.03125,0.09375 -0.03125,0.125 0,0.03125 0.015625,0.09375 0.125,0.09375 0.09375,0 0.09375,-0.03125 0.140625,-0.171875 0.40625,-1.109375 0.640625,-1.171875 1.703125,-1.171875 h 0.28125 c 0.21875,0 0.21875,0 0.21875,0.0625 0,0 0,0.046875 -0.03125,0.140625 L 1.8125,-0.578125 C 1.75,-0.328125 1.734375,-0.25 1,-0.25 c -0.25,0 -0.3125,0 -0.3125,0.15625 C 0.6875,-0.078125 0.703125,0 0.8125,0 1,0 1.21875,-0.015625 1.40625,-0.015625 L 2,-0.03125 2.640625,-0.015625 C 2.828125,-0.015625 3.03125,0 3.21875,0 3.28125,0 3.375,0 3.375,-0.15625 3.375,-0.25 3.3125,-0.25 3.09375,-0.25 c -0.125,0 -0.265625,-0.015625 -0.40625,-0.015625 -0.234375,-0.015625 -0.25,-0.046875 -0.25,-0.125 0,-0.0625 0,-0.0625 0.03125,-0.171875 l 0.921875,-3.65625 c 0.046875,-0.203125 0.0625,-0.21875 0.21875,-0.234375 0.03125,0 0.265625,0 0.40625,0 0.4375,0 0.609375,0 0.78125,0.046875 0.3125,0.09375 0.328125,0.296875 0.328125,0.546875 0,0.109375 0,0.203125 -0.046875,0.5625 L 5.0625,-3.21875 c 0,0.078125 0.046875,0.109375 0.125,0.109375 0.109375,0 0.109375,-0.0625 0.125,-0.171875 z m 0,0"
           id="id-f05e8c4d-8b96-438c-9960-2c73478135cd-9" />
      </symbol>
    </g>
    <g
       id="id-150fad30-68d2-43c2-b8ae-67c0de2c80cb-6">
      <symbol
         overflow="visible"
         id="id-66478f3a-f7bb-4e26-83c3-c4a2c835fc70-1">
        <path
           style="stroke:none"
           d=""
           id="id-d91b7903-0a93-4783-952a-c0598e230ad2-2" />
      </symbol>
      <symbol
         overflow="visible"
         id="id-788092f7-6adf-478b-b045-c4087f7ee869-9">
        <path
           style="stroke:none"
           d="M 5.3125,-3.28125 5.5,-4.609375 c 0,-0.09375 -0.078125,-0.09375 -0.203125,-0.09375 h -4.28125 c -0.171875,0 -0.1875,0 -0.234375,0.140625 l -0.453125,1.234375 c 0,0.03125 -0.03125,0.09375 -0.03125,0.125 0,0.03125 0.015625,0.09375 0.125,0.09375 0.09375,0 0.09375,-0.03125 0.140625,-0.171875 0.40625,-1.109375 0.640625,-1.171875 1.703125,-1.171875 h 0.28125 c 0.21875,0 0.21875,0 0.21875,0.0625 0,0 0,0.046875 -0.03125,0.140625 L 1.8125,-0.578125 C 1.75,-0.328125 1.734375,-0.25 1,-0.25 c -0.25,0 -0.3125,0 -0.3125,0.15625 C 0.6875,-0.078125 0.703125,0 0.8125,0 1,0 1.21875,-0.015625 1.40625,-0.015625 L 2,-0.03125 2.640625,-0.015625 C 2.828125,-0.015625 3.03125,0 3.21875,0 3.28125,0 3.375,0 3.375,-0.15625 3.375,-0.25 3.3125,-0.25 3.09375,-0.25 c -0.125,0 -0.265625,-0.015625 -0.40625,-0.015625 -0.234375,-0.015625 -0.25,-0.046875 -0.25,-0.125 0,-0.0625 0,-0.0625 0.03125,-0.171875 l 0.921875,-3.65625 c 0.046875,-0.203125 0.0625,-0.21875 0.21875,-0.234375 0.03125,0 0.265625,0 0.40625,0 0.4375,0 0.609375,0 0.78125,0.046875 0.3125,0.09375 0.328125,0.296875 0.328125,0.546875 0,0.109375 0,0.203125 -0.046875,0.5625 L 5.0625,-3.21875 c 0,0.078125 0.046875,0.109375 0.125,0.109375 0.109375,0 0.109375,-0.0625 0.125,-0.171875 z m 0,0"
           id="id-8643ced2-5842-4f31-a1b0-a1002d381a4b-3" />
      </symbol>
      <symbol
         overflow="visible"
         id="id-a7e6b687-e35d-4cfc-8278-2f2cae531b0c-1">
        <path
           style="stroke:none"
           d=""
           id="id-f39a7733-a888-4bc1-9a77-045b14f75805-9" />
      </symbol>
      <symbol
         overflow="visible"
         id="id-c699ad84-a814-463e-9df7-143bf5c96081-4">
        <path
           style="stroke:none"
           d="M 3.515625,-1.265625 H 3.28125 c -0.015625,0.15625 -0.09375,0.5625 -0.1875,0.625 C 3.046875,-0.59375 2.515625,-0.59375 2.40625,-0.59375 H 1.125 c 0.734375,-0.640625 0.984375,-0.84375 1.390625,-1.171875 0.515625,-0.40625 1,-0.84375 1,-1.5 0,-0.84375 -0.734375,-1.359375 -1.625,-1.359375 -0.859375,0 -1.453125,0.609375 -1.453125,1.25 0,0.34375 0.296875,0.390625 0.375,0.390625 0.15625,0 0.359375,-0.125 0.359375,-0.375 0,-0.125 -0.046875,-0.375 -0.40625,-0.375 C 0.984375,-4.21875 1.453125,-4.375 1.78125,-4.375 c 0.703125,0 1.0625,0.546875 1.0625,1.109375 0,0.609375 -0.4375,1.078125 -0.65625,1.328125 L 0.515625,-0.265625 C 0.4375,-0.203125 0.4375,-0.1875 0.4375,0 h 2.875 z m 0,0"
           id="id-44198892-fcc2-4d50-a089-5c248c7b6332-7" />
      </symbol>
    </g>
    <g
       id="id-8ef50ace-f3ae-4406-b417-0c413f6691c2-2">
      <symbol
         overflow="visible"
         id="id-45b96c87-fa6c-486d-abca-2b3095cbc4ec-0">
        <path
           style="stroke:none;stroke-width:0"
           d=""
           id="id-deaf974f-3ce3-4c81-a4d4-5f34565c4022-6" />
      </symbol>
      <symbol
         overflow="visible"
         id="id-d2cb5623-3fe8-4661-b467-317ce87811a8-1">
        <path
           style="stroke:none;stroke-width:0"
           d="m 4.578125,-3.1875 c 0,-0.796875 -0.046875,-1.59375 -0.390625,-2.328125 -0.453125,-0.96875 -1.28125,-1.125 -1.6875,-1.125 -0.609375,0 -1.328125,0.265625 -1.75,1.1875 -0.3125,0.6875 -0.359375,1.46875 -0.359375,2.265625 0,0.75 0.03125,1.640625 0.453125,2.40625 0.421875,0.796875 1.15625,1 1.640625,1 0.53125,0 1.296875,-0.203125 1.734375,-1.15625 0.3125,-0.6875 0.359375,-1.46875 0.359375,-2.25 z m -0.8125,-0.125 c 0,0.75 0,1.421875 -0.109375,2.0625 C 3.5,-0.296875 2.9375,0 2.484375,0 2.09375,0 1.5,-0.25 1.328125,-1.203125 1.21875,-1.796875 1.21875,-2.71875 1.21875,-3.3125 c 0,-0.640625 0,-1.296875 0.078125,-1.828125 0.1875,-1.1875 0.9375,-1.28125 1.1875,-1.28125 0.328125,0 0.984375,0.1875 1.171875,1.171875 0.109375,0.5625 0.109375,1.3125 0.109375,1.9375 z m 0,0"
           id="id-1ab11631-e137-4745-9dd9-9dea4fa76e87-5" />
      </symbol>
    </g>
    <g
       id="id-a7d48605-b180-4846-801e-a3b3e2e3071b-9">
      <symbol
         overflow="visible"
         id="id-703d4d7b-a32c-4a71-9f43-a2c100aa77b8-3">
        <path
           style="stroke:none"
           d=""
           id="id-ed1e0d6a-e5d1-4b36-9262-c8e6396ea986-7" />
      </symbol>
      <symbol
         overflow="visible"
         id="id-b97dc9c0-368d-44c5-a38d-5e5fd4288778-4">
        <path
           style="stroke:none"
           d="m 3.765625,-0.8125 c 0,-0.0625 -0.0625,-0.09375 -0.109375,-0.09375 -0.0625,0 -0.09375,0.03125 -0.109375,0.0625 -0.140625,0.234375 -0.375,0.609375 -1.578125,0.609375 -0.609375,0 -1.453125,-0.15625 -1.453125,-0.859375 0,-0.34375 0.28125,-0.875 0.890625,-1.171875 0.328125,0.140625 0.625,0.140625 0.859375,0.140625 0.25,0 0.8125,0 0.8125,-0.3125 0,-0.234375 -0.359375,-0.265625 -0.734375,-0.265625 -0.203125,0 -0.5625,0.015625 -0.921875,0.1875 C 1.1875,-2.625 1.015625,-2.828125 1.015625,-3.09375 c 0,-0.609375 0.984375,-0.96875 1.875,-0.96875 0.15625,0 0.515625,0 0.921875,0.28125 0.109375,0.078125 0.125,0.109375 0.1875,0.109375 0.140625,0 0.28125,-0.140625 0.28125,-0.28125 0,-0.1875 -0.609375,-0.5625 -1.296875,-0.5625 -1.140625,0 -2.21875,0.671875 -2.21875,1.421875 0,0.4375 0.359375,0.6875 0.40625,0.71875 -0.59375,0.328125 -0.90625,0.875 -0.90625,1.34375 0,0.640625 0.5625,1.25 1.625,1.25 1.3125,0 1.875,-0.875 1.875,-1.03125 z M 2.8125,-2.421875 c -0.15625,0.0625 -0.171875,0.078125 -0.546875,0.078125 -0.21875,0 -0.34375,0 -0.53125,-0.046875 0.234375,-0.078125 0.4375,-0.09375 0.609375,-0.09375 0.25,0 0.28125,0.015625 0.46875,0.0625 z m 0,0"
           id="id-77bbeb1d-0b69-4b74-9474-ad93a60d200c-5" />
      </symbol>
      <symbol
         overflow="visible"
         id="id-f804de61-db23-4493-8e88-5b0f7702fe61-2">
        <path
           style="stroke:none"
           d=""
           id="id-4ec28150-9c02-47d8-a09f-e37b6483d7ff-5" />
      </symbol>
      <symbol
         overflow="visible"
         id="id-e4b46fdf-2ae9-4d3c-bd37-46bcc3db8fee-4">
        <path
           style="stroke:none"
           d="m 6.25,0 v -0.25 c -0.453125,0 -0.515625,0 -0.515625,-0.296875 v -1.5625 c 0,-0.609375 -0.3125,-0.96875 -1.046875,-0.96875 -0.5625,0 -0.9375,0.296875 -1.125,0.65625 -0.140625,-0.5 -0.515625,-0.65625 -1.015625,-0.65625 -0.578125,0 -0.9375,0.3125 -1.140625,0.6875 v -0.6875 L 0.375,-3 v 0.25 c 0.46875,0 0.53125,0.046875 0.53125,0.390625 v 1.8125 C 0.90625,-0.25 0.828125,-0.25 0.375,-0.25 V 0 c 0,0 0.5,-0.03125 0.796875,-0.03125 C 1.421875,-0.03125 1.90625,0 1.96875,0 v -0.25 c -0.453125,0 -0.515625,0 -0.515625,-0.296875 V -1.8125 c 0,-0.71875 0.578125,-1.0625 1.03125,-1.0625 0.484375,0 0.546875,0.375 0.546875,0.734375 v 1.59375 C 3.03125,-0.25 2.96875,-0.25 2.515625,-0.25 V 0 c 0,0 0.5,-0.03125 0.796875,-0.03125 C 3.5625,-0.03125 4.046875,0 4.109375,0 v -0.25 c -0.453125,0 -0.515625,0 -0.515625,-0.296875 V -1.8125 c 0,-0.71875 0.578125,-1.0625 1.03125,-1.0625 0.484375,0 0.546875,0.375 0.546875,0.734375 v 1.59375 C 5.171875,-0.25 5.109375,-0.25 4.65625,-0.25 V 0 c 0,0 0.5,-0.03125 0.796875,-0.03125 C 5.703125,-0.03125 6.1875,0 6.25,0 Z m 0,0"
           id="id-566517f3-2a5e-40f0-a2da-07b1b119b31e-7" />
      </symbol>
      <symbol
         overflow="visible"
         id="id-7b3fa32f-32f2-4f8b-8a06-c3ebc5c474aa-4">
        <path
           style="stroke:none"
           d="m 2.9375,-4.578125 c 0,-0.125 -0.109375,-0.28125 -0.28125,-0.28125 -0.109375,0 -0.171875,0.0625 -0.234375,0.140625 L 1.5,-3.703125 1.671875,-3.53125 2.765625,-4.328125 c 0.109375,-0.0625 0.171875,-0.125 0.171875,-0.25 z m 0,0"
           id="id-1ceaf6c8-e278-464e-90b5-9485705e8cc5-4" />
      </symbol>
      <symbol
         overflow="visible"
         id="id-9c39db11-2b9b-4c58-abc2-f30543cff736-3">
        <path
           style="stroke:none"
           d="m 3.796875,-0.625 v -0.390625 h -0.25 v 0.375 c 0,0.078125 0,0.40625 -0.25,0.40625 -0.265625,0 -0.265625,-0.328125 -0.265625,-0.40625 V -1.875 c 0,-0.359375 0,-0.625 -0.3125,-0.890625 C 2.4375,-3 2.09375,-3.109375 1.6875,-3.109375 c -0.65625,0 -1.125,0.25 -1.125,0.671875 0,0.234375 0.140625,0.34375 0.328125,0.34375 0.1875,0 0.328125,-0.140625 0.328125,-0.328125 0,-0.109375 -0.0625,-0.265625 -0.25,-0.3125 0.25,-0.171875 0.65625,-0.171875 0.703125,-0.171875 0.390625,0 0.8125,0.25 0.8125,0.84375 v 0.203125 c -0.375,0.015625 -0.84375,0.046875 -1.34375,0.234375 -0.625,0.21875 -0.828125,0.609375 -0.828125,0.921875 0,0.59375 0.71875,0.765625 1.21875,0.765625 0.5625,0 0.890625,-0.3125 1.03125,-0.578125 0.03125,0.28125 0.21875,0.546875 0.53125,0.546875 0,0 0.703125,0 0.703125,-0.65625 z m -1.3125,-0.359375 c 0,0.671875 -0.578125,0.859375 -0.890625,0.859375 -0.359375,0 -0.6875,-0.234375 -0.6875,-0.578125 0,-0.390625 0.328125,-0.921875 1.578125,-0.96875 z m 0,0"
           id="id-41abd07e-5dd0-4f1f-8b80-bf4840d43c9c-0" />
      </symbol>
      <symbol
         overflow="visible"
         id="id-4217d5cf-1da7-4894-be69-9287a6ae1efd-7">
        <path
           style="stroke:none"
           d="m 4,0 v -0.25 c -0.46875,0 -0.515625,-0.046875 -0.6875,-0.21875 L 2.359375,-1.5625 2.3125,-1.625 c 0,-0.03125 0.453125,-0.515625 0.515625,-0.578125 C 3.078125,-2.484375 3.3125,-2.75 3.875,-2.75 V -3 C 3.671875,-2.984375 3.46875,-2.96875 3.28125,-2.96875 3.078125,-2.96875 2.796875,-2.984375 2.59375,-3 v 0.25 c 0.109375,0.015625 0.140625,0.09375 0.140625,0.15625 0,0 0,0.125 -0.109375,0.234375 L 2.140625,-1.8125 1.5625,-2.46875 C 1.484375,-2.546875 1.484375,-2.578125 1.484375,-2.609375 c 0,-0.09375 0.09375,-0.140625 0.1875,-0.140625 V -3 c -0.25,0.015625 -0.515625,0.03125 -0.78125,0.03125 C 0.6875,-2.96875 0.421875,-2.984375 0.21875,-3 v 0.25 c 0.3125,0 0.5,0 0.6875,0.203125 l 0.859375,1 0.0625,0.078125 c 0,0.015625 -0.53125,0.59375 -0.59375,0.671875 -0.265625,0.28125 -0.5,0.53125 -1.046875,0.546875 V 0 C 0.390625,-0.015625 0.546875,-0.03125 0.765625,-0.03125 0.96875,-0.03125 1.25,-0.015625 1.453125,0 V -0.25 C 1.375,-0.265625 1.3125,-0.3125 1.3125,-0.40625 1.3125,-0.546875 1.390625,-0.640625 1.5,-0.75 L 2,-1.296875 2.59375,-0.59375 c 0.140625,0.140625 0.140625,0.15625 0.140625,0.203125 0,0.125 -0.15625,0.140625 -0.1875,0.140625 V 0 c 0.0625,0 0.5625,-0.03125 0.78125,-0.03125 C 3.546875,-0.03125 3.78125,-0.015625 4,0 Z m 0,0"
           id="id-02ce57c3-9c14-439d-945b-52851b99168e-8" />
      </symbol>
    </g>
  </defs>
  <polyline
     points="54.4343,151.526 57.6745,151.526"
     stroke="#262626"
     stroke-linecap="butt"
     fill="none"
     stroke-linejoin="miter"
     stroke-width="0.5"
     id="polyline81"
     style="stroke-width:0.99212599;stroke-miterlimit:4;stroke-dasharray:none" />
  <polyline
     points="54.4343,48.2308 57.6745,48.2308"
     stroke="#262626"
     stroke-linecap="butt"
     fill="none"
     stroke-linejoin="miter"
     stroke-width="0.5"
     id="polyline89"
     style="stroke-width:0.99212599;stroke-miterlimit:4;stroke-dasharray:none"
     transform="translate(-3.1937587,21.882047)" />
  <polyline
     points="54.4343,48.2308 57.6745,48.2308"
     stroke="#262626"
     stroke-linecap="butt"
     fill="none"
     stroke-linejoin="miter"
     stroke-width="0.5"
     id="polyline89-3"
     style="stroke-width:0.99212599;stroke-miterlimit:4;stroke-dasharray:none"
     transform="translate(-3.1937587,184.34783)" />
  <g
     id="g3350"
     style="stroke-width:0.99212599;stroke-miterlimit:4;stroke-dasharray:none">
    <polyline
       points="54.4343,48.2308 57.6745,48.2308"
       stroke="#262626"
       stroke-linecap="butt"
       fill="none"
       stroke-linejoin="miter"
       stroke-width="0.5"
       id="polyline89-3-6"
       style="stroke-width:0.99212599;stroke-miterlimit:4;stroke-dasharray:none;stroke:#000000"
       transform="rotate(90,44.84821,138.70793)" />
    <polyline
       points="54.4343,48.2308 57.6745,48.2308"
       stroke="#262626"
       stroke-linecap="butt"
       fill="none"
       stroke-linejoin="miter"
       stroke-width="0.5"
       id="polyline89-3-6-7"
       style="stroke-width:0.99212599;stroke-miterlimit:4;stroke-dasharray:none;stroke:#000000"
       transform="rotate(90,43.22811,140.32803)" />
  </g>
  <polyline
     points="54.4343,151.526 57.7122,146.381 60.9901,141.256 64.268,136.173 67.5459,131.151 70.8238,126.212 74.1017,121.374 77.3796,116.658 80.6575,112.082 83.9354,107.665 87.2133,103.425 90.4912,99.3781 93.7691,95.5415 97.047,91.9302 100.325,88.559 103.603,85.4413 106.881,82.5897 110.159,80.0157 113.436,77.7296 116.714,75.7406 119.992,74.0569 123.27,72.6851 126.548,71.6307 129.826,70.8981 133.104,70.4901 136.382,70.4084 139.66,70.6534 142.938,71.224 146.215,72.1179 149.493,73.3316 152.771,74.8602 156.049,76.6974 159.327,78.836 162.605,81.2673 165.883,83.9815 169.161,86.9676 172.439,90.2137 175.717,93.7068 178.994,97.4326 182.272,101.376 185.55,105.522 188.828,109.853 192.106,114.351 195.384,119 198.662,123.779 201.94,128.67 205.218,133.653 208.496,138.708 211.773,143.815 215.051,148.952 218.329,154.1 221.607,159.238 224.885,164.345 228.163,169.4 231.441,174.383 234.719,179.274 237.997,184.053 241.275,188.701 244.552,193.2 247.83,197.531 251.108,201.676 254.386,205.62 257.664,209.346 260.942,212.839 264.22,216.085 267.498,219.071 270.776,221.785 274.054,224.216 277.331,226.355 280.609,228.192 283.887,229.721 287.165,230.935 290.443,231.828 293.721,232.399 296.999,232.644 300.277,232.562 303.555,232.154 306.833,231.422 310.11,230.367 313.388,228.996 316.666,227.312 319.944,225.323 323.222,223.037 326.5,220.463 329.778,217.611 333.056,214.493 336.334,211.122 339.612,207.511 342.889,203.674 346.167,199.628 349.445,195.387 352.723,190.97 356.001,186.395 359.279,181.678 362.557,176.841 365.835,171.901 369.113,166.88 372.391,161.796 375.669,156.672 378.946,151.526"
     stroke="#0071bc"
     stroke-linecap="butt"
     fill="none"
     stroke-linejoin="round"
     stroke-width="0.5"
     id="polyline121"
     style="stroke:#ff0000;stroke-width:0.99212599;stroke-miterlimit:4;stroke-dasharray:none" />
  <path
     style="fill:none;fill-rule:evenodd;stroke:#000000;stroke-width:0.99212599;stroke-linecap:butt;stroke-linejoin:miter;stroke-opacity:1;stroke-miterlimit:4;stroke-dasharray:none;marker-end:url(#Arrow1Mend)"
     d="M 54.480741,242.01333 V 60.068179"
     id="path1539" />
  <path
     style="fill:none;fill-rule:evenodd;stroke:#000000;stroke-width:0.99212599;stroke-linecap:butt;stroke-linejoin:miter;stroke-opacity:1;stroke-miterlimit:4;stroke-dasharray:none;marker-end:url(#Arrow1Mend)"
     d="M 54.480741,151.53422 H 397.12234"
     id="path1922" />
  <g
     id="g3328"
     style="stroke-width:0.99212599;stroke-miterlimit:4;stroke-dasharray:none">
    <polyline
       points="54.4343,48.2308 57.6745,48.2308"
       stroke="#262626"
       stroke-linecap="butt"
       fill="none"
       stroke-linejoin="miter"
       stroke-width="0.5"
       id="polyline89-3-6-5"
       style="stroke-width:0.99212599;stroke-miterlimit:4;stroke-dasharray:none;stroke:#000000"
       transform="rotate(90,85.558892,179.41861)" />
    <polyline
       points="54.4343,48.2308 57.6745,48.2308"
       stroke="#262626"
       stroke-linecap="butt"
       fill="none"
       stroke-linejoin="miter"
       stroke-width="0.5"
       id="polyline89-3-6-7-3"
       style="stroke-width:0.99212599;stroke-miterlimit:4;stroke-dasharray:none;stroke:#000000"
       transform="rotate(90,83.938792,181.03871)" />
  </g>
  <g
     id="g3350-5"
     transform="translate(162.84273)"
     style="stroke-width:0.99212599;stroke-miterlimit:4;stroke-dasharray:none">
    <polyline
       points="54.4343,48.2308 57.6745,48.2308"
       stroke="#262626"
       stroke-linecap="butt"
       fill="none"
       stroke-linejoin="miter"
       stroke-width="0.5"
       id="polyline89-3-6-6"
       style="stroke:#000000;stroke-width:0.99212599;stroke-miterlimit:4;stroke-dasharray:none"
       transform="rotate(90,44.84821,138.70793)" />
    <polyline
       points="54.4343,48.2308 57.6745,48.2308"
       stroke="#262626"
       stroke-linecap="butt"
       fill="none"
       stroke-linejoin="miter"
       stroke-width="0.5"
       id="polyline89-3-6-7-2"
       style="stroke:#000000;stroke-width:0.99212599;stroke-miterlimit:4;stroke-dasharray:none"
       transform="rotate(90,43.22811,140.32803)" />
  </g>
  <g
     id="g3350-9"
     transform="translate(243.62066,-0.00822)"
     style="stroke-width:0.99212599;stroke-miterlimit:4;stroke-dasharray:none">
    <polyline
       points="54.4343,48.2308 57.6745,48.2308"
       stroke="#262626"
       stroke-linecap="butt"
       fill="none"
       stroke-linejoin="miter"
       stroke-width="0.5"
       id="polyline89-3-6-1"
       style="stroke:#000000;stroke-width:0.99212599;stroke-miterlimit:4;stroke-dasharray:none"
       transform="rotate(90,44.84821,138.70793)" />
    <polyline
       points="54.4343,48.2308 57.6745,48.2308"
       stroke="#262626"
       stroke-linecap="butt"
       fill="none"
       stroke-linejoin="miter"
       stroke-width="0.5"
       id="polyline89-3-6-7-27"
       style="stroke:#000000;stroke-width:0.99212599;stroke-miterlimit:4;stroke-dasharray:none"
       transform="rotate(90,43.22811,140.32803)" />
  </g>
  <text
     xml:space="preserve"
     style="font-size:14px;line-height:18.1034px;font-family:'Accanthis ADF Std No3';-inkscape-font-specification:'Accanthis ADF Std No3';letter-spacing:0px;word-spacing:0px;fill:none;stroke:#000000;stroke-width:0.75px;stroke-linecap:butt;stroke-linejoin:miter;stroke-opacity:1"
     x="50.717556"
     y="55.177353"
     id="text12862"><tspan
       sodipodi:role="line"
       id="tspan12860"
       style="font-size:14px;fill:#000000;stroke:none;stroke-width:0.75px"
       x="50.717556"
       y="55.177353">ε</tspan></text>
  <metadata
     id="metadata26430">
    <rdf:RDF>
      <cc:Work
         rdf:about="">
        <dc:title>gl2ps_renderer figure</dc:title>
      </cc:Work>
    </rdf:RDF>
  </metadata>
  <g
     ns1:version="1.8.2"
     ns1:texconverter="pdflatex"
     ns1:pdfconverter="inkscape"
     ns1:text="$T$"
     ns1:preamble="/media/topo/TOSEXT4/doctorado/upm/docencia/libros-apuntes/apuntes-fisica/figuras/TexText/preambulo_textext.tex"
     ns1:scale="1.4"
     ns1:alignment="middle center"
     ns1:stroke-to-path="0"
     ns1:inkscapeversion="1.1.1"
     transform="matrix(1.4,0,0,1.4,375.58647,136.40419)"
     ns1:jacobian_sqrt="1.4"
     id="g457">
    <defs
       id="id-484d71df-e2ea-40ff-852e-56a0158599cd">
      <g
         id="id-476836cd-8d49-4c8a-a78d-f9db2e2cb77a">
        <symbol
           overflow="visible"
           id="id-f3a0aa29-6299-4362-9f07-f59a7b90e583">
          <path
             style="stroke:none"
             d=""
             id="id-7b2ad593-9a6e-4cf0-9ec6-4b18affed147" />
        </symbol>
        <symbol
           overflow="visible"
           id="id-c09af411-f552-41b9-b83b-8f9bc7c3a620">
          <path
             style="stroke:none"
             d="M 6.734375,-4.734375 7,-6.46875 C 7.015625,-6.515625 7.015625,-6.609375 7.015625,-6.640625 7.015625,-6.75 6.921875,-6.75 6.75,-6.75 H 1.21875 c -0.234375,0 -0.25,0.015625 -0.328125,0.203125 l -0.59375,1.75 c 0,0.015625 -0.0625,0.1875 -0.0625,0.1875 0,0.046875 0.0625,0.109375 0.125,0.109375 0.09375,0 0.109375,-0.0625 0.171875,-0.21875 C 1.0625,-6.265625 1.328125,-6.4375 2.796875,-6.4375 H 3.1875 c 0.28125,0 0.28125,0.03125 0.28125,0.125 0,0.046875 -0.03125,0.171875 -0.046875,0.203125 L 2.09375,-0.78125 C 2,-0.421875 1.96875,-0.3125 0.90625,-0.3125 c -0.359375,0 -0.421875,0 -0.421875,0.1875 C 0.484375,0 0.59375,0 0.65625,0 0.921875,0 1.203125,-0.015625 1.46875,-0.015625 L 2.328125,-0.03125 3.15625,-0.015625 C 3.4375,-0.015625 3.734375,0 4.015625,0 c 0.09375,0 0.21875,0 0.21875,-0.203125 0,-0.109375 -0.078125,-0.109375 -0.34375,-0.109375 -0.234375,0 -0.375,0 -0.625,-0.015625 -0.296875,-0.03125 -0.375,-0.0625 -0.375,-0.21875 0,0 0,-0.0625 0.046875,-0.203125 L 4.25,-6.046875 c 0.078125,-0.28125 0.109375,-0.34375 0.234375,-0.375 0.09375,-0.015625 0.421875,-0.015625 0.625,-0.015625 1.015625,0 1.453125,0.03125 1.453125,0.8125 0,0.15625 -0.03125,0.546875 -0.078125,0.796875 0,0.046875 -0.03125,0.15625 -0.03125,0.1875 0,0.0625 0.03125,0.140625 0.125,0.140625 0.109375,0 0.125,-0.078125 0.15625,-0.234375 z m 0,0"
             id="id-7898783d-1749-4108-86a8-66fedf525c12" />
        </symbol>
      </g>
    </defs>
    <g
       id="id-722e5844-ab3d-425b-9d92-3d29577c303e"
       transform="translate(-148.946,-128.015)">
      <g
         style="fill:#000000;fill-opacity:1"
         id="id-09b9bb00-4fe5-4ed5-9a9b-fc179ab514f0">
        <g
           transform="translate(148.712,134.765)"
           id="g678">
          <path
             style="stroke:none"
             d="M 6.734375,-4.734375 7,-6.46875 C 7.015625,-6.515625 7.015625,-6.609375 7.015625,-6.640625 7.015625,-6.75 6.921875,-6.75 6.75,-6.75 H 1.21875 c -0.234375,0 -0.25,0.015625 -0.328125,0.203125 l -0.59375,1.75 c 0,0.015625 -0.0625,0.1875 -0.0625,0.1875 0,0.046875 0.0625,0.109375 0.125,0.109375 0.09375,0 0.109375,-0.0625 0.171875,-0.21875 C 1.0625,-6.265625 1.328125,-6.4375 2.796875,-6.4375 H 3.1875 c 0.28125,0 0.28125,0.03125 0.28125,0.125 0,0.046875 -0.03125,0.171875 -0.046875,0.203125 L 2.09375,-0.78125 C 2,-0.421875 1.96875,-0.3125 0.90625,-0.3125 c -0.359375,0 -0.421875,0 -0.421875,0.1875 C 0.484375,0 0.59375,0 0.65625,0 0.921875,0 1.203125,-0.015625 1.46875,-0.015625 L 2.328125,-0.03125 3.15625,-0.015625 C 3.4375,-0.015625 3.734375,0 4.015625,0 c 0.09375,0 0.21875,0 0.21875,-0.203125 0,-0.109375 -0.078125,-0.109375 -0.34375,-0.109375 -0.234375,0 -0.375,0 -0.625,-0.015625 -0.296875,-0.03125 -0.375,-0.0625 -0.375,-0.21875 0,0 0,-0.0625 0.046875,-0.203125 L 4.25,-6.046875 c 0.078125,-0.28125 0.109375,-0.34375 0.234375,-0.375 0.09375,-0.015625 0.421875,-0.015625 0.625,-0.015625 1.015625,0 1.453125,0.03125 1.453125,0.8125 0,0.15625 -0.03125,0.546875 -0.078125,0.796875 0,0.046875 -0.03125,0.15625 -0.03125,0.1875 0,0.0625 0.03125,0.140625 0.125,0.140625 0.109375,0 0.125,-0.078125 0.15625,-0.234375 z m 0,0"
             id="id-af6473dd-0ad0-483c-aa4b-fbb76ab87a6c" />
        </g>
      </g>
    </g>
  </g>
  <g
     ns1:version="1.8.2"
     ns1:texconverter="pdflatex"
     ns1:pdfconverter="inkscape"
     ns1:text="$\\frac{3T}{4}$"
     ns1:preamble="/media/topo/TOSEXT4/doctorado/upm/docencia/libros-apuntes/apuntes-fisica/figuras/TexText/preambulo_textext.tex"
     ns1:scale="1.4"
     ns1:alignment="middle center"
     ns1:stroke-to-path="0"
     ns1:inkscapeversion="1.1.1"
     transform="matrix(1.4,0,0,1.4,291.34272,128.96879)"
     ns1:jacobian_sqrt="1.4"
     id="g457-3">
    <defs
       id="id-8c324428-5821-44e8-b149-377a58140776">
      <g
         id="id-cd3d1ccd-0eeb-44ab-9f32-2acae618a704">
        <symbol
           overflow="visible"
           id="id-bb627c07-ae90-4578-8cc0-215bbe1d896f">
          <path
             style="stroke:none"
             d=""
             id="id-5afdc53e-cea9-496c-ae89-6da05f28eaa9" />
        </symbol>
        <symbol
           overflow="visible"
           id="id-62ecc160-ebd4-42a5-b28d-efe2ac3c271b">
          <path
             style="stroke:none"
             d="m 3.578125,-1.203125 c 0,-0.546875 -0.4375,-1.09375 -1.203125,-1.25 0.71875,-0.265625 0.984375,-0.78125 0.984375,-1.21875 0,-0.546875 -0.625,-0.953125 -1.40625,-0.953125 -0.765625,0 -1.359375,0.375 -1.359375,0.9375 0,0.234375 0.15625,0.359375 0.359375,0.359375 0.21875,0 0.359375,-0.15625 0.359375,-0.34375 0,-0.203125 -0.140625,-0.359375 -0.359375,-0.375 0.25,-0.296875 0.71875,-0.375 0.984375,-0.375 0.3125,0 0.75,0.15625 0.75,0.75 0,0.296875 -0.09375,0.625 -0.28125,0.828125 -0.21875,0.265625 -0.421875,0.28125 -0.765625,0.3125 -0.171875,0.015625 -0.1875,0.015625 -0.21875,0.015625 0,0 -0.078125,0.015625 -0.078125,0.09375 0,0.09375 0.0625,0.09375 0.1875,0.09375 h 0.375 c 0.546875,0 0.9375,0.375 0.9375,1.125 0,0.859375 -0.515625,1.125 -0.90625,1.125 -0.28125,0 -0.90625,-0.078125 -1.1875,-0.5 0.328125,0 0.40625,-0.234375 0.40625,-0.390625 0,-0.21875 -0.171875,-0.375 -0.390625,-0.375 -0.1875,0 -0.390625,0.125 -0.390625,0.40625 0,0.65625 0.71875,1.078125 1.5625,1.078125 0.96875,0 1.640625,-0.65625 1.640625,-1.34375 z m 0,0"
             id="id-4d29736d-ef2d-4686-aad9-f7d8eb1401c4" />
        </symbol>
        <symbol
           overflow="visible"
           id="id-26eeb0a3-4e9b-4295-a2c7-98fe746a6e51">
          <path
             style="stroke:none"
             d="m 3.6875,-1.140625 v -0.25 H 2.90625 V -4.5 c 0,-0.140625 0,-0.203125 -0.140625,-0.203125 -0.09375,0 -0.125,0 -0.1875,0.109375 l -2.3125,3.203125 v 0.25 h 2.0625 v 0.5625 c 0,0.25 0,0.328125 -0.578125,0.328125 H 1.5625 V 0 L 2.609375,-0.03125 3.671875,0 v -0.25 h -0.1875 C 2.90625,-0.25 2.90625,-0.328125 2.90625,-0.578125 v -0.5625 z m -1.3125,-0.25 H 0.53125 L 2.375,-3.9375 Z m 0,0"
             id="id-ee6e3e6f-a168-4316-94e9-b1487edeeab9" />
        </symbol>
        <symbol
           overflow="visible"
           id="id-8dd697b7-44bf-475d-8f0f-503e3a69b1ab">
          <path
             style="stroke:none"
             d=""
             id="id-12385ab5-635a-4c20-9825-20f9f7482a49" />
        </symbol>
        <symbol
           overflow="visible"
           id="id-c0f3ce01-2291-4852-9bb1-bde8d11420b4">
          <path
             style="stroke:none"
             d="M 5.3125,-3.28125 5.5,-4.609375 c 0,-0.09375 -0.078125,-0.09375 -0.203125,-0.09375 h -4.28125 c -0.171875,0 -0.1875,0 -0.234375,0.140625 l -0.453125,1.234375 c 0,0.03125 -0.03125,0.09375 -0.03125,0.125 0,0.03125 0.015625,0.09375 0.125,0.09375 0.09375,0 0.09375,-0.03125 0.140625,-0.171875 0.40625,-1.109375 0.640625,-1.171875 1.703125,-1.171875 h 0.28125 c 0.21875,0 0.21875,0 0.21875,0.0625 0,0 0,0.046875 -0.03125,0.140625 L 1.8125,-0.578125 C 1.75,-0.328125 1.734375,-0.25 1,-0.25 c -0.25,0 -0.3125,0 -0.3125,0.15625 C 0.6875,-0.078125 0.703125,0 0.8125,0 1,0 1.21875,-0.015625 1.40625,-0.015625 L 2,-0.03125 2.640625,-0.015625 C 2.828125,-0.015625 3.03125,0 3.21875,0 3.28125,0 3.375,0 3.375,-0.15625 3.375,-0.25 3.3125,-0.25 3.09375,-0.25 c -0.125,0 -0.265625,-0.015625 -0.40625,-0.015625 -0.234375,-0.015625 -0.25,-0.046875 -0.25,-0.125 0,-0.0625 0,-0.0625 0.03125,-0.171875 l 0.921875,-3.65625 c 0.046875,-0.203125 0.0625,-0.21875 0.21875,-0.234375 0.03125,0 0.265625,0 0.40625,0 0.4375,0 0.609375,0 0.78125,0.046875 0.3125,0.09375 0.328125,0.296875 0.328125,0.546875 0,0.109375 0,0.203125 -0.046875,0.5625 L 5.0625,-3.21875 c 0,0.078125 0.046875,0.109375 0.125,0.109375 0.109375,0 0.109375,-0.0625 0.125,-0.171875 z m 0,0"
             id="id-f05e8c4d-8b96-438c-9960-2c73478135cd" />
        </symbol>
      </g>
    </defs>
    <g
       id="id-cde36b37-ff36-405c-8ac8-2d28be6850ba"
       transform="translate(-149.906,-126.139)">
      <g
         style="fill:#000000;fill-opacity:1"
         id="id-588663aa-abfd-4e30-80e8-345fecf65cf2">
        <g
           transform="translate(149.908,130.842)"
           id="g982">
          <path
             style="stroke:none"
             d="m 3.578125,-1.203125 c 0,-0.546875 -0.4375,-1.09375 -1.203125,-1.25 0.71875,-0.265625 0.984375,-0.78125 0.984375,-1.21875 0,-0.546875 -0.625,-0.953125 -1.40625,-0.953125 -0.765625,0 -1.359375,0.375 -1.359375,0.9375 0,0.234375 0.15625,0.359375 0.359375,0.359375 0.21875,0 0.359375,-0.15625 0.359375,-0.34375 0,-0.203125 -0.140625,-0.359375 -0.359375,-0.375 0.25,-0.296875 0.71875,-0.375 0.984375,-0.375 0.3125,0 0.75,0.15625 0.75,0.75 0,0.296875 -0.09375,0.625 -0.28125,0.828125 -0.21875,0.265625 -0.421875,0.28125 -0.765625,0.3125 -0.171875,0.015625 -0.1875,0.015625 -0.21875,0.015625 0,0 -0.078125,0.015625 -0.078125,0.09375 0,0.09375 0.0625,0.09375 0.1875,0.09375 h 0.375 c 0.546875,0 0.9375,0.375 0.9375,1.125 0,0.859375 -0.515625,1.125 -0.90625,1.125 -0.28125,0 -0.90625,-0.078125 -1.1875,-0.5 0.328125,0 0.40625,-0.234375 0.40625,-0.390625 0,-0.21875 -0.171875,-0.375 -0.390625,-0.375 -0.1875,0 -0.390625,0.125 -0.390625,0.40625 0,0.65625 0.71875,1.078125 1.5625,1.078125 0.96875,0 1.640625,-0.65625 1.640625,-1.34375 z m 0,0"
             id="id-acbf108f-14cf-4c2a-be54-4db1e205d3d5" />
        </g>
      </g>
      <g
         style="fill:#000000;fill-opacity:1"
         id="id-cd8795f2-8762-4a73-9b5b-6ff1db3fa997">
        <g
           transform="translate(153.879,130.842)"
           id="g986">
          <path
             style="stroke:none"
             d="M 5.3125,-3.28125 5.5,-4.609375 c 0,-0.09375 -0.078125,-0.09375 -0.203125,-0.09375 h -4.28125 c -0.171875,0 -0.1875,0 -0.234375,0.140625 l -0.453125,1.234375 c 0,0.03125 -0.03125,0.09375 -0.03125,0.125 0,0.03125 0.015625,0.09375 0.125,0.09375 0.09375,0 0.09375,-0.03125 0.140625,-0.171875 0.40625,-1.109375 0.640625,-1.171875 1.703125,-1.171875 h 0.28125 c 0.21875,0 0.21875,0 0.21875,0.0625 0,0 0,0.046875 -0.03125,0.140625 L 1.8125,-0.578125 C 1.75,-0.328125 1.734375,-0.25 1,-0.25 c -0.25,0 -0.3125,0 -0.3125,0.15625 C 0.6875,-0.078125 0.703125,0 0.8125,0 1,0 1.21875,-0.015625 1.40625,-0.015625 L 2,-0.03125 2.640625,-0.015625 C 2.828125,-0.015625 3.03125,0 3.21875,0 3.28125,0 3.375,0 3.375,-0.15625 3.375,-0.25 3.3125,-0.25 3.09375,-0.25 c -0.125,0 -0.265625,-0.015625 -0.40625,-0.015625 -0.234375,-0.015625 -0.25,-0.046875 -0.25,-0.125 0,-0.0625 0,-0.0625 0.03125,-0.171875 l 0.921875,-3.65625 c 0.046875,-0.203125 0.0625,-0.21875 0.21875,-0.234375 0.03125,0 0.265625,0 0.40625,0 0.4375,0 0.609375,0 0.78125,0.046875 0.3125,0.09375 0.328125,0.296875 0.328125,0.546875 0,0.109375 0,0.203125 -0.046875,0.5625 L 5.0625,-3.21875 c 0,0.078125 0.046875,0.109375 0.125,0.109375 0.109375,0 0.109375,-0.0625 0.125,-0.171875 z m 0,0"
             id="id-44f4efba-e33a-4d9d-8bdf-d227e191f290" />
        </g>
      </g>
      <path
         style="fill:none;stroke:#000000;stroke-width:0.398;stroke-linecap:butt;stroke-linejoin:miter;stroke-miterlimit:10;stroke-opacity:1"
         d="m -0.00175,5.625e-4 h 9.75"
         transform="matrix(1,0,0,-1,149.908,132.274)"
         id="id-98422fac-45aa-4f36-a29d-4ee7075e1c83" />
      <g
         style="fill:#000000;fill-opacity:1"
         id="id-b3490cce-8439-47c9-838d-9e4e61cdd145">
        <g
           transform="translate(152.797,138.2)"
           id="g991">
          <path
             style="stroke:none"
             d="m 3.6875,-1.140625 v -0.25 H 2.90625 V -4.5 c 0,-0.140625 0,-0.203125 -0.140625,-0.203125 -0.09375,0 -0.125,0 -0.1875,0.109375 l -2.3125,3.203125 v 0.25 h 2.0625 v 0.5625 c 0,0.25 0,0.328125 -0.578125,0.328125 H 1.5625 V 0 L 2.609375,-0.03125 3.671875,0 v -0.25 h -0.1875 C 2.90625,-0.25 2.90625,-0.328125 2.90625,-0.578125 v -0.5625 z m -1.3125,-0.25 H 0.53125 L 2.375,-3.9375 Z m 0,0"
             id="id-6c8c2d8b-e5dd-4fc7-aa35-69c98f63f88d" />
        </g>
      </g>
    </g>
  </g>
  <g
     ns1:version="1.8.2"
     ns1:texconverter="pdflatex"
     ns1:pdfconverter="inkscape"
     ns1:text="$\\frac{T}{2}$"
     ns1:preamble="/media/topo/TOSEXT4/doctorado/upm/docencia/libros-apuntes/apuntes-fisica/figuras/TexText/preambulo_textext.tex"
     ns1:scale="1.4"
     ns1:alignment="middle center"
     ns1:stroke-to-path="0"
     ns1:inkscapeversion="1.1.1"
     transform="matrix(1.4,0,0,1.4,212.69948,128.96879)"
     ns1:jacobian_sqrt="1.4"
     id="g457-3-7">
    <defs
       id="id-9cf70bdf-decc-4fa2-abfc-c9e114970007">
      <g
         id="id-150fad30-68d2-43c2-b8ae-67c0de2c80cb">
        <symbol
           overflow="visible"
           id="id-66478f3a-f7bb-4e26-83c3-c4a2c835fc70">
          <path
             style="stroke:none"
             d=""
             id="id-d91b7903-0a93-4783-952a-c0598e230ad2" />
        </symbol>
        <symbol
           overflow="visible"
           id="id-788092f7-6adf-478b-b045-c4087f7ee869">
          <path
             style="stroke:none"
             d="M 5.3125,-3.28125 5.5,-4.609375 c 0,-0.09375 -0.078125,-0.09375 -0.203125,-0.09375 h -4.28125 c -0.171875,0 -0.1875,0 -0.234375,0.140625 l -0.453125,1.234375 c 0,0.03125 -0.03125,0.09375 -0.03125,0.125 0,0.03125 0.015625,0.09375 0.125,0.09375 0.09375,0 0.09375,-0.03125 0.140625,-0.171875 0.40625,-1.109375 0.640625,-1.171875 1.703125,-1.171875 h 0.28125 c 0.21875,0 0.21875,0 0.21875,0.0625 0,0 0,0.046875 -0.03125,0.140625 L 1.8125,-0.578125 C 1.75,-0.328125 1.734375,-0.25 1,-0.25 c -0.25,0 -0.3125,0 -0.3125,0.15625 C 0.6875,-0.078125 0.703125,0 0.8125,0 1,0 1.21875,-0.015625 1.40625,-0.015625 L 2,-0.03125 2.640625,-0.015625 C 2.828125,-0.015625 3.03125,0 3.21875,0 3.28125,0 3.375,0 3.375,-0.15625 3.375,-0.25 3.3125,-0.25 3.09375,-0.25 c -0.125,0 -0.265625,-0.015625 -0.40625,-0.015625 -0.234375,-0.015625 -0.25,-0.046875 -0.25,-0.125 0,-0.0625 0,-0.0625 0.03125,-0.171875 l 0.921875,-3.65625 c 0.046875,-0.203125 0.0625,-0.21875 0.21875,-0.234375 0.03125,0 0.265625,0 0.40625,0 0.4375,0 0.609375,0 0.78125,0.046875 0.3125,0.09375 0.328125,0.296875 0.328125,0.546875 0,0.109375 0,0.203125 -0.046875,0.5625 L 5.0625,-3.21875 c 0,0.078125 0.046875,0.109375 0.125,0.109375 0.109375,0 0.109375,-0.0625 0.125,-0.171875 z m 0,0"
             id="id-8643ced2-5842-4f31-a1b0-a1002d381a4b" />
        </symbol>
        <symbol
           overflow="visible"
           id="id-a7e6b687-e35d-4cfc-8278-2f2cae531b0c">
          <path
             style="stroke:none"
             d=""
             id="id-f39a7733-a888-4bc1-9a77-045b14f75805" />
        </symbol>
        <symbol
           overflow="visible"
           id="id-c699ad84-a814-463e-9df7-143bf5c96081">
          <path
             style="stroke:none"
             d="M 3.515625,-1.265625 H 3.28125 c -0.015625,0.15625 -0.09375,0.5625 -0.1875,0.625 C 3.046875,-0.59375 2.515625,-0.59375 2.40625,-0.59375 H 1.125 c 0.734375,-0.640625 0.984375,-0.84375 1.390625,-1.171875 0.515625,-0.40625 1,-0.84375 1,-1.5 0,-0.84375 -0.734375,-1.359375 -1.625,-1.359375 -0.859375,0 -1.453125,0.609375 -1.453125,1.25 0,0.34375 0.296875,0.390625 0.375,0.390625 0.15625,0 0.359375,-0.125 0.359375,-0.375 0,-0.125 -0.046875,-0.375 -0.40625,-0.375 C 0.984375,-4.21875 1.453125,-4.375 1.78125,-4.375 c 0.703125,0 1.0625,0.546875 1.0625,1.109375 0,0.609375 -0.4375,1.078125 -0.65625,1.328125 L 0.515625,-0.265625 C 0.4375,-0.203125 0.4375,-0.1875 0.4375,0 h 2.875 z m 0,0"
             id="id-44198892-fcc2-4d50-a089-5c248c7b6332" />
        </symbol>
      </g>
    </defs>
    <g
       id="id-3acd2aa8-5933-43da-81df-474896207928"
       transform="translate(-149.906,-126.139)">
      <g
         style="fill:#000000;fill-opacity:1"
         id="id-1ea81530-f3f6-4b6e-aeda-a1eec93d7dd5">
        <g
           transform="translate(149.908,130.842)"
           id="g1460">
          <path
             style="stroke:none"
             d="M 5.3125,-3.28125 5.5,-4.609375 c 0,-0.09375 -0.078125,-0.09375 -0.203125,-0.09375 h -4.28125 c -0.171875,0 -0.1875,0 -0.234375,0.140625 l -0.453125,1.234375 c 0,0.03125 -0.03125,0.09375 -0.03125,0.125 0,0.03125 0.015625,0.09375 0.125,0.09375 0.09375,0 0.09375,-0.03125 0.140625,-0.171875 0.40625,-1.109375 0.640625,-1.171875 1.703125,-1.171875 h 0.28125 c 0.21875,0 0.21875,0 0.21875,0.0625 0,0 0,0.046875 -0.03125,0.140625 L 1.8125,-0.578125 C 1.75,-0.328125 1.734375,-0.25 1,-0.25 c -0.25,0 -0.3125,0 -0.3125,0.15625 C 0.6875,-0.078125 0.703125,0 0.8125,0 1,0 1.21875,-0.015625 1.40625,-0.015625 L 2,-0.03125 2.640625,-0.015625 C 2.828125,-0.015625 3.03125,0 3.21875,0 3.28125,0 3.375,0 3.375,-0.15625 3.375,-0.25 3.3125,-0.25 3.09375,-0.25 c -0.125,0 -0.265625,-0.015625 -0.40625,-0.015625 -0.234375,-0.015625 -0.25,-0.046875 -0.25,-0.125 0,-0.0625 0,-0.0625 0.03125,-0.171875 l 0.921875,-3.65625 c 0.046875,-0.203125 0.0625,-0.21875 0.21875,-0.234375 0.03125,0 0.265625,0 0.40625,0 0.4375,0 0.609375,0 0.78125,0.046875 0.3125,0.09375 0.328125,0.296875 0.328125,0.546875 0,0.109375 0,0.203125 -0.046875,0.5625 L 5.0625,-3.21875 c 0,0.078125 0.046875,0.109375 0.125,0.109375 0.109375,0 0.109375,-0.0625 0.125,-0.171875 z m 0,0"
             id="id-333ff4b8-a14a-450e-90e2-2bc717cfcdf8" />
        </g>
      </g>
      <path
         style="fill:none;stroke:#000000;stroke-width:0.398;stroke-linecap:butt;stroke-linejoin:miter;stroke-miterlimit:10;stroke-opacity:1"
         d="M -0.00175,5.625e-4 H 5.7795"
         transform="matrix(1,0,0,-1,149.908,132.274)"
         id="id-cf8d9366-9a4b-4e47-90ff-7104ac4121e7" />
      <g
         style="fill:#000000;fill-opacity:1"
         id="id-daf9ad6d-982a-4fd8-8423-aeee8b650a6f">
        <g
           transform="translate(150.811,138.2)"
           id="g1465">
          <path
             style="stroke:none"
             d="M 3.515625,-1.265625 H 3.28125 c -0.015625,0.15625 -0.09375,0.5625 -0.1875,0.625 C 3.046875,-0.59375 2.515625,-0.59375 2.40625,-0.59375 H 1.125 c 0.734375,-0.640625 0.984375,-0.84375 1.390625,-1.171875 0.515625,-0.40625 1,-0.84375 1,-1.5 0,-0.84375 -0.734375,-1.359375 -1.625,-1.359375 -0.859375,0 -1.453125,0.609375 -1.453125,1.25 0,0.34375 0.296875,0.390625 0.375,0.390625 0.15625,0 0.359375,-0.125 0.359375,-0.375 0,-0.125 -0.046875,-0.375 -0.40625,-0.375 C 0.984375,-4.21875 1.453125,-4.375 1.78125,-4.375 c 0.703125,0 1.0625,0.546875 1.0625,1.109375 0,0.609375 -0.4375,1.078125 -0.65625,1.328125 L 0.515625,-0.265625 C 0.4375,-0.203125 0.4375,-0.1875 0.4375,0 h 2.875 z m 0,0"
             id="id-91ebc574-ecf0-462a-b018-0b236b36eb52" />
        </g>
      </g>
    </g>
  </g>
  <g
     ns1:version="1.8.2"
     ns1:texconverter="pdflatex"
     ns1:pdfconverter="inkscape"
     ns1:text="$\\frac{T}{4}$"
     ns1:preamble="/media/topo/TOSEXT4/doctorado/upm/docencia/libros-apuntes/apuntes-fisica/figuras/TexText/preambulo_textext.tex"
     ns1:scale="1.4"
     ns1:alignment="middle center"
     ns1:stroke-to-path="0"
     ns1:inkscapeversion="1.1.1"
     transform="matrix(1.4,0,0,1.4,131.27812,128.96879)"
     ns1:jacobian_sqrt="1.4"
     id="g457-3-7-7">
    <defs
       id="id-2d056da0-aef2-44c8-9b4c-dbef0ddffa1f">
      <g
         id="id-56a55239-97dd-417f-b52c-00e67d3dbe42">
        <symbol
           overflow="visible"
           id="id-3f091217-eecb-43cb-8bb6-f0e0d83ee6ee">
          <path
             style="stroke:none"
             d=""
             id="id-e8a4b728-3436-46f6-83bb-239f9111f051" />
        </symbol>
        <symbol
           overflow="visible"
           id="id-1743b1fa-fa8e-4ac4-95da-28faa33f0c61">
          <path
             style="stroke:none"
             d="M 5.3125,-3.28125 5.5,-4.609375 c 0,-0.09375 -0.078125,-0.09375 -0.203125,-0.09375 h -4.28125 c -0.171875,0 -0.1875,0 -0.234375,0.140625 l -0.453125,1.234375 c 0,0.03125 -0.03125,0.09375 -0.03125,0.125 0,0.03125 0.015625,0.09375 0.125,0.09375 0.09375,0 0.09375,-0.03125 0.140625,-0.171875 0.40625,-1.109375 0.640625,-1.171875 1.703125,-1.171875 h 0.28125 c 0.21875,0 0.21875,0 0.21875,0.0625 0,0 0,0.046875 -0.03125,0.140625 L 1.8125,-0.578125 C 1.75,-0.328125 1.734375,-0.25 1,-0.25 c -0.25,0 -0.3125,0 -0.3125,0.15625 C 0.6875,-0.078125 0.703125,0 0.8125,0 1,0 1.21875,-0.015625 1.40625,-0.015625 L 2,-0.03125 2.640625,-0.015625 C 2.828125,-0.015625 3.03125,0 3.21875,0 3.28125,0 3.375,0 3.375,-0.15625 3.375,-0.25 3.3125,-0.25 3.09375,-0.25 c -0.125,0 -0.265625,-0.015625 -0.40625,-0.015625 -0.234375,-0.015625 -0.25,-0.046875 -0.25,-0.125 0,-0.0625 0,-0.0625 0.03125,-0.171875 l 0.921875,-3.65625 c 0.046875,-0.203125 0.0625,-0.21875 0.21875,-0.234375 0.03125,0 0.265625,0 0.40625,0 0.4375,0 0.609375,0 0.78125,0.046875 0.3125,0.09375 0.328125,0.296875 0.328125,0.546875 0,0.109375 0,0.203125 -0.046875,0.5625 L 5.0625,-3.21875 c 0,0.078125 0.046875,0.109375 0.125,0.109375 0.109375,0 0.109375,-0.0625 0.125,-0.171875 z m 0,0"
             id="id-bd1ac2dc-707d-43f2-a0a8-9e86fd8016d9" />
        </symbol>
        <symbol
           overflow="visible"
           id="id-9f6a29e1-d781-423b-8163-866af45cbaf5">
          <path
             style="stroke:none"
             d=""
             id="id-33b73eb5-c79b-413b-a738-196f4794dd45" />
        </symbol>
        <symbol
           overflow="visible"
           id="id-fa75b294-2d7a-4359-aab4-72bee14b035b">
          <path
             style="stroke:none"
             d="m 3.6875,-1.140625 v -0.25 H 2.90625 V -4.5 c 0,-0.140625 0,-0.203125 -0.140625,-0.203125 -0.09375,0 -0.125,0 -0.1875,0.109375 l -2.3125,3.203125 v 0.25 h 2.0625 v 0.5625 c 0,0.25 0,0.328125 -0.578125,0.328125 H 1.5625 V 0 L 2.609375,-0.03125 3.671875,0 v -0.25 h -0.1875 C 2.90625,-0.25 2.90625,-0.328125 2.90625,-0.578125 v -0.5625 z m -1.3125,-0.25 H 0.53125 L 2.375,-3.9375 Z m 0,0"
             id="id-a555a4bd-45f2-4a56-bdce-5fd125ac982d" />
        </symbol>
      </g>
    </defs>
    <g
       id="id-9cba67b7-17ab-43eb-929e-a95e803bae83"
       transform="translate(-149.906,-126.139)">
      <g
         style="fill:#000000;fill-opacity:1"
         id="id-cd3c61f0-6d22-4107-abc2-ca372a1ec14d">
        <g
           transform="translate(149.908,130.842)"
           id="g1945">
          <path
             style="stroke:none"
             d="M 5.3125,-3.28125 5.5,-4.609375 c 0,-0.09375 -0.078125,-0.09375 -0.203125,-0.09375 h -4.28125 c -0.171875,0 -0.1875,0 -0.234375,0.140625 l -0.453125,1.234375 c 0,0.03125 -0.03125,0.09375 -0.03125,0.125 0,0.03125 0.015625,0.09375 0.125,0.09375 0.09375,0 0.09375,-0.03125 0.140625,-0.171875 0.40625,-1.109375 0.640625,-1.171875 1.703125,-1.171875 h 0.28125 c 0.21875,0 0.21875,0 0.21875,0.0625 0,0 0,0.046875 -0.03125,0.140625 L 1.8125,-0.578125 C 1.75,-0.328125 1.734375,-0.25 1,-0.25 c -0.25,0 -0.3125,0 -0.3125,0.15625 C 0.6875,-0.078125 0.703125,0 0.8125,0 1,0 1.21875,-0.015625 1.40625,-0.015625 L 2,-0.03125 2.640625,-0.015625 C 2.828125,-0.015625 3.03125,0 3.21875,0 3.28125,0 3.375,0 3.375,-0.15625 3.375,-0.25 3.3125,-0.25 3.09375,-0.25 c -0.125,0 -0.265625,-0.015625 -0.40625,-0.015625 -0.234375,-0.015625 -0.25,-0.046875 -0.25,-0.125 0,-0.0625 0,-0.0625 0.03125,-0.171875 l 0.921875,-3.65625 c 0.046875,-0.203125 0.0625,-0.21875 0.21875,-0.234375 0.03125,0 0.265625,0 0.40625,0 0.4375,0 0.609375,0 0.78125,0.046875 0.3125,0.09375 0.328125,0.296875 0.328125,0.546875 0,0.109375 0,0.203125 -0.046875,0.5625 L 5.0625,-3.21875 c 0,0.078125 0.046875,0.109375 0.125,0.109375 0.109375,0 0.109375,-0.0625 0.125,-0.171875 z m 0,0"
             id="id-872dec59-f3c0-49e5-a637-0c7f455e6dc8" />
        </g>
      </g>
      <path
         style="fill:none;stroke:#000000;stroke-width:0.398;stroke-linecap:butt;stroke-linejoin:miter;stroke-miterlimit:10;stroke-opacity:1"
         d="M -0.00175,5.625e-4 H 5.7795"
         transform="matrix(1,0,0,-1,149.908,132.274)"
         id="id-d0aff287-e2d5-4854-b24e-80fbdb39f5c9" />
      <g
         style="fill:#000000;fill-opacity:1"
         id="id-f998008e-6d21-4c11-be35-4dc9cb59e5a9">
        <g
           transform="translate(150.811,138.2)"
           id="g1950">
          <path
             style="stroke:none"
             d="m 3.6875,-1.140625 v -0.25 H 2.90625 V -4.5 c 0,-0.140625 0,-0.203125 -0.140625,-0.203125 -0.09375,0 -0.125,0 -0.1875,0.109375 l -2.3125,3.203125 v 0.25 h 2.0625 v 0.5625 c 0,0.25 0,0.328125 -0.578125,0.328125 H 1.5625 V 0 L 2.609375,-0.03125 3.671875,0 v -0.25 h -0.1875 C 2.90625,-0.25 2.90625,-0.328125 2.90625,-0.578125 v -0.5625 z m -1.3125,-0.25 H 0.53125 L 2.375,-3.9375 Z m 0,0"
             id="id-37c83358-b0a1-47a9-836a-de395e9a495d" />
        </g>
      </g>
    </g>
  </g>
  <g
     ns1:version="1.8.2"
     ns1:texconverter="pdflatex"
     ns1:pdfconverter="inkscape"
     ns1:text="$t$"
     ns1:preamble="/media/topo/TOSEXT4/doctorado/upm/docencia/libros-apuntes/apuntes-fisica/figuras/TexText/preambulo_textext.tex"
     ns1:scale="1.4"
     ns1:alignment="middle center"
     ns1:stroke-to-path="0"
     ns1:inkscapeversion="1.1.1"
     transform="matrix(1.7086694,0,0,1.7086694,399.82009,146.11517)"
     ns1:jacobian_sqrt="1.4"
     id="g2362">
    <defs
       id="id-f07c0eb9-4f58-4ab0-ab78-4ea43ee11b18">
      <g
         id="id-aeab6871-c9ca-42f7-9632-7970ebcbbb9f">
        <symbol
           overflow="visible"
           id="id-e386732b-be0d-4f1f-9a71-40d00885ecf5">
          <path
             style="stroke:none;stroke-width:0"
             d=""
             id="id-9fa7a4da-9414-4254-997d-44703f48761d" />
        </symbol>
        <symbol
           overflow="visible"
           id="id-8e94dc64-344a-4a3a-b86a-5d122562f909">
          <path
             style="stroke:none;stroke-width:0"
             d="m 3.125,-1.421875 c 0,-0.109375 -0.078125,-0.109375 -0.109375,-0.109375 -0.09375,0 -0.109375,0.03125 -0.15625,0.140625 -0.421875,1.046875 -0.953125,1.28125 -1.296875,1.28125 -0.203125,0 -0.3125,-0.125 -0.3125,-0.453125 0,-0.25 0.03125,-0.3125 0.0625,-0.484375 l 0.734375,-2.9375 h 0.9375 c 0.203125,0 0.3125,0 0.3125,-0.203125 0,-0.109375 -0.109375,-0.109375 -0.28125,-0.109375 h -0.875 C 2.5,-5.71875 2.546875,-5.90625 2.546875,-5.96875 c 0,-0.171875 -0.125,-0.265625 -0.296875,-0.265625 -0.03125,0 -0.3125,0 -0.390625,0.359375 L 1.46875,-4.296875 h -0.9375 c -0.203125,0 -0.296875,0 -0.296875,0.1875 0,0.125 0.078125,0.125 0.28125,0.125 h 0.875 C 0.671875,-1.15625 0.625,-0.984375 0.625,-0.8125 0.625,-0.265625 1,0.109375 1.546875,0.109375 2.5625,0.109375 3.125,-1.34375 3.125,-1.421875 Z m 0,0"
             id="id-86ffb346-0893-44ba-8176-182b12241f0e" />
        </symbol>
      </g>
    </defs>
    <g
       id="id-d1df271c-dc84-46c3-b7b7-133b3b901fb0"
       transform="translate(-148.946,-128.531)">
      <g
         style="fill:#000000;fill-opacity:1"
         id="id-1a25cb35-9109-4e08-a00a-e2ce7d3e8c3c">
        <g
           transform="translate(148.712,134.765)"
           id="g2358">
          <path
             style="stroke:none;stroke-width:0"
             d="m 3.125,-1.421875 c 0,-0.109375 -0.078125,-0.109375 -0.109375,-0.109375 -0.09375,0 -0.109375,0.03125 -0.15625,0.140625 -0.421875,1.046875 -0.953125,1.28125 -1.296875,1.28125 -0.203125,0 -0.3125,-0.125 -0.3125,-0.453125 0,-0.25 0.03125,-0.3125 0.0625,-0.484375 l 0.734375,-2.9375 h 0.9375 c 0.203125,0 0.3125,0 0.3125,-0.203125 0,-0.109375 -0.109375,-0.109375 -0.28125,-0.109375 h -0.875 C 2.5,-5.71875 2.546875,-5.90625 2.546875,-5.96875 c 0,-0.171875 -0.125,-0.265625 -0.296875,-0.265625 -0.03125,0 -0.3125,0 -0.390625,0.359375 L 1.46875,-4.296875 h -0.9375 c -0.203125,0 -0.296875,0 -0.296875,0.1875 0,0.125 0.078125,0.125 0.28125,0.125 h 0.875 C 0.671875,-1.15625 0.625,-0.984375 0.625,-0.8125 0.625,-0.265625 1,0.109375 1.546875,0.109375 2.5625,0.109375 3.125,-1.34375 3.125,-1.421875 Z m 0,0"
             id="id-fd326541-9f75-40b1-bae2-9fba0dd3831e" />
        </g>
      </g>
    </g>
  </g>
  <g
     ns1:version="1.8.2"
     ns1:texconverter="pdflatex"
     ns1:pdfconverter="inkscape"
     ns1:text="$0$"
     ns1:preamble="/media/topo/TOSEXT4/doctorado/upm/docencia/libros-apuntes/apuntes-fisica/figuras/TexText/preambulo_textext.tex"
     ns1:scale="1.4"
     ns1:alignment="middle center"
     ns1:stroke-to-path="0"
     ns1:inkscapeversion="1.1.1"
     transform="matrix(1.4,0,0,1.4,45.515908,146.73213)"
     ns1:jacobian_sqrt="1.4"
     id="g2718">
    <defs
       id="id-64182211-5ba3-401d-bb45-77e18f497da3">
      <g
         id="id-8ef50ace-f3ae-4406-b417-0c413f6691c2">
        <symbol
           overflow="visible"
           id="id-45b96c87-fa6c-486d-abca-2b3095cbc4ec">
          <path
             style="stroke:none;stroke-width:0"
             d=""
             id="id-deaf974f-3ce3-4c81-a4d4-5f34565c4022" />
        </symbol>
        <symbol
           overflow="visible"
           id="id-d2cb5623-3fe8-4661-b467-317ce87811a8">
          <path
             style="stroke:none;stroke-width:0"
             d="m 4.578125,-3.1875 c 0,-0.796875 -0.046875,-1.59375 -0.390625,-2.328125 -0.453125,-0.96875 -1.28125,-1.125 -1.6875,-1.125 -0.609375,0 -1.328125,0.265625 -1.75,1.1875 -0.3125,0.6875 -0.359375,1.46875 -0.359375,2.265625 0,0.75 0.03125,1.640625 0.453125,2.40625 0.421875,0.796875 1.15625,1 1.640625,1 0.53125,0 1.296875,-0.203125 1.734375,-1.15625 0.3125,-0.6875 0.359375,-1.46875 0.359375,-2.25 z m -0.8125,-0.125 c 0,0.75 0,1.421875 -0.109375,2.0625 C 3.5,-0.296875 2.9375,0 2.484375,0 2.09375,0 1.5,-0.25 1.328125,-1.203125 1.21875,-1.796875 1.21875,-2.71875 1.21875,-3.3125 c 0,-0.640625 0,-1.296875 0.078125,-1.828125 0.1875,-1.1875 0.9375,-1.28125 1.1875,-1.28125 0.328125,0 0.984375,0.1875 1.171875,1.171875 0.109375,0.5625 0.109375,1.3125 0.109375,1.9375 z m 0,0"
             id="id-1ab11631-e137-4745-9dd9-9dea4fa76e87" />
        </symbol>
      </g>
    </defs>
    <g
       id="id-6b1b0a98-17e0-4b1c-a68e-1de9dae84eef"
       transform="translate(-149.103,-128.124)">
      <g
         style="fill:#000000;fill-opacity:1"
         id="id-2621fad9-7645-4a8a-bdb6-2e36714d7693">
        <g
           transform="translate(148.712,134.765)"
           id="g2714">
          <path
             style="stroke:none;stroke-width:0"
             d="m 4.578125,-3.1875 c 0,-0.796875 -0.046875,-1.59375 -0.390625,-2.328125 -0.453125,-0.96875 -1.28125,-1.125 -1.6875,-1.125 -0.609375,0 -1.328125,0.265625 -1.75,1.1875 -0.3125,0.6875 -0.359375,1.46875 -0.359375,2.265625 0,0.75 0.03125,1.640625 0.453125,2.40625 0.421875,0.796875 1.15625,1 1.640625,1 0.53125,0 1.296875,-0.203125 1.734375,-1.15625 0.3125,-0.6875 0.359375,-1.46875 0.359375,-2.25 z m -0.8125,-0.125 c 0,0.75 0,1.421875 -0.109375,2.0625 C 3.5,-0.296875 2.9375,0 2.484375,0 2.09375,0 1.5,-0.25 1.328125,-1.203125 1.21875,-1.796875 1.21875,-2.71875 1.21875,-3.3125 c 0,-0.640625 0,-1.296875 0.078125,-1.828125 0.1875,-1.1875 0.9375,-1.28125 1.1875,-1.28125 0.328125,0 0.984375,0.1875 1.171875,1.171875 0.109375,0.5625 0.109375,1.3125 0.109375,1.9375 z m 0,0"
             id="id-f9bc750a-981f-4b9e-b312-689483edd009" />
        </g>
      </g>
    </g>
  </g>
  <g
     ns1:version="1.8.2"
     ns1:texconverter="pdflatex"
     ns1:pdfconverter="inkscape"
     ns1:text="$\\varepsilon_{\\max}$"
     ns1:preamble="/media/topo/TOSEXT4/doctorado/upm/docencia/libros-apuntes/apuntes-fisica/figuras/TexText/preambulo_textext.tex"
     ns1:scale="1.4"
     ns1:alignment="middle center"
     ns1:stroke-to-path="0"
     ns1:inkscapeversion="1.1.1"
     transform="matrix(1.4,0,0,1.4,21.305507,65.861834)"
     ns1:jacobian_sqrt="1.4"
     id="g2718-6">
    <defs
       id="id-508e08cf-eedb-496c-8153-1f8b9583d32e">
      <g
         id="id-a7d48605-b180-4846-801e-a3b3e2e3071b">
        <symbol
           overflow="visible"
           id="id-703d4d7b-a32c-4a71-9f43-a2c100aa77b8">
          <path
             style="stroke:none"
             d=""
             id="id-ed1e0d6a-e5d1-4b36-9262-c8e6396ea986" />
        </symbol>
        <symbol
           overflow="visible"
           id="id-b97dc9c0-368d-44c5-a38d-5e5fd4288778">
          <path
             style="stroke:none"
             d="m 3.765625,-0.8125 c 0,-0.0625 -0.0625,-0.09375 -0.109375,-0.09375 -0.0625,0 -0.09375,0.03125 -0.109375,0.0625 -0.140625,0.234375 -0.375,0.609375 -1.578125,0.609375 -0.609375,0 -1.453125,-0.15625 -1.453125,-0.859375 0,-0.34375 0.28125,-0.875 0.890625,-1.171875 0.328125,0.140625 0.625,0.140625 0.859375,0.140625 0.25,0 0.8125,0 0.8125,-0.3125 0,-0.234375 -0.359375,-0.265625 -0.734375,-0.265625 -0.203125,0 -0.5625,0.015625 -0.921875,0.1875 C 1.1875,-2.625 1.015625,-2.828125 1.015625,-3.09375 c 0,-0.609375 0.984375,-0.96875 1.875,-0.96875 0.15625,0 0.515625,0 0.921875,0.28125 0.109375,0.078125 0.125,0.109375 0.1875,0.109375 0.140625,0 0.28125,-0.140625 0.28125,-0.28125 0,-0.1875 -0.609375,-0.5625 -1.296875,-0.5625 -1.140625,0 -2.21875,0.671875 -2.21875,1.421875 0,0.4375 0.359375,0.6875 0.40625,0.71875 -0.59375,0.328125 -0.90625,0.875 -0.90625,1.34375 0,0.640625 0.5625,1.25 1.625,1.25 1.3125,0 1.875,-0.875 1.875,-1.03125 z M 2.8125,-2.421875 c -0.15625,0.0625 -0.171875,0.078125 -0.546875,0.078125 -0.21875,0 -0.34375,0 -0.53125,-0.046875 0.234375,-0.078125 0.4375,-0.09375 0.609375,-0.09375 0.25,0 0.28125,0.015625 0.46875,0.0625 z m 0,0"
             id="id-77bbeb1d-0b69-4b74-9474-ad93a60d200c" />
        </symbol>
        <symbol
           overflow="visible"
           id="id-f804de61-db23-4493-8e88-5b0f7702fe61">
          <path
             style="stroke:none"
             d=""
             id="id-4ec28150-9c02-47d8-a09f-e37b6483d7ff" />
        </symbol>
        <symbol
           overflow="visible"
           id="id-e4b46fdf-2ae9-4d3c-bd37-46bcc3db8fee">
          <path
             style="stroke:none"
             d="m 6.25,0 v -0.25 c -0.453125,0 -0.515625,0 -0.515625,-0.296875 v -1.5625 c 0,-0.609375 -0.3125,-0.96875 -1.046875,-0.96875 -0.5625,0 -0.9375,0.296875 -1.125,0.65625 -0.140625,-0.5 -0.515625,-0.65625 -1.015625,-0.65625 -0.578125,0 -0.9375,0.3125 -1.140625,0.6875 v -0.6875 L 0.375,-3 v 0.25 c 0.46875,0 0.53125,0.046875 0.53125,0.390625 v 1.8125 C 0.90625,-0.25 0.828125,-0.25 0.375,-0.25 V 0 c 0,0 0.5,-0.03125 0.796875,-0.03125 C 1.421875,-0.03125 1.90625,0 1.96875,0 v -0.25 c -0.453125,0 -0.515625,0 -0.515625,-0.296875 V -1.8125 c 0,-0.71875 0.578125,-1.0625 1.03125,-1.0625 0.484375,0 0.546875,0.375 0.546875,0.734375 v 1.59375 C 3.03125,-0.25 2.96875,-0.25 2.515625,-0.25 V 0 c 0,0 0.5,-0.03125 0.796875,-0.03125 C 3.5625,-0.03125 4.046875,0 4.109375,0 v -0.25 c -0.453125,0 -0.515625,0 -0.515625,-0.296875 V -1.8125 c 0,-0.71875 0.578125,-1.0625 1.03125,-1.0625 0.484375,0 0.546875,0.375 0.546875,0.734375 v 1.59375 C 5.171875,-0.25 5.109375,-0.25 4.65625,-0.25 V 0 c 0,0 0.5,-0.03125 0.796875,-0.03125 C 5.703125,-0.03125 6.1875,0 6.25,0 Z m 0,0"
             id="id-566517f3-2a5e-40f0-a2da-07b1b119b31e" />
        </symbol>
        <symbol
           overflow="visible"
           id="id-7b3fa32f-32f2-4f8b-8a06-c3ebc5c474aa">
          <path
             style="stroke:none"
             d="m 2.9375,-4.578125 c 0,-0.125 -0.109375,-0.28125 -0.28125,-0.28125 -0.109375,0 -0.171875,0.0625 -0.234375,0.140625 L 1.5,-3.703125 1.671875,-3.53125 2.765625,-4.328125 c 0.109375,-0.0625 0.171875,-0.125 0.171875,-0.25 z m 0,0"
             id="id-1ceaf6c8-e278-464e-90b5-9485705e8cc5" />
        </symbol>
        <symbol
           overflow="visible"
           id="id-9c39db11-2b9b-4c58-abc2-f30543cff736">
          <path
             style="stroke:none"
             d="m 3.796875,-0.625 v -0.390625 h -0.25 v 0.375 c 0,0.078125 0,0.40625 -0.25,0.40625 -0.265625,0 -0.265625,-0.328125 -0.265625,-0.40625 V -1.875 c 0,-0.359375 0,-0.625 -0.3125,-0.890625 C 2.4375,-3 2.09375,-3.109375 1.6875,-3.109375 c -0.65625,0 -1.125,0.25 -1.125,0.671875 0,0.234375 0.140625,0.34375 0.328125,0.34375 0.1875,0 0.328125,-0.140625 0.328125,-0.328125 0,-0.109375 -0.0625,-0.265625 -0.25,-0.3125 0.25,-0.171875 0.65625,-0.171875 0.703125,-0.171875 0.390625,0 0.8125,0.25 0.8125,0.84375 v 0.203125 c -0.375,0.015625 -0.84375,0.046875 -1.34375,0.234375 -0.625,0.21875 -0.828125,0.609375 -0.828125,0.921875 0,0.59375 0.71875,0.765625 1.21875,0.765625 0.5625,0 0.890625,-0.3125 1.03125,-0.578125 0.03125,0.28125 0.21875,0.546875 0.53125,0.546875 0,0 0.703125,0 0.703125,-0.65625 z m -1.3125,-0.359375 c 0,0.671875 -0.578125,0.859375 -0.890625,0.859375 -0.359375,0 -0.6875,-0.234375 -0.6875,-0.578125 0,-0.390625 0.328125,-0.921875 1.578125,-0.96875 z m 0,0"
             id="id-41abd07e-5dd0-4f1f-8b80-bf4840d43c9c" />
        </symbol>
        <symbol
           overflow="visible"
           id="id-4217d5cf-1da7-4894-be69-9287a6ae1efd">
          <path
             style="stroke:none"
             d="m 4,0 v -0.25 c -0.46875,0 -0.515625,-0.046875 -0.6875,-0.21875 L 2.359375,-1.5625 2.3125,-1.625 c 0,-0.03125 0.453125,-0.515625 0.515625,-0.578125 C 3.078125,-2.484375 3.3125,-2.75 3.875,-2.75 V -3 C 3.671875,-2.984375 3.46875,-2.96875 3.28125,-2.96875 3.078125,-2.96875 2.796875,-2.984375 2.59375,-3 v 0.25 c 0.109375,0.015625 0.140625,0.09375 0.140625,0.15625 0,0 0,0.125 -0.109375,0.234375 L 2.140625,-1.8125 1.5625,-2.46875 C 1.484375,-2.546875 1.484375,-2.578125 1.484375,-2.609375 c 0,-0.09375 0.09375,-0.140625 0.1875,-0.140625 V -3 c -0.25,0.015625 -0.515625,0.03125 -0.78125,0.03125 C 0.6875,-2.96875 0.421875,-2.984375 0.21875,-3 v 0.25 c 0.3125,0 0.5,0 0.6875,0.203125 l 0.859375,1 0.0625,0.078125 c 0,0.015625 -0.53125,0.59375 -0.59375,0.671875 -0.265625,0.28125 -0.5,0.53125 -1.046875,0.546875 V 0 C 0.390625,-0.015625 0.546875,-0.03125 0.765625,-0.03125 0.96875,-0.03125 1.25,-0.015625 1.453125,0 V -0.25 C 1.375,-0.265625 1.3125,-0.3125 1.3125,-0.40625 1.3125,-0.546875 1.390625,-0.640625 1.5,-0.75 L 2,-1.296875 2.59375,-0.59375 c 0.140625,0.140625 0.140625,0.15625 0.140625,0.203125 0,0.125 -0.15625,0.140625 -0.1875,0.140625 V 0 c 0.0625,0 0.5625,-0.03125 0.78125,-0.03125 C 3.546875,-0.03125 3.78125,-0.015625 4,0 Z m 0,0"
             id="id-02ce57c3-9c14-439d-945b-52851b99168e" />
        </symbol>
      </g>
    </defs>
    <g
       id="id-26e20c13-9db6-4ef5-93d4-f1093d1a3fed"
       transform="translate(-148.978,-130.249)">
      <g
         style="fill:#000000;fill-opacity:1"
         id="id-48cebdac-1f9a-4714-a470-824a8ac3b36c">
        <g
           transform="translate(148.712,134.765)"
           id="g3221">
          <path
             style="stroke:none"
             d="m 3.765625,-0.8125 c 0,-0.0625 -0.0625,-0.09375 -0.109375,-0.09375 -0.0625,0 -0.09375,0.03125 -0.109375,0.0625 -0.140625,0.234375 -0.375,0.609375 -1.578125,0.609375 -0.609375,0 -1.453125,-0.15625 -1.453125,-0.859375 0,-0.34375 0.28125,-0.875 0.890625,-1.171875 0.328125,0.140625 0.625,0.140625 0.859375,0.140625 0.25,0 0.8125,0 0.8125,-0.3125 0,-0.234375 -0.359375,-0.265625 -0.734375,-0.265625 -0.203125,0 -0.5625,0.015625 -0.921875,0.1875 C 1.1875,-2.625 1.015625,-2.828125 1.015625,-3.09375 c 0,-0.609375 0.984375,-0.96875 1.875,-0.96875 0.15625,0 0.515625,0 0.921875,0.28125 0.109375,0.078125 0.125,0.109375 0.1875,0.109375 0.140625,0 0.28125,-0.140625 0.28125,-0.28125 0,-0.1875 -0.609375,-0.5625 -1.296875,-0.5625 -1.140625,0 -2.21875,0.671875 -2.21875,1.421875 0,0.4375 0.359375,0.6875 0.40625,0.71875 -0.59375,0.328125 -0.90625,0.875 -0.90625,1.34375 0,0.640625 0.5625,1.25 1.625,1.25 1.3125,0 1.875,-0.875 1.875,-1.03125 z M 2.8125,-2.421875 c -0.15625,0.0625 -0.171875,0.078125 -0.546875,0.078125 -0.21875,0 -0.34375,0 -0.53125,-0.046875 0.234375,-0.078125 0.4375,-0.09375 0.609375,-0.09375 0.25,0 0.28125,0.015625 0.46875,0.0625 z m 0,0"
             id="id-2d029b65-ce45-4200-846a-ba6fe32c4759" />
        </g>
      </g>
      <g
         style="fill:#000000;fill-opacity:1"
         id="id-16a2d747-10b5-4765-9160-607b8404401f">
        <g
           transform="translate(153.358,136.259)"
           id="g3225">
          <path
             style="stroke:none"
             d="m 6.25,0 v -0.25 c -0.453125,0 -0.515625,0 -0.515625,-0.296875 v -1.5625 c 0,-0.609375 -0.3125,-0.96875 -1.046875,-0.96875 -0.5625,0 -0.9375,0.296875 -1.125,0.65625 -0.140625,-0.5 -0.515625,-0.65625 -1.015625,-0.65625 -0.578125,0 -0.9375,0.3125 -1.140625,0.6875 v -0.6875 L 0.375,-3 v 0.25 c 0.46875,0 0.53125,0.046875 0.53125,0.390625 v 1.8125 C 0.90625,-0.25 0.828125,-0.25 0.375,-0.25 V 0 c 0,0 0.5,-0.03125 0.796875,-0.03125 C 1.421875,-0.03125 1.90625,0 1.96875,0 v -0.25 c -0.453125,0 -0.515625,0 -0.515625,-0.296875 V -1.8125 c 0,-0.71875 0.578125,-1.0625 1.03125,-1.0625 0.484375,0 0.546875,0.375 0.546875,0.734375 v 1.59375 C 3.03125,-0.25 2.96875,-0.25 2.515625,-0.25 V 0 c 0,0 0.5,-0.03125 0.796875,-0.03125 C 3.5625,-0.03125 4.046875,0 4.109375,0 v -0.25 c -0.453125,0 -0.515625,0 -0.515625,-0.296875 V -1.8125 c 0,-0.71875 0.578125,-1.0625 1.03125,-1.0625 0.484375,0 0.546875,0.375 0.546875,0.734375 v 1.59375 C 5.171875,-0.25 5.109375,-0.25 4.65625,-0.25 V 0 c 0,0 0.5,-0.03125 0.796875,-0.03125 C 5.703125,-0.03125 6.1875,0 6.25,0 Z m 0,0"
             id="id-9bb4c4d7-b115-4dac-9732-88e16798c8b7" />
        </g>
      </g>
      <g
         style="fill:#000000;fill-opacity:1"
         id="id-9977aa53-bde4-42e2-be68-a9f919b8dca8">
        <g
           transform="translate(159.91,136.259)"
           id="g3229">
          <path
             style="stroke:none"
             d="m 2.9375,-4.578125 c 0,-0.125 -0.109375,-0.28125 -0.28125,-0.28125 -0.109375,0 -0.171875,0.0625 -0.234375,0.140625 L 1.5,-3.703125 1.671875,-3.53125 2.765625,-4.328125 c 0.109375,-0.0625 0.171875,-0.125 0.171875,-0.25 z m 0,0"
             id="id-6fba202a-3927-45f9-bd94-ba30cf34ba48" />
        </g>
      </g>
      <g
         style="fill:#000000;fill-opacity:1"
         id="id-9b6302e0-9856-41df-a6d9-4189a1f066cb">
        <g
           transform="translate(159.906,136.259)"
           id="g3233">
          <path
             style="stroke:none"
             d="m 3.796875,-0.625 v -0.390625 h -0.25 v 0.375 c 0,0.078125 0,0.40625 -0.25,0.40625 -0.265625,0 -0.265625,-0.328125 -0.265625,-0.40625 V -1.875 c 0,-0.359375 0,-0.625 -0.3125,-0.890625 C 2.4375,-3 2.09375,-3.109375 1.6875,-3.109375 c -0.65625,0 -1.125,0.25 -1.125,0.671875 0,0.234375 0.140625,0.34375 0.328125,0.34375 0.1875,0 0.328125,-0.140625 0.328125,-0.328125 0,-0.109375 -0.0625,-0.265625 -0.25,-0.3125 0.25,-0.171875 0.65625,-0.171875 0.703125,-0.171875 0.390625,0 0.8125,0.25 0.8125,0.84375 v 0.203125 c -0.375,0.015625 -0.84375,0.046875 -1.34375,0.234375 -0.625,0.21875 -0.828125,0.609375 -0.828125,0.921875 0,0.59375 0.71875,0.765625 1.21875,0.765625 0.5625,0 0.890625,-0.3125 1.03125,-0.578125 0.03125,0.28125 0.21875,0.546875 0.53125,0.546875 0,0 0.703125,0 0.703125,-0.65625 z m -1.3125,-0.359375 c 0,0.671875 -0.578125,0.859375 -0.890625,0.859375 -0.359375,0 -0.6875,-0.234375 -0.6875,-0.578125 0,-0.390625 0.328125,-0.921875 1.578125,-0.96875 z m 0,0"
             id="id-94c1cd0b-bb35-457d-b7b8-2594cebc1987" />
        </g>
      </g>
      <g
         style="fill:#000000;fill-opacity:1"
         id="id-1dd9efd0-069c-4706-b4d6-da865d9a8247">
        <g
           transform="translate(163.891,136.259)"
           id="g3237">
          <path
             style="stroke:none"
             d="m 4,0 v -0.25 c -0.46875,0 -0.515625,-0.046875 -0.6875,-0.21875 L 2.359375,-1.5625 2.3125,-1.625 c 0,-0.03125 0.453125,-0.515625 0.515625,-0.578125 C 3.078125,-2.484375 3.3125,-2.75 3.875,-2.75 V -3 C 3.671875,-2.984375 3.46875,-2.96875 3.28125,-2.96875 3.078125,-2.96875 2.796875,-2.984375 2.59375,-3 v 0.25 c 0.109375,0.015625 0.140625,0.09375 0.140625,0.15625 0,0 0,0.125 -0.109375,0.234375 L 2.140625,-1.8125 1.5625,-2.46875 C 1.484375,-2.546875 1.484375,-2.578125 1.484375,-2.609375 c 0,-0.09375 0.09375,-0.140625 0.1875,-0.140625 V -3 c -0.25,0.015625 -0.515625,0.03125 -0.78125,0.03125 C 0.6875,-2.96875 0.421875,-2.984375 0.21875,-3 v 0.25 c 0.3125,0 0.5,0 0.6875,0.203125 l 0.859375,1 0.0625,0.078125 c 0,0.015625 -0.53125,0.59375 -0.59375,0.671875 -0.265625,0.28125 -0.5,0.53125 -1.046875,0.546875 V 0 C 0.390625,-0.015625 0.546875,-0.03125 0.765625,-0.03125 0.96875,-0.03125 1.25,-0.015625 1.453125,0 V -0.25 C 1.375,-0.265625 1.3125,-0.3125 1.3125,-0.40625 1.3125,-0.546875 1.390625,-0.640625 1.5,-0.75 L 2,-1.296875 2.59375,-0.59375 c 0.140625,0.140625 0.140625,0.15625 0.140625,0.203125 0,0.125 -0.15625,0.140625 -0.1875,0.140625 V 0 c 0.0625,0 0.5625,-0.03125 0.78125,-0.03125 C 3.546875,-0.03125 3.78125,-0.015625 4,0 Z m 0,0"
             id="id-11c4de41-2422-4292-b07f-91cb9fcb9b08" />
        </g>
      </g>
    </g>
  </g>
  <g
     ns1:version="1.8.2"
     ns1:texconverter="pdflatex"
     ns1:pdfconverter="inkscape"
     ns1:text="$-\\varepsilon_{\\max}$"
     ns1:preamble="/media/topo/TOSEXT4/doctorado/upm/docencia/libros-apuntes/apuntes-fisica/figuras/TexText/preambulo_textext.tex"
     ns1:scale="1.4"
     ns1:alignment="middle center"
     ns1:stroke-to-path="0"
     ns1:inkscapeversion="1.1.1"
     transform="matrix(1.4,0,0,1.4,11.243707,228.32762)"
     ns1:jacobian_sqrt="1.4"
     id="g2718-6-5">
    <defs
       id="id-429b69f2-119d-456e-9f26-dd33f8adf9df">
      <g
         id="id-5374dfc0-2207-4553-a7e4-4434cde0dc3a">
        <symbol
           overflow="visible"
           id="id-b5db7ef7-73d7-436b-83df-db0d01ba4d25">
          <path
             style="stroke:none"
             d=""
             id="id-56d19eff-cfba-4f99-a3ef-e9e134556cd6" />
        </symbol>
        <symbol
           overflow="visible"
           id="id-78c5d54c-2d9e-40a1-af43-84344c4c0946">
          <path
             style="stroke:none"
             d="m 6.921875,-2.5 c 0,-0.1875 -0.1875,-0.1875 -0.328125,-0.1875 h -5.4375 c -0.140625,0 -0.328125,0 -0.328125,0.1875 0,0.203125 0.1875,0.203125 0.328125,0.203125 h 5.4375 c 0.140625,0 0.328125,0 0.328125,-0.203125 z m 0,0"
             id="id-bbabb537-4161-4f8a-b8de-c1f876afedf3" />
        </symbol>
        <symbol
           overflow="visible"
           id="id-9fea1706-4104-440d-b132-3ead23b68cca">
          <path
             style="stroke:none"
             d=""
             id="id-c71c048b-16e7-4645-9bb4-42a064aed6ab" />
        </symbol>
        <symbol
           overflow="visible"
           id="id-46c06d85-84cb-4498-b9cd-c6f03d9f4f9e">
          <path
             style="stroke:none"
             d="m 3.765625,-0.8125 c 0,-0.0625 -0.0625,-0.09375 -0.109375,-0.09375 -0.0625,0 -0.09375,0.03125 -0.109375,0.0625 -0.140625,0.234375 -0.375,0.609375 -1.578125,0.609375 -0.609375,0 -1.453125,-0.15625 -1.453125,-0.859375 0,-0.34375 0.28125,-0.875 0.890625,-1.171875 0.328125,0.140625 0.625,0.140625 0.859375,0.140625 0.25,0 0.8125,0 0.8125,-0.3125 0,-0.234375 -0.359375,-0.265625 -0.734375,-0.265625 -0.203125,0 -0.5625,0.015625 -0.921875,0.1875 C 1.1875,-2.625 1.015625,-2.828125 1.015625,-3.09375 c 0,-0.609375 0.984375,-0.96875 1.875,-0.96875 0.15625,0 0.515625,0 0.921875,0.28125 0.109375,0.078125 0.125,0.109375 0.1875,0.109375 0.140625,0 0.28125,-0.140625 0.28125,-0.28125 0,-0.1875 -0.609375,-0.5625 -1.296875,-0.5625 -1.140625,0 -2.21875,0.671875 -2.21875,1.421875 0,0.4375 0.359375,0.6875 0.40625,0.71875 -0.59375,0.328125 -0.90625,0.875 -0.90625,1.34375 0,0.640625 0.5625,1.25 1.625,1.25 1.3125,0 1.875,-0.875 1.875,-1.03125 z M 2.8125,-2.421875 c -0.15625,0.0625 -0.171875,0.078125 -0.546875,0.078125 -0.21875,0 -0.34375,0 -0.53125,-0.046875 0.234375,-0.078125 0.4375,-0.09375 0.609375,-0.09375 0.25,0 0.28125,0.015625 0.46875,0.0625 z m 0,0"
             id="id-8f4f1151-baaa-440a-b917-9c23e0c16cbd" />
        </symbol>
        <symbol
           overflow="visible"
           id="id-af1b76a1-3ece-43ff-9a95-3f18a7b270b4">
          <path
             style="stroke:none"
             d=""
             id="id-68396313-ff87-423f-b151-b073875c6ecd" />
        </symbol>
        <symbol
           overflow="visible"
           id="id-aefaa4f1-e16b-43b8-aa67-c4ac97ba1b1a">
          <path
             style="stroke:none"
             d="m 6.25,0 v -0.25 c -0.453125,0 -0.515625,0 -0.515625,-0.296875 v -1.5625 c 0,-0.609375 -0.3125,-0.96875 -1.046875,-0.96875 -0.5625,0 -0.9375,0.296875 -1.125,0.65625 -0.140625,-0.5 -0.515625,-0.65625 -1.015625,-0.65625 -0.578125,0 -0.9375,0.3125 -1.140625,0.6875 v -0.6875 L 0.375,-3 v 0.25 c 0.46875,0 0.53125,0.046875 0.53125,0.390625 v 1.8125 C 0.90625,-0.25 0.828125,-0.25 0.375,-0.25 V 0 c 0,0 0.5,-0.03125 0.796875,-0.03125 C 1.421875,-0.03125 1.90625,0 1.96875,0 v -0.25 c -0.453125,0 -0.515625,0 -0.515625,-0.296875 V -1.8125 c 0,-0.71875 0.578125,-1.0625 1.03125,-1.0625 0.484375,0 0.546875,0.375 0.546875,0.734375 v 1.59375 C 3.03125,-0.25 2.96875,-0.25 2.515625,-0.25 V 0 c 0,0 0.5,-0.03125 0.796875,-0.03125 C 3.5625,-0.03125 4.046875,0 4.109375,0 v -0.25 c -0.453125,0 -0.515625,0 -0.515625,-0.296875 V -1.8125 c 0,-0.71875 0.578125,-1.0625 1.03125,-1.0625 0.484375,0 0.546875,0.375 0.546875,0.734375 v 1.59375 C 5.171875,-0.25 5.109375,-0.25 4.65625,-0.25 V 0 c 0,0 0.5,-0.03125 0.796875,-0.03125 C 5.703125,-0.03125 6.1875,0 6.25,0 Z m 0,0"
             id="id-31fe5042-2d76-4523-82f4-3297625ce804" />
        </symbol>
        <symbol
           overflow="visible"
           id="id-35208f1b-acaa-44d5-a52b-1a940dae0ecf">
          <path
             style="stroke:none"
             d="m 2.9375,-4.578125 c 0,-0.125 -0.109375,-0.28125 -0.28125,-0.28125 -0.109375,0 -0.171875,0.0625 -0.234375,0.140625 L 1.5,-3.703125 1.671875,-3.53125 2.765625,-4.328125 c 0.109375,-0.0625 0.171875,-0.125 0.171875,-0.25 z m 0,0"
             id="id-c8e38b4a-25d8-40a2-b30a-9144720ff14b" />
        </symbol>
        <symbol
           overflow="visible"
           id="id-64381c80-93f2-431e-99f0-e37abf99fe99">
          <path
             style="stroke:none"
             d="m 3.796875,-0.625 v -0.390625 h -0.25 v 0.375 c 0,0.078125 0,0.40625 -0.25,0.40625 -0.265625,0 -0.265625,-0.328125 -0.265625,-0.40625 V -1.875 c 0,-0.359375 0,-0.625 -0.3125,-0.890625 C 2.4375,-3 2.09375,-3.109375 1.6875,-3.109375 c -0.65625,0 -1.125,0.25 -1.125,0.671875 0,0.234375 0.140625,0.34375 0.328125,0.34375 0.1875,0 0.328125,-0.140625 0.328125,-0.328125 0,-0.109375 -0.0625,-0.265625 -0.25,-0.3125 0.25,-0.171875 0.65625,-0.171875 0.703125,-0.171875 0.390625,0 0.8125,0.25 0.8125,0.84375 v 0.203125 c -0.375,0.015625 -0.84375,0.046875 -1.34375,0.234375 -0.625,0.21875 -0.828125,0.609375 -0.828125,0.921875 0,0.59375 0.71875,0.765625 1.21875,0.765625 0.5625,0 0.890625,-0.3125 1.03125,-0.578125 0.03125,0.28125 0.21875,0.546875 0.53125,0.546875 0,0 0.703125,0 0.703125,-0.65625 z m -1.3125,-0.359375 c 0,0.671875 -0.578125,0.859375 -0.890625,0.859375 -0.359375,0 -0.6875,-0.234375 -0.6875,-0.578125 0,-0.390625 0.328125,-0.921875 1.578125,-0.96875 z m 0,0"
             id="id-a3d16f84-dffc-4efb-b464-bd28a318cbbb" />
        </symbol>
        <symbol
           overflow="visible"
           id="id-0ad02ec9-14c6-4c2c-8bf1-c9071c5cc225">
          <path
             style="stroke:none"
             d="m 4,0 v -0.25 c -0.46875,0 -0.515625,-0.046875 -0.6875,-0.21875 L 2.359375,-1.5625 2.3125,-1.625 c 0,-0.03125 0.453125,-0.515625 0.515625,-0.578125 C 3.078125,-2.484375 3.3125,-2.75 3.875,-2.75 V -3 C 3.671875,-2.984375 3.46875,-2.96875 3.28125,-2.96875 3.078125,-2.96875 2.796875,-2.984375 2.59375,-3 v 0.25 c 0.109375,0.015625 0.140625,0.09375 0.140625,0.15625 0,0 0,0.125 -0.109375,0.234375 L 2.140625,-1.8125 1.5625,-2.46875 C 1.484375,-2.546875 1.484375,-2.578125 1.484375,-2.609375 c 0,-0.09375 0.09375,-0.140625 0.1875,-0.140625 V -3 c -0.25,0.015625 -0.515625,0.03125 -0.78125,0.03125 C 0.6875,-2.96875 0.421875,-2.984375 0.21875,-3 v 0.25 c 0.3125,0 0.5,0 0.6875,0.203125 l 0.859375,1 0.0625,0.078125 c 0,0.015625 -0.53125,0.59375 -0.59375,0.671875 -0.265625,0.28125 -0.5,0.53125 -1.046875,0.546875 V 0 C 0.390625,-0.015625 0.546875,-0.03125 0.765625,-0.03125 0.96875,-0.03125 1.25,-0.015625 1.453125,0 V -0.25 C 1.375,-0.265625 1.3125,-0.3125 1.3125,-0.40625 1.3125,-0.546875 1.390625,-0.640625 1.5,-0.75 L 2,-1.296875 2.59375,-0.59375 c 0.140625,0.140625 0.140625,0.15625 0.140625,0.203125 0,0.125 -0.15625,0.140625 -0.1875,0.140625 V 0 c 0.0625,0 0.5625,-0.03125 0.78125,-0.03125 C 3.546875,-0.03125 3.78125,-0.015625 4,0 Z m 0,0"
             id="id-bc41710a-f75d-41f6-a448-d1f1c70de498" />
        </symbol>
      </g>
    </defs>
    <g
       id="id-b6ab1496-bd65-4cd2-a631-445c6fbab809"
       transform="translate(-149.54,-130.249)">
      <g
         style="fill:#000000;fill-opacity:1"
         id="id-2246f5f9-8430-4b7d-b574-ba11909e8a31">
        <g
           transform="translate(148.712,134.765)"
           id="g4573">
          <path
             style="stroke:none"
             d="m 6.921875,-2.5 c 0,-0.1875 -0.1875,-0.1875 -0.328125,-0.1875 h -5.4375 c -0.140625,0 -0.328125,0 -0.328125,0.1875 0,0.203125 0.1875,0.203125 0.328125,0.203125 h 5.4375 c 0.140625,0 0.328125,0 0.328125,-0.203125 z m 0,0"
             id="id-0e98a333-bf2e-4e89-9f19-681395e9199e" />
        </g>
      </g>
      <g
         style="fill:#000000;fill-opacity:1"
         id="id-c28bcaae-df61-4531-9e4d-d7e0a8f8d8dd">
        <g
           transform="translate(156.461,134.765)"
           id="g4577">
          <path
             style="stroke:none"
             d="m 3.765625,-0.8125 c 0,-0.0625 -0.0625,-0.09375 -0.109375,-0.09375 -0.0625,0 -0.09375,0.03125 -0.109375,0.0625 -0.140625,0.234375 -0.375,0.609375 -1.578125,0.609375 -0.609375,0 -1.453125,-0.15625 -1.453125,-0.859375 0,-0.34375 0.28125,-0.875 0.890625,-1.171875 0.328125,0.140625 0.625,0.140625 0.859375,0.140625 0.25,0 0.8125,0 0.8125,-0.3125 0,-0.234375 -0.359375,-0.265625 -0.734375,-0.265625 -0.203125,0 -0.5625,0.015625 -0.921875,0.1875 C 1.1875,-2.625 1.015625,-2.828125 1.015625,-3.09375 c 0,-0.609375 0.984375,-0.96875 1.875,-0.96875 0.15625,0 0.515625,0 0.921875,0.28125 0.109375,0.078125 0.125,0.109375 0.1875,0.109375 0.140625,0 0.28125,-0.140625 0.28125,-0.28125 0,-0.1875 -0.609375,-0.5625 -1.296875,-0.5625 -1.140625,0 -2.21875,0.671875 -2.21875,1.421875 0,0.4375 0.359375,0.6875 0.40625,0.71875 -0.59375,0.328125 -0.90625,0.875 -0.90625,1.34375 0,0.640625 0.5625,1.25 1.625,1.25 1.3125,0 1.875,-0.875 1.875,-1.03125 z M 2.8125,-2.421875 c -0.15625,0.0625 -0.171875,0.078125 -0.546875,0.078125 -0.21875,0 -0.34375,0 -0.53125,-0.046875 0.234375,-0.078125 0.4375,-0.09375 0.609375,-0.09375 0.25,0 0.28125,0.015625 0.46875,0.0625 z m 0,0"
             id="id-cae888df-b43a-44a5-9395-b6bea355d421" />
        </g>
      </g>
      <g
         style="fill:#000000;fill-opacity:1"
         id="id-b51edcdd-4036-48b8-979c-a4bd94b84115">
        <g
           transform="translate(161.107,136.259)"
           id="g4581">
          <path
             style="stroke:none"
             d="m 6.25,0 v -0.25 c -0.453125,0 -0.515625,0 -0.515625,-0.296875 v -1.5625 c 0,-0.609375 -0.3125,-0.96875 -1.046875,-0.96875 -0.5625,0 -0.9375,0.296875 -1.125,0.65625 -0.140625,-0.5 -0.515625,-0.65625 -1.015625,-0.65625 -0.578125,0 -0.9375,0.3125 -1.140625,0.6875 v -0.6875 L 0.375,-3 v 0.25 c 0.46875,0 0.53125,0.046875 0.53125,0.390625 v 1.8125 C 0.90625,-0.25 0.828125,-0.25 0.375,-0.25 V 0 c 0,0 0.5,-0.03125 0.796875,-0.03125 C 1.421875,-0.03125 1.90625,0 1.96875,0 v -0.25 c -0.453125,0 -0.515625,0 -0.515625,-0.296875 V -1.8125 c 0,-0.71875 0.578125,-1.0625 1.03125,-1.0625 0.484375,0 0.546875,0.375 0.546875,0.734375 v 1.59375 C 3.03125,-0.25 2.96875,-0.25 2.515625,-0.25 V 0 c 0,0 0.5,-0.03125 0.796875,-0.03125 C 3.5625,-0.03125 4.046875,0 4.109375,0 v -0.25 c -0.453125,0 -0.515625,0 -0.515625,-0.296875 V -1.8125 c 0,-0.71875 0.578125,-1.0625 1.03125,-1.0625 0.484375,0 0.546875,0.375 0.546875,0.734375 v 1.59375 C 5.171875,-0.25 5.109375,-0.25 4.65625,-0.25 V 0 c 0,0 0.5,-0.03125 0.796875,-0.03125 C 5.703125,-0.03125 6.1875,0 6.25,0 Z m 0,0"
             id="id-1defae98-5a69-460e-bfe3-9bf41b72db73" />
        </g>
      </g>
      <g
         style="fill:#000000;fill-opacity:1"
         id="id-67910661-1b70-4991-8e68-7715df531c50">
        <g
           transform="translate(167.659,136.259)"
           id="g4585">
          <path
             style="stroke:none"
             d="m 2.9375,-4.578125 c 0,-0.125 -0.109375,-0.28125 -0.28125,-0.28125 -0.109375,0 -0.171875,0.0625 -0.234375,0.140625 L 1.5,-3.703125 1.671875,-3.53125 2.765625,-4.328125 c 0.109375,-0.0625 0.171875,-0.125 0.171875,-0.25 z m 0,0"
             id="id-9d238ca7-2f3d-4182-b81d-ca471bda2119" />
        </g>
      </g>
      <g
         style="fill:#000000;fill-opacity:1"
         id="id-d97795cf-03cd-49ab-84ea-d6effe038e92">
        <g
           transform="translate(167.655,136.259)"
           id="g4589">
          <path
             style="stroke:none"
             d="m 3.796875,-0.625 v -0.390625 h -0.25 v 0.375 c 0,0.078125 0,0.40625 -0.25,0.40625 -0.265625,0 -0.265625,-0.328125 -0.265625,-0.40625 V -1.875 c 0,-0.359375 0,-0.625 -0.3125,-0.890625 C 2.4375,-3 2.09375,-3.109375 1.6875,-3.109375 c -0.65625,0 -1.125,0.25 -1.125,0.671875 0,0.234375 0.140625,0.34375 0.328125,0.34375 0.1875,0 0.328125,-0.140625 0.328125,-0.328125 0,-0.109375 -0.0625,-0.265625 -0.25,-0.3125 0.25,-0.171875 0.65625,-0.171875 0.703125,-0.171875 0.390625,0 0.8125,0.25 0.8125,0.84375 v 0.203125 c -0.375,0.015625 -0.84375,0.046875 -1.34375,0.234375 -0.625,0.21875 -0.828125,0.609375 -0.828125,0.921875 0,0.59375 0.71875,0.765625 1.21875,0.765625 0.5625,0 0.890625,-0.3125 1.03125,-0.578125 0.03125,0.28125 0.21875,0.546875 0.53125,0.546875 0,0 0.703125,0 0.703125,-0.65625 z m -1.3125,-0.359375 c 0,0.671875 -0.578125,0.859375 -0.890625,0.859375 -0.359375,0 -0.6875,-0.234375 -0.6875,-0.578125 0,-0.390625 0.328125,-0.921875 1.578125,-0.96875 z m 0,0"
             id="id-4588a100-68f7-4c38-818a-e1970cdb4c4d" />
        </g>
      </g>
      <g
         style="fill:#000000;fill-opacity:1"
         id="id-96ecc74b-dc76-40f3-8d9d-6b938a787e5b">
        <g
           transform="translate(171.64,136.259)"
           id="g4593">
          <path
             style="stroke:none"
             d="m 4,0 v -0.25 c -0.46875,0 -0.515625,-0.046875 -0.6875,-0.21875 L 2.359375,-1.5625 2.3125,-1.625 c 0,-0.03125 0.453125,-0.515625 0.515625,-0.578125 C 3.078125,-2.484375 3.3125,-2.75 3.875,-2.75 V -3 C 3.671875,-2.984375 3.46875,-2.96875 3.28125,-2.96875 3.078125,-2.96875 2.796875,-2.984375 2.59375,-3 v 0.25 c 0.109375,0.015625 0.140625,0.09375 0.140625,0.15625 0,0 0,0.125 -0.109375,0.234375 L 2.140625,-1.8125 1.5625,-2.46875 C 1.484375,-2.546875 1.484375,-2.578125 1.484375,-2.609375 c 0,-0.09375 0.09375,-0.140625 0.1875,-0.140625 V -3 c -0.25,0.015625 -0.515625,0.03125 -0.78125,0.03125 C 0.6875,-2.96875 0.421875,-2.984375 0.21875,-3 v 0.25 c 0.3125,0 0.5,0 0.6875,0.203125 l 0.859375,1 0.0625,0.078125 c 0,0.015625 -0.53125,0.59375 -0.59375,0.671875 -0.265625,0.28125 -0.5,0.53125 -1.046875,0.546875 V 0 C 0.390625,-0.015625 0.546875,-0.03125 0.765625,-0.03125 0.96875,-0.03125 1.25,-0.015625 1.453125,0 V -0.25 C 1.375,-0.265625 1.3125,-0.3125 1.3125,-0.40625 1.3125,-0.546875 1.390625,-0.640625 1.5,-0.75 L 2,-1.296875 2.59375,-0.59375 c 0.140625,0.140625 0.140625,0.15625 0.140625,0.203125 0,0.125 -0.15625,0.140625 -0.1875,0.140625 V 0 c 0.0625,0 0.5625,-0.03125 0.78125,-0.03125 C 3.546875,-0.03125 3.78125,-0.015625 4,0 Z m 0,0"
             id="id-e05f2026-9357-4c47-9e9e-0c44cacebc97" />
        </g>
      </g>
    </g>
  </g>
</svg>
