<?xml version="1.0" encoding="UTF-8" standalone="no"?>
<!-- Created with Inkscape (http://www.inkscape.org/) -->

<svg
   width="210mm"
   height="297mm"
   viewBox="0 0 210 297"
   version="1.1"
   id="svg5"
   inkscape:version="1.1.1 (3bf5ae0d25, 2021-09-20)"
   sodipodi:docname="fig-cap6-04-respec-rdif.svg"
   xmlns:inkscape="http://www.inkscape.org/namespaces/inkscape"
   xmlns:sodipodi="http://sodipodi.sourceforge.net/DTD/sodipodi-0.dtd"
   xmlns="http://www.w3.org/2000/svg"
   xmlns:svg="http://www.w3.org/2000/svg">
  <sodipodi:namedview
     id="namedview7"
     pagecolor="#ffffff"
     bordercolor="#666666"
     borderopacity="1.0"
     inkscape:pageshadow="2"
     inkscape:pageopacity="0.0"
     inkscape:pagecheckerboard="0"
     inkscape:document-units="mm"
     showgrid="false"
     showguides="true"
     inkscape:guide-bbox="true"
     inkscape:zoom="2.0194938"
     inkscape:cx="395.89128"
     inkscape:cy="284.9724"
     inkscape:window-width="1920"
     inkscape:window-height="1026"
     inkscape:window-x="0"
     inkscape:window-y="0"
     inkscape:window-maximized="1"
     inkscape:current-layer="layer1">
    <sodipodi:guide
       position="114.12052,203.76957"
       orientation="0,-1"
       id="guide972" />
    <sodipodi:guide
       position="99.11646,200.31585"
       orientation="0,-1"
       id="guide974" />
    <sodipodi:guide
       position="100.41704,254.96283"
       orientation="1,0"
       id="guide978" />
  </sodipodi:namedview>
  <defs
     id="defs2">
    <marker
       style="overflow:visible;"
       id="marker1759"
       refX="0.0"
       refY="0.0"
       orient="auto"
       inkscape:stockid="Arrow1Mend"
       inkscape:isstock="true">
      <path
         transform="scale(0.4) rotate(180) translate(10,0)"
         style="fill-rule:evenodd;fill:context-stroke;stroke:context-stroke;stroke-width:1.0pt;"
         d="M 0.0,0.0 L 5.0,-5.0 L -12.5,0.0 L 5.0,5.0 L 0.0,0.0 z "
         id="path1757" />
    </marker>
    <marker
       style="overflow:visible;"
       id="Arrow1Mend"
       refX="0.0"
       refY="0.0"
       orient="auto"
       inkscape:stockid="Arrow1Mend"
       inkscape:isstock="true">
      <path
         transform="scale(0.4) rotate(180) translate(10,0)"
         style="fill-rule:evenodd;fill:context-stroke;stroke:context-stroke;stroke-width:1.0pt;"
         d="M 0.0,0.0 L 5.0,-5.0 L -12.5,0.0 L 5.0,5.0 L 0.0,0.0 z "
         id="path1498" />
    </marker>
    <marker
       style="overflow:visible"
       id="Arrow1Mend-3"
       refX="0"
       refY="0"
       orient="auto"
       inkscape:stockid="Arrow1Mend"
       inkscape:isstock="true">
      <path
         transform="matrix(-0.4,0,0,-0.4,-4,0)"
         style="fill:context-stroke;fill-rule:evenodd;stroke:context-stroke;stroke-width:1pt"
         d="M 0,0 5,-5 -12.5,0 5,5 Z"
         id="path1498-6" />
    </marker>
    <marker
       style="overflow:visible"
       id="marker1857"
       refX="0"
       refY="0"
       orient="auto"
       inkscape:stockid="Arrow1Mend"
       inkscape:isstock="true">
      <path
         transform="matrix(-0.4,0,0,-0.4,-4,0)"
         style="fill:context-stroke;fill-rule:evenodd;stroke:context-stroke;stroke-width:1pt"
         d="M 0,0 5,-5 -12.5,0 5,5 Z"
         id="path1855" />
    </marker>
    <marker
       style="overflow:visible"
       id="Arrow1Mend-5"
       refX="0"
       refY="0"
       orient="auto"
       inkscape:stockid="Arrow1Mend"
       inkscape:isstock="true">
      <path
         transform="matrix(-0.4,0,0,-0.4,-4,0)"
         style="fill:context-stroke;fill-rule:evenodd;stroke:context-stroke;stroke-width:1pt"
         d="M 0,0 5,-5 -12.5,0 5,5 Z"
         id="path1498-3" />
    </marker>
    <marker
       style="overflow:visible"
       id="marker1857-5"
       refX="0"
       refY="0"
       orient="auto"
       inkscape:stockid="Arrow1Mend"
       inkscape:isstock="true">
      <path
         transform="matrix(-0.4,0,0,-0.4,-4,0)"
         style="fill:context-stroke;fill-rule:evenodd;stroke:context-stroke;stroke-width:1pt"
         d="M 0,0 5,-5 -12.5,0 5,5 Z"
         id="path1855-6" />
    </marker>
    <marker
       style="overflow:visible"
       id="Arrow1Mend-9"
       refX="0"
       refY="0"
       orient="auto"
       inkscape:stockid="Arrow1Mend"
       inkscape:isstock="true">
      <path
         transform="matrix(-0.4,0,0,-0.4,-4,0)"
         style="fill:context-stroke;fill-rule:evenodd;stroke:context-stroke;stroke-width:1pt"
         d="M 0,0 5,-5 -12.5,0 5,5 Z"
         id="path1498-1" />
    </marker>
    <marker
       style="overflow:visible"
       id="marker1857-2"
       refX="0"
       refY="0"
       orient="auto"
       inkscape:stockid="Arrow1Mend"
       inkscape:isstock="true">
      <path
         transform="matrix(-0.4,0,0,-0.4,-4,0)"
         style="fill:context-stroke;fill-rule:evenodd;stroke:context-stroke;stroke-width:1pt"
         d="M 0,0 5,-5 -12.5,0 5,5 Z"
         id="path1855-7" />
    </marker>
    <marker
       style="overflow:visible"
       id="Arrow1Mend-9-9"
       refX="0"
       refY="0"
       orient="auto"
       inkscape:stockid="Arrow1Mend"
       inkscape:isstock="true">
      <path
         transform="matrix(-0.4,0,0,-0.4,-4,0)"
         style="fill:context-stroke;fill-rule:evenodd;stroke:context-stroke;stroke-width:1pt"
         d="M 0,0 5,-5 -12.5,0 5,5 Z"
         id="path1498-1-2" />
    </marker>
    <marker
       style="overflow:visible"
       id="marker3441"
       refX="0"
       refY="0"
       orient="auto"
       inkscape:stockid="Arrow1Mend"
       inkscape:isstock="true">
      <path
         transform="matrix(-0.4,0,0,-0.4,-4,0)"
         style="fill:context-stroke;fill-rule:evenodd;stroke:context-stroke;stroke-width:1pt"
         d="M 0,0 5,-5 -12.5,0 5,5 Z"
         id="path3439" />
    </marker>
    <marker
       style="overflow:visible"
       id="Arrow1Mend-5-0"
       refX="0"
       refY="0"
       orient="auto"
       inkscape:stockid="Arrow1Mend"
       inkscape:isstock="true">
      <path
         transform="matrix(-0.4,0,0,-0.4,-4,0)"
         style="fill:context-stroke;fill-rule:evenodd;stroke:context-stroke;stroke-width:1pt"
         d="M 0,0 5,-5 -12.5,0 5,5 Z"
         id="path1498-3-2" />
    </marker>
    <marker
       style="overflow:visible"
       id="marker3447"
       refX="0"
       refY="0"
       orient="auto"
       inkscape:stockid="Arrow1Mend"
       inkscape:isstock="true">
      <path
         transform="matrix(-0.4,0,0,-0.4,-4,0)"
         style="fill:context-stroke;fill-rule:evenodd;stroke:context-stroke;stroke-width:1pt"
         d="M 0,0 5,-5 -12.5,0 5,5 Z"
         id="path3445" />
    </marker>
    <marker
       style="overflow:visible"
       id="Arrow1Mend-3-3"
       refX="0"
       refY="0"
       orient="auto"
       inkscape:stockid="Arrow1Mend"
       inkscape:isstock="true">
      <path
         transform="matrix(-0.4,0,0,-0.4,-4,0)"
         style="fill:context-stroke;fill-rule:evenodd;stroke:context-stroke;stroke-width:1pt"
         d="M 0,0 5,-5 -12.5,0 5,5 Z"
         id="path1498-6-7" />
    </marker>
    <marker
       style="overflow:visible"
       id="marker3453"
       refX="0"
       refY="0"
       orient="auto"
       inkscape:stockid="Arrow1Mend"
       inkscape:isstock="true">
      <path
         transform="matrix(-0.4,0,0,-0.4,-4,0)"
         style="fill:context-stroke;fill-rule:evenodd;stroke:context-stroke;stroke-width:1pt"
         d="M 0,0 5,-5 -12.5,0 5,5 Z"
         id="path3451" />
    </marker>
    <marker
       style="overflow:visible"
       id="Arrow1Mend-59"
       refX="0"
       refY="0"
       orient="auto"
       inkscape:stockid="Arrow1Mend"
       inkscape:isstock="true">
      <path
         transform="matrix(-0.4,0,0,-0.4,-4,0)"
         style="fill:context-stroke;fill-rule:evenodd;stroke:context-stroke;stroke-width:1pt"
         d="M 0,0 5,-5 -12.5,0 5,5 Z"
         id="path1498-2" />
    </marker>
    <marker
       style="overflow:visible"
       id="marker3459"
       refX="0"
       refY="0"
       orient="auto"
       inkscape:stockid="Arrow1Mend"
       inkscape:isstock="true">
      <path
         transform="matrix(-0.4,0,0,-0.4,-4,0)"
         style="fill:context-stroke;fill-rule:evenodd;stroke:context-stroke;stroke-width:1pt"
         d="M 0,0 5,-5 -12.5,0 5,5 Z"
         id="path3457" />
    </marker>
    <marker
       style="overflow:visible"
       id="Arrow1Mend-9-3"
       refX="0"
       refY="0"
       orient="auto"
       inkscape:stockid="Arrow1Mend"
       inkscape:isstock="true">
      <path
         transform="matrix(-0.4,0,0,-0.4,-4,0)"
         style="fill:context-stroke;fill-rule:evenodd;stroke:context-stroke;stroke-width:1pt"
         d="M 0,0 5,-5 -12.5,0 5,5 Z"
         id="path1498-1-6" />
    </marker>
    <marker
       style="overflow:visible"
       id="marker976"
       refX="0"
       refY="0"
       orient="auto"
       inkscape:stockid="Arrow1Mend"
       inkscape:isstock="true">
      <path
         transform="matrix(-0.4,0,0,-0.4,-4,0)"
         style="fill:context-stroke;fill-rule:evenodd;stroke:context-stroke;stroke-width:1pt"
         d="M 0,0 5,-5 -12.5,0 5,5 Z"
         id="path974" />
    </marker>
    <marker
       style="overflow:visible"
       id="Arrow1Mend-53"
       refX="0"
       refY="0"
       orient="auto"
       inkscape:stockid="Arrow1Mend"
       inkscape:isstock="true">
      <path
         transform="matrix(-0.4,0,0,-0.4,-4,0)"
         style="fill:context-stroke;fill-rule:evenodd;stroke:context-stroke;stroke-width:1pt"
         d="M 0,0 5,-5 -12.5,0 5,5 Z"
         id="path1498-5" />
    </marker>
    <marker
       style="overflow:visible"
       id="marker1136"
       refX="0"
       refY="0"
       orient="auto"
       inkscape:stockid="Arrow1Mend"
       inkscape:isstock="true">
      <path
         transform="matrix(-0.4,0,0,-0.4,-4,0)"
         style="fill:context-stroke;fill-rule:evenodd;stroke:context-stroke;stroke-width:1pt"
         d="M 0,0 5,-5 -12.5,0 5,5 Z"
         id="path1134" />
    </marker>
    <marker
       style="overflow:visible"
       id="Arrow1Mend-3-6"
       refX="0"
       refY="0"
       orient="auto"
       inkscape:stockid="Arrow1Mend"
       inkscape:isstock="true">
      <path
         transform="matrix(-0.4,0,0,-0.4,-4,0)"
         style="fill:context-stroke;fill-rule:evenodd;stroke:context-stroke;stroke-width:1pt"
         d="M 0,0 5,-5 -12.5,0 5,5 Z"
         id="path1498-6-2" />
    </marker>
    <marker
       style="overflow:visible"
       id="marker1142"
       refX="0"
       refY="0"
       orient="auto"
       inkscape:stockid="Arrow1Mend"
       inkscape:isstock="true">
      <path
         transform="matrix(-0.4,0,0,-0.4,-4,0)"
         style="fill:context-stroke;fill-rule:evenodd;stroke:context-stroke;stroke-width:1pt"
         d="M 0,0 5,-5 -12.5,0 5,5 Z"
         id="path1140" />
    </marker>
    <marker
       style="overflow:visible"
       id="Arrow1Mend-5-9"
       refX="0"
       refY="0"
       orient="auto"
       inkscape:stockid="Arrow1Mend"
       inkscape:isstock="true">
      <path
         transform="matrix(-0.4,0,0,-0.4,-4,0)"
         style="fill:context-stroke;fill-rule:evenodd;stroke:context-stroke;stroke-width:1pt"
         d="M 0,0 5,-5 -12.5,0 5,5 Z"
         id="path1498-3-1" />
    </marker>
    <marker
       style="overflow:visible"
       id="marker1148"
       refX="0"
       refY="0"
       orient="auto"
       inkscape:stockid="Arrow1Mend"
       inkscape:isstock="true">
      <path
         transform="matrix(-0.4,0,0,-0.4,-4,0)"
         style="fill:context-stroke;fill-rule:evenodd;stroke:context-stroke;stroke-width:1pt"
         d="M 0,0 5,-5 -12.5,0 5,5 Z"
         id="path1146" />
    </marker>
    <marker
       style="overflow:visible"
       id="Arrow1Mend-9-2"
       refX="0"
       refY="0"
       orient="auto"
       inkscape:stockid="Arrow1Mend"
       inkscape:isstock="true">
      <path
         transform="matrix(-0.4,0,0,-0.4,-4,0)"
         style="fill:context-stroke;fill-rule:evenodd;stroke:context-stroke;stroke-width:1pt"
         d="M 0,0 5,-5 -12.5,0 5,5 Z"
         id="path1498-1-7" />
    </marker>
    <marker
       style="overflow:visible"
       id="marker1154"
       refX="0"
       refY="0"
       orient="auto"
       inkscape:stockid="Arrow1Mend"
       inkscape:isstock="true">
      <path
         transform="matrix(-0.4,0,0,-0.4,-4,0)"
         style="fill:context-stroke;fill-rule:evenodd;stroke:context-stroke;stroke-width:1pt"
         d="M 0,0 5,-5 -12.5,0 5,5 Z"
         id="path1152" />
    </marker>
    <marker
       style="overflow:visible"
       id="Arrow1Mend-9-3-0"
       refX="0"
       refY="0"
       orient="auto"
       inkscape:stockid="Arrow1Mend"
       inkscape:isstock="true">
      <path
         transform="matrix(-0.4,0,0,-0.4,-4,0)"
         style="fill:context-stroke;fill-rule:evenodd;stroke:context-stroke;stroke-width:1pt"
         d="M 0,0 5,-5 -12.5,0 5,5 Z"
         id="path1498-1-6-9" />
    </marker>
    <marker
       style="overflow:visible"
       id="marker1160"
       refX="0"
       refY="0"
       orient="auto"
       inkscape:stockid="Arrow1Mend"
       inkscape:isstock="true">
      <path
         transform="matrix(-0.4,0,0,-0.4,-4,0)"
         style="fill:context-stroke;fill-rule:evenodd;stroke:context-stroke;stroke-width:1pt"
         d="M 0,0 5,-5 -12.5,0 5,5 Z"
         id="path1158" />
    </marker>
  </defs>
  <g
     inkscape:label="Capa 1"
     inkscape:groupmode="layer"
     id="layer1">
    <g
       id="g2990">
      <rect
         style="fill:#999999;fill-opacity:1;stroke:none;stroke-width:0.799999;stroke-linecap:round;stroke-opacity:0.995475"
         id="rect980-6"
         width="55.943031"
         height="6.5672297"
         x="33.565819"
         y="90.11692" />
      <path
         style="fill:none;fill-rule:evenodd;stroke:#000000;stroke-width:0.4;stroke-linecap:butt;stroke-linejoin:miter;stroke-miterlimit:4;stroke-dasharray:none;stroke-opacity:1"
         d="m 33.565824,90.116907 h 55.94303"
         id="path1221-2" />
    </g>
    <rect
       style="fill:#999999;fill-opacity:1;stroke:none;stroke-width:0.799999;stroke-linecap:round;stroke-opacity:0.995475"
       id="rect980-6-1"
       width="55.943031"
       height="6.5672297"
       x="116.40302"
       y="90.11692" />
    <path
       style="fill:none;fill-rule:evenodd;stroke:#ff0000;stroke-width:0.264583px;stroke-linecap:butt;stroke-linejoin:miter;stroke-opacity:1;marker-start:url(#Arrow1Mend);marker-end:url(#Arrow1Mend)"
       d="M 28.547214,72.953599 40.955582,90.255121 49.196771,79.051253"
       id="path1487" />
    <path
       style="fill:none;fill-rule:evenodd;stroke:#ff0000;stroke-width:0.264583px;stroke-linecap:butt;stroke-linejoin:miter;stroke-opacity:1;marker-start:url(#Arrow1Mend-3);marker-end:url(#Arrow1Mend-3)"
       d="M 35.86313,68.542003 51.483423,90.255124 59.724612,79.051256"
       id="path1487-7"
       sodipodi:nodetypes="ccc" />
    <path
       style="fill:none;fill-rule:evenodd;stroke:#ff0000;stroke-width:0.264583px;stroke-linecap:butt;stroke-linejoin:miter;stroke-opacity:1;marker-start:url(#Arrow1Mend-5);marker-end:url(#Arrow1Mend-5)"
       d="M 42.539763,63.800511 61.519252,90.255124 69.760441,79.051256"
       id="path1487-2"
       sodipodi:nodetypes="ccc" />
    <path
       style="fill:none;fill-rule:evenodd;stroke:#ff0000;stroke-width:0.264583px;stroke-linecap:butt;stroke-linejoin:miter;stroke-opacity:1;marker-start:url(#Arrow1Mend-9);marker-end:url(#Arrow1Mend-9)"
       d="M 49.348354,58.812287 72.085822,90.255124 80.327011,79.051256"
       id="path1487-0"
       sodipodi:nodetypes="ccc" />
    <path
       style="fill:none;fill-rule:evenodd;stroke:#ff0000;stroke-width:0.264583px;stroke-linecap:butt;stroke-linejoin:miter;stroke-opacity:1;marker-start:url(#Arrow1Mend-9-3);marker-end:url(#Arrow1Mend-9-3)"
       d="M 57.270701,53.782442 84.141962,90.158191 92.383151,78.954323"
       id="path1487-0-7"
       sodipodi:nodetypes="ccc" />
    <path
       style="fill:none;fill-rule:evenodd;stroke:#ff0000;stroke-width:0.264583px;stroke-linecap:butt;stroke-linejoin:miter;stroke-opacity:1;marker-start:url(#Arrow1Mend-53);marker-end:url(#Arrow1Mend-53)"
       d="m 114.95374,72.786959 11.49631,15.933439 -8.83803,-5.645144"
       id="path1487-3"
       sodipodi:nodetypes="ccc" />
    <path
       style="fill:none;fill-rule:evenodd;stroke:#ff0000;stroke-width:0.264583px;stroke-linecap:butt;stroke-linejoin:miter;stroke-opacity:1;marker-start:url(#Arrow1Mend-3-6);marker-end:url(#Arrow1Mend-3-6)"
       d="m 122.34385,67.945642 15.50629,21.713118 -3.086,-13.917136"
       id="path1487-7-6"
       sodipodi:nodetypes="ccc" />
    <path
       style="fill:none;fill-rule:evenodd;stroke:#ff0000;stroke-width:0.264583px;stroke-linecap:butt;stroke-linejoin:miter;stroke-opacity:1;marker-start:url(#Arrow1Mend-5-9);marker-end:url(#Arrow1Mend-5-9)"
       d="m 128.94629,63.633871 18.80847,25.998582 8.29819,-11.203865"
       id="path1487-2-0"
       sodipodi:nodetypes="ccc" />
    <path
       style="fill:none;fill-rule:evenodd;stroke:#ff0000;stroke-width:0.264583px;stroke-linecap:butt;stroke-linejoin:miter;stroke-opacity:1;marker-start:url(#Arrow1Mend-9-2);marker-end:url(#Arrow1Mend-9-2)"
       d="m 135.75488,58.645647 22.50945,30.416775 1.9138,-17.987282"
       id="path1487-0-6"
       sodipodi:nodetypes="ccc" />
    <path
       style="fill:none;fill-rule:evenodd;stroke:#ff0000;stroke-width:0.264583px;stroke-linecap:butt;stroke-linejoin:miter;stroke-opacity:1;marker-start:url(#Arrow1Mend-9-3-0);marker-end:url(#Arrow1Mend-9-3-0)"
       d="m 143.83938,53.832013 26.78488,36.021533 9.62591,-1.74932"
       id="path1487-0-7-2"
       sodipodi:nodetypes="ccc" />
    <path
       id="path3025"
       style="fill:#999999;fill-rule:evenodd;stroke:none;stroke-width:0.264583px;stroke-linecap:butt;stroke-linejoin:miter;stroke-opacity:1"
       d="m 171.04042,90.197162 c -0.21054,-0.105267 -0.4443,-0.33378 -0.65589,-0.26325 -0.16401,0.05467 -0.55923,-0.168622 -0.73145,-0.168622 -0.50496,0 -1.18721,-0.225956 -1.66134,-0.06791 -0.30594,0.101978 -1.22297,-0.04867 -1.61232,0 -0.29122,0.03641 -0.57912,0.06772 -0.86374,0.115165 -0.20188,0.03365 -0.43528,-0.04953 -0.63341,0 -0.58227,0.145566 -1.36303,0.09913 -1.95782,0 -0.1136,-0.01894 -0.2319,0.01894 -0.3455,0 -0.27714,-0.04619 -0.54239,-0.16439 -0.80615,-0.23033 -0.20827,-0.05208 -0.42318,-0.02254 -0.63341,-0.05758 -0.17346,-0.0289 -0.3444,-0.09032 -0.51825,-0.115165 -0.38378,-0.05483 -0.19427,-0.684042 -0.5822,-0.684042 -0.85517,0 -2.32031,0.673922 -3.16068,0.568876 -0.71408,-0.08926 0.1706,-0.01955 -0.40308,-0.115165 -0.50374,-0.08396 -1.01659,-0.242892 -1.49715,-0.403079 -0.26207,-0.08736 -0.46799,-0.291579 -0.691,-0.40308 -0.16875,-0.08437 -0.39624,-0.01268 -0.57583,-0.05758 -0.11961,-0.0299 -0.15355,-0.09117 -0.28791,-0.05758 -0.33526,0.08382 -0.70149,0.03142 -1.03649,0.115167 -0.0589,0.01472 -0.11515,0.0384 -0.17275,0.05758 0,0.01919 0.016,0.04694 0,0.05758 -0.0193,0.01283 -0.78786,0.341795 -0.80616,0.345495 -0.0565,0.0113 -0.11625,-0.0113 -0.17275,0 -0.36912,0.07382 -0.77698,0.424575 -1.15165,0.518245 -0.12412,0.03103 -0.16242,0.147639 -0.28792,0.172749 -0.29283,0.05856 -0.57912,0.101599 -0.86374,0.172749 -0.22976,0.05744 -0.57125,0 -0.80616,0 -0.63465,0 -1.27608,0.03158 -1.90023,-0.05758 -0.22431,-0.03204 -0.4692,0.04436 -0.69099,0 -0.1864,-0.03727 -0.38225,-0.0829 -0.57583,-0.115165 -0.12597,-0.02101 -0.27875,0.03108 -0.40308,0 -0.75307,-0.188267 -1.48618,-0.366334 -2.24573,-0.518245 -0.28629,-0.05726 -0.66342,-0.281018 -0.92133,-0.345498 -0.0938,-0.02344 -0.19551,-0.02678 -0.28791,-0.05758 -0.0846,-0.02819 -0.63899,-0.293478 -0.69099,-0.345498 -0.0304,-0.03035 -0.0219,-0.09136 -0.0576,-0.115166 -0.032,-0.0213 -0.0788,0.01215 -0.11516,0 -0.002,-8.2e-4 -0.21104,-0.243094 -0.3455,-0.287914 -0.42176,-0.140576 -0.3535,0.238334 -0.46066,0.345498 -0.109,0.108993 -0.34015,0.224978 -0.46066,0.345496 -0.0646,0.06464 -0.11692,0.231204 -0.23033,0.287914 -0.0795,0.03972 -0.0515,-0.06974 -0.11517,0.05758 -0.0659,0.131768 -0.10685,0.328893 -0.17275,0.460661 -0.0651,0.130257 -0.31677,-0.0046 -0.40067,0.121186 -0.0882,0.132288 0.0799,0.257203 -0.06,0.397061 -0.0136,0.01357 0.0172,0.04898 0,0.05758 -0.0863,0.04313 -1.27649,0.04077 -1.43957,0 -0.28351,-0.07089 -0.58778,0.01141 -0.86374,-0.05758 -0.59751,-0.149378 -1.24275,-0.253106 -1.84265,-0.403082 -0.16542,-0.04135 -0.40398,0 -0.57583,0 -0.55603,0 -1.30009,-0.09043 -1.84265,0 -0.2623,0.04372 -0.53197,0.09185 -0.80616,0.05758 -0.29032,-0.03629 -0.65821,-0.09877 -0.92132,-0.230331 -0.20072,-0.100356 -0.38933,-0.278743 -0.57583,-0.403079 -0.38339,-0.255588 -1.24705,-0.425568 -1.72749,-0.345498 -0.27725,0.04621 -0.6095,0.04563 -0.86374,0.172749 -0.28805,0.144026 -0.36805,0.385567 -0.63341,0.518245 -0.6256,0.312803 -1.18671,1.005612 -1.95781,0.748577 -0.20781,-0.06927 -0.47767,0.05333 -0.691,0 -0.22607,-0.05652 -0.43361,-0.245598 -0.63341,-0.345498 -0.0927,-0.04637 -0.2475,-0.06616 -0.3455,-0.115165 -0.17317,-0.08658 -0.35504,-0.236694 -0.51824,-0.345496 -0.13227,-0.08819 0.0247,-0.03289 -0.11517,-0.172749 -0.14615,-0.146156 -0.42697,-0.196643 -0.57582,-0.345498 -0.0304,-0.03034 -0.0192,-0.09598 -0.0576,-0.115165 -0.0515,-0.02574 -0.11685,0.01397 -0.17275,0 -0.0671,-0.01678 -0.11084,-0.08422 -0.17274,-0.115165 -0.15685,-0.07843 -0.28345,-0.05758 -0.46067,-0.05758 -0.0387,0 -0.13874,-0.01699 -0.17274,0 -0.21808,0.109038 -0.50181,0.189202 -0.74858,0.287912 -0.25229,0.100917 -0.47305,0.347979 -0.74858,0.403079 -0.0565,0.0113 -0.11625,-0.0113 -0.17275,0 -0.136,0.0272 -0.85197,0.376044 -0.9789,0.460664 -0.0961,0.06409 -0.2643,0.206684 -0.3455,0.287914 -0.0653,0.06526 -0.0773,0.182611 -0.17275,0.230331 -0.12126,0.06063 -0.32645,0.04085 -0.45517,0.07404 v 6.567231 h 55.94303 l -0.51712,-6.269479 c -6.36402,-0.03063 0.11055,0.283804 0,0 z"
       sodipodi:nodetypes="cssssssssssssssssssscscsssssssssssscscsssscsscsssssssssssssssssscsssssscsssscccccc" />
    <path
       style="fill:none;fill-rule:evenodd;stroke:#000000;stroke-width:0.4;stroke-linecap:butt;stroke-linejoin:miter;stroke-miterlimit:4;stroke-dasharray:none;stroke-opacity:1"
       d="m 116.40302,90.11692 c 0.12872,-0.0332 0.33391,-0.0134 0.45517,-0.074 0.0954,-0.0477 0.10749,-0.16506 0.17275,-0.23033 0.0812,-0.0812 0.24937,-0.22382 0.3455,-0.28791 0.12693,-0.0846 0.8429,-0.43346 0.9789,-0.46066 0.0565,-0.0113 0.11629,0.0113 0.17275,0 0.27553,-0.0551 0.49629,-0.30217 0.74858,-0.40308 0.24677,-0.0987 0.5305,-0.17888 0.74858,-0.28792 0.034,-0.017 0.13404,0 0.17274,0 0.17722,0 0.30382,-0.0208 0.46067,0.0576 0.0619,0.031 0.1056,0.0984 0.17274,0.11517 0.0559,0.014 0.12125,-0.0257 0.17275,0 0.0384,0.0192 0.0272,0.0848 0.0576,0.11516 0.14885,0.14886 0.42967,0.19935 0.57582,0.3455 0.13986,0.13986 -0.0171,0.0846 0.11517,0.17275 0.1632,0.1088 0.34507,0.25891 0.51824,0.3455 0.098,0.049 0.25275,0.0688 0.3455,0.11516 0.1998,0.0999 0.40734,0.28898 0.63341,0.3455 0.21333,0.0533 0.48319,-0.0693 0.691,0 0.7711,0.25704 1.33221,-0.43577 1.95781,-0.74858 0.26536,-0.13267 0.34536,-0.37422 0.63341,-0.51824 0.25424,-0.12712 0.58649,-0.12654 0.86374,-0.17275 0.48044,-0.0801 1.3441,0.0899 1.72749,0.3455 0.1865,0.12433 0.37511,0.30272 0.57583,0.40308 0.26311,0.13156 0.631,0.19404 0.92132,0.23033 0.27419,0.0343 0.54386,-0.0139 0.80616,-0.0576 0.54256,-0.0904 1.28662,0 1.84265,0 0.17185,0 0.41041,-0.0414 0.57583,0 0.5999,0.14997 1.24514,0.2537 1.84265,0.40308 0.27596,0.069 0.58023,-0.0133 0.86374,0.0576 0.16308,0.0408 -0.49331,-0.04228 0.73111,0.118417 0.0172,-0.009 0.59909,-0.250579 0.59909,-0.250579 0.27176,-0.139597 0.57003,-0.443688 0.57003,-0.443688 0,0 -0.0511,0.136362 0,0 0.17275,-0.46066 0.10687,-0.32889 0.17275,-0.46066 0.0637,-0.12732 0.0357,-0.0179 0.11517,-0.0576 0.11341,-0.0567 0.16569,-0.22327 0.23033,-0.28791 0.12051,-0.12052 0.35166,-0.23651 0.46066,-0.3455 0.10716,-0.10716 0.0389,-0.48607 0.46066,-0.3455 0.13446,0.0448 0.34303,0.2871 0.3455,0.28792 0.0364,0.0122 0.0832,-0.0213 0.11516,0 0.0357,0.0238 0.0272,0.0848 0.0576,0.11516 0.052,0.052 0.60642,0.31731 0.69099,0.3455 0.0924,0.0308 0.19413,0.0341 0.28791,0.0576 0.25791,0.0645 0.63504,0.28824 0.92133,0.3455 0.75955,0.15191 1.49266,0.32998 2.24573,0.51824 0.12433,0.0311 0.27711,-0.021 0.40308,0 0.19358,0.0323 0.38943,0.0779 0.57583,0.11517 0.22179,0.0444 0.46668,-0.032 0.69099,0 0.62415,0.0892 1.26558,0.0576 1.90023,0.0576 0.23491,0 0.5764,0.0574 0.80616,0 0.28462,-0.0712 0.57091,-0.11418 0.86374,-0.17275 0.1255,-0.0251 0.1638,-0.14172 0.28792,-0.17275 0.37467,-0.0937 0.78253,-0.44442 1.15165,-0.51824 0.0565,-0.0113 0.11629,0.0113 0.17275,0 0.0183,-0.004 0.7869,-0.33266 0.80616,-0.3455 0.016,-0.0106 0,-0.0384 0,-0.0576 0.0576,-0.0192 0.11386,-0.0429 0.17275,-0.0576 0.335,-0.0838 0.70123,-0.0314 1.03649,-0.11517 0.13436,-0.0336 0.1683,0.0277 0.28791,0.0576 0.17959,0.0449 0.40708,-0.0268 0.57583,0.0576 0.22301,0.11151 0.42893,0.31573 0.691,0.40308 0.48056,0.16019 0.99341,0.31913 1.49715,0.40308 0.57368,0.0956 -0.311,0.0259 0.40308,0.11517 0.84037,0.10505 2.36251,-0.682889 3.21768,-0.682889 0.38793,0 0.5252,0.798049 0.5252,0.798049 0.0319,0.172682 0.34479,0.0863 0.51825,0.11517 0.21023,0.035 0.42514,0.005 0.63341,0.0576 0.26376,0.0659 0.52901,0.18414 0.80615,0.23033 0.1136,0.0189 0.2319,-0.0189 0.3455,0 0.59479,0.0991 1.37555,0.14557 1.95782,0 0.19813,-0.0495 0.43153,0.0336 0.63341,0 0.28462,-0.0474 0.57252,-0.0788 0.86374,-0.11517 0.38935,-0.0487 1.30638,0.10198 1.61232,0 0.47413,-0.15804 0.59813,-0.10931 1.10309,-0.10931 0.17222,0 0.89272,0.261482 0.89272,0.261482 0.77667,0.332779 1.47984,0.241054 2.33656,0.464177"
       id="path2882-7"
       sodipodi:nodetypes="csssscsssccccscssccsssssssscsscscsccssscscscsssccscsssccccssssssssscscsscsscc" />
  </g>
</svg>
