<?xml version="1.0" encoding="UTF-8" standalone="no"?>
<!-- Created with Inkscape (http://www.inkscape.org/) -->

<svg
   width="210mm"
   height="297mm"
   viewBox="0 0 744.09448819 1052.3622047"
   id="svg2"
   version="1.1"
   inkscape:version="1.2.1 (9c6d41e410, 2022-07-14)"
   sodipodi:docname="fig-cap3-04-polos-magneticos.svg"
   xmlns:inkscape="http://www.inkscape.org/namespaces/inkscape"
   xmlns:sodipodi="http://sodipodi.sourceforge.net/DTD/sodipodi-0.dtd"
   xmlns="http://www.w3.org/2000/svg"
   xmlns:svg="http://www.w3.org/2000/svg"
   xmlns:rdf="http://www.w3.org/1999/02/22-rdf-syntax-ns#"
   xmlns:cc="http://creativecommons.org/ns#"
   xmlns:dc="http://purl.org/dc/elements/1.1/"
   xmlns:ns1="http://www.iki.fi/pav/software/textext/">
  <defs
     id="defs4">
    <marker
       style="overflow:visible"
       id="marker8696"
       refX="0"
       refY="0"
       orient="auto-start-reverse"
       inkscape:stockid="Arrow1L"
       markerWidth="8.75"
       markerHeight="5"
       viewBox="0 0 8.75 5"
       inkscape:isstock="true"
       inkscape:collect="always"
       preserveAspectRatio="xMidYMid">
      <path
         style="fill:context-stroke;fill-rule:evenodd;stroke:none"
         d="M 0,0 5,-5 -12.5,0 5,5 Z"
         id="path8694"
         transform="scale(-0.5)" />
    </marker>
    <marker
       style="overflow:visible"
       id="marker8386"
       refX="0"
       refY="0"
       orient="auto-start-reverse"
       inkscape:stockid="Arrow1L"
       markerWidth="8.75"
       markerHeight="5"
       viewBox="0 0 8.75 5"
       inkscape:isstock="true"
       inkscape:collect="always"
       preserveAspectRatio="xMidYMid">
      <path
         style="fill:context-stroke;fill-rule:evenodd;stroke:none"
         d="M 0,0 5,-5 -12.5,0 5,5 Z"
         id="path8384"
         transform="scale(-0.5)" />
    </marker>
    <marker
       style="overflow:visible"
       id="Arrow1L"
       refX="0"
       refY="0"
       orient="auto-start-reverse"
       inkscape:stockid="Arrow1L"
       markerWidth="8.75"
       markerHeight="5"
       viewBox="0 0 8.75 5"
       inkscape:isstock="true"
       inkscape:collect="always"
       preserveAspectRatio="xMidYMid">
      <path
         style="fill:context-stroke;fill-rule:evenodd;stroke:none"
         d="M 0,0 5,-5 -12.5,0 5,5 Z"
         id="arrow1L"
         transform="scale(-0.5)" />
    </marker>
    <marker
       inkscape:isstock="true"
       style="overflow:visible"
       id="marker7739"
       refX="0.0"
       refY="0.0"
       orient="auto"
       inkscape:stockid="Arrow1Mstart">
      <path
         transform="scale(0.4) translate(10,0)"
         style="fill-rule:evenodd;stroke:#000000;stroke-width:1pt;stroke-opacity:1;fill:#000000;fill-opacity:1"
         d="M 0.0,0.0 L 5.0,-5.0 L -12.5,0.0 L 5.0,5.0 L 0.0,0.0 z "
         id="path7741" />
    </marker>
    <marker
       inkscape:isstock="true"
       style="overflow:visible;"
       id="marker6608"
       refX="0.0"
       refY="0.0"
       orient="auto"
       inkscape:stockid="Arrow1Mend">
      <path
         transform="scale(0.4) rotate(180) translate(10,0)"
         style="fill-rule:evenodd;stroke:#000000;stroke-width:1pt;stroke-opacity:1;fill:#000000;fill-opacity:1"
         d="M 0.0,0.0 L 5.0,-5.0 L -12.5,0.0 L 5.0,5.0 L 0.0,0.0 z "
         id="path6610" />
    </marker>
    <marker
       inkscape:stockid="Arrow1Mend"
       orient="auto"
       refY="0"
       refX="0"
       id="marker6405"
       style="overflow:visible"
       inkscape:isstock="true"
       viewBox="0 0 8.886927 5.078244"
       markerWidth="8.8869267"
       markerHeight="5.0782442"
       preserveAspectRatio="xMidYMid">
      <path
         id="path6407"
         d="M 0,0 5,-5 -12.5,0 5,5 Z"
         style="fill:#000000;fill-opacity:1;fill-rule:evenodd;stroke:#000000;stroke-width:1pt;stroke-opacity:1"
         transform="matrix(-0.4,0,0,-0.4,-4,0)" />
    </marker>
    <marker
       inkscape:isstock="true"
       style="overflow:visible"
       id="marker5725"
       refX="0"
       refY="0"
       orient="auto"
       inkscape:stockid="Arrow2Mend">
      <path
         transform="scale(-0.6,-0.6)"
         d="M 8.7185878,4.0337352 -2.2072895,0.01601326 8.7185884,-4.0017078 c -1.7454984,2.3720609 -1.7354408,5.6174519 -6e-7,8.035443 z"
         style="fill:#000000;fill-opacity:1;fill-rule:evenodd;stroke:#000000;stroke-width:0.625;stroke-linejoin:round;stroke-opacity:1"
         id="path5727"
         inkscape:connector-curvature="0" />
    </marker>
    <marker
       inkscape:isstock="true"
       style="overflow:visible;"
       id="marker5649"
       refX="0.0"
       refY="0.0"
       orient="auto"
       inkscape:stockid="Arrow2Mend">
      <path
         transform="scale(0.6) rotate(180) translate(0,0)"
         d="M 8.7185878,4.0337352 L -2.2072895,0.016013256 L 8.7185884,-4.0017078 C 6.9730900,-1.6296469 6.9831476,1.6157441 8.7185878,4.0337352 z "
         style="fill-rule:evenodd;stroke-width:0.625;stroke-linejoin:round;stroke:#000000;stroke-opacity:1;fill:#000000;fill-opacity:1"
         id="path5651" />
    </marker>
    <marker
       inkscape:stockid="Arrow1Send"
       orient="auto"
       refY="0.0"
       refX="0.0"
       id="Arrow1Send"
       style="overflow:visible;"
       inkscape:isstock="true">
      <path
         id="path4205"
         d="M 0.0,0.0 L 5.0,-5.0 L -12.5,0.0 L 5.0,5.0 L 0.0,0.0 z "
         style="fill-rule:evenodd;stroke:#000000;stroke-width:1pt;stroke-opacity:1;fill:#000000;fill-opacity:1"
         transform="scale(0.2) rotate(180) translate(6,0)" />
    </marker>
    <marker
       inkscape:stockid="Arrow2Mend"
       orient="auto"
       refY="0"
       refX="0"
       id="Arrow2Mend-7"
       style="overflow:visible"
       inkscape:isstock="true">
      <path
         inkscape:connector-curvature="0"
         id="path4217-5"
         style="fill:#000000;fill-opacity:1;fill-rule:evenodd;stroke:#000000;stroke-width:0.625;stroke-linejoin:round;stroke-opacity:1"
         d="M 8.7185878,4.0337352 -2.2072895,0.01601326 8.7185884,-4.0017078 c -1.7454984,2.3720609 -1.7354408,5.6174519 -6e-7,8.035443 z"
         transform="scale(-0.6,-0.6)" />
    </marker>
    <marker
       inkscape:stockid="Arrow2Mend"
       orient="auto"
       refY="0"
       refX="0"
       id="Arrow2Mend-5"
       style="overflow:visible"
       inkscape:isstock="true">
      <path
         inkscape:connector-curvature="0"
         id="path4217-6"
         style="fill:#000000;fill-opacity:1;fill-rule:evenodd;stroke:#000000;stroke-width:0.625;stroke-linejoin:round;stroke-opacity:1"
         d="M 8.7185878,4.0337352 -2.2072895,0.01601326 8.7185884,-4.0017078 c -1.7454984,2.3720609 -1.7354408,5.6174519 -6e-7,8.035443 z"
         transform="scale(-0.6,-0.6)" />
    </marker>
    <marker
       inkscape:stockid="Arrow2Mend"
       orient="auto"
       refY="0"
       refX="0"
       id="Arrow2Mend-9"
       style="overflow:visible"
       inkscape:isstock="true">
      <path
         inkscape:connector-curvature="0"
         id="path4217-1"
         style="fill:#000000;fill-opacity:1;fill-rule:evenodd;stroke:#000000;stroke-width:0.625;stroke-linejoin:round;stroke-opacity:1"
         d="M 8.7185878,4.0337352 -2.2072895,0.01601326 8.7185884,-4.0017078 c -1.7454984,2.3720609 -1.7354408,5.6174519 -6e-7,8.035443 z"
         transform="scale(-0.6,-0.6)" />
    </marker>
    <marker
       inkscape:stockid="Arrow1Mend"
       orient="auto"
       refY="0"
       refX="0"
       id="marker6405-6"
       style="overflow:visible"
       inkscape:isstock="true"
       viewBox="0 0 8.886927 5.078244"
       markerWidth="8.8869267"
       markerHeight="5.0782442"
       preserveAspectRatio="xMidYMid">
      <path
         inkscape:connector-curvature="0"
         id="path6407-2"
         d="M 0,0 5,-5 -12.5,0 5,5 Z"
         style="fill:#000000;fill-opacity:1;fill-rule:evenodd;stroke:#000000;stroke-width:1pt;stroke-opacity:1"
         transform="matrix(-0.4,0,0,-0.4,-4,0)" />
    </marker>
    <marker
       inkscape:stockid="Arrow2Mend"
       orient="auto"
       refY="0"
       refX="0"
       id="Arrow2Mend-5-1"
       style="overflow:visible"
       inkscape:isstock="true">
      <path
         inkscape:connector-curvature="0"
         id="path4217-6-2"
         style="fill:#000000;fill-opacity:1;fill-rule:evenodd;stroke:#000000;stroke-width:0.625;stroke-linejoin:round;stroke-opacity:1"
         d="M 8.7185878,4.0337352 -2.2072895,0.01601326 8.7185884,-4.0017078 c -1.7454984,2.3720609 -1.7354408,5.6174519 -6e-7,8.035443 z"
         transform="scale(-0.6)" />
    </marker>
    <marker
       inkscape:stockid="Arrow2Mend"
       orient="auto"
       refY="0"
       refX="0"
       id="Arrow2Mend-5-1-0"
       style="overflow:visible"
       inkscape:isstock="true">
      <path
         inkscape:connector-curvature="0"
         id="path4217-6-2-9"
         style="fill:#000000;fill-opacity:1;fill-rule:evenodd;stroke:#000000;stroke-width:0.625;stroke-linejoin:round;stroke-opacity:1"
         d="M 8.7185878,4.0337352 -2.2072895,0.01601326 8.7185884,-4.0017078 c -1.7454984,2.3720609 -1.7354408,5.6174519 -6e-7,8.035443 z"
         transform="scale(-0.6)" />
    </marker>
    <marker
       inkscape:stockid="Arrow2Mend-55052"
       orient="auto"
       refY="0"
       refX="0"
       style="overflow:visible"
       inkscape:isstock="true"
       id="Arrow2Mend-55052">
      <path
         inkscape:connector-curvature="0"
         id="path1253"
         style="fill:#0000ff;fill-opacity:1;fill-rule:evenodd;stroke:#0000ff;stroke-width:0.625;stroke-linejoin:round;stroke-opacity:1"
         d="M 8.7185878,4.0337352 -2.2072895,0.01601326 8.7185884,-4.0017078 c -1.7454984,2.3720609 -1.7354408,5.6174519 -6e-7,8.035443 z"
         transform="scale(-0.6)" />
    </marker>
    <marker
       inkscape:stockid="Arrow2Mend-76012"
       orient="auto"
       refY="0"
       refX="0"
       style="overflow:visible"
       inkscape:isstock="true"
       id="Arrow2Mend-76012">
      <path
         inkscape:connector-curvature="0"
         id="path1259"
         style="fill:#0000ff;fill-opacity:1;fill-rule:evenodd;stroke:#0000ff;stroke-width:0.625;stroke-linejoin:round;stroke-opacity:1"
         d="M 8.7185878,4.0337352 -2.2072895,0.01601326 8.7185884,-4.0017078 c -1.7454984,2.3720609 -1.7354408,5.6174519 -6e-7,8.035443 z"
         transform="scale(-0.6)" />
    </marker>
    <g
       id="id-98aff169-6dcd-440c-8677-56a33b119c6a-7">
      <symbol
         overflow="visible"
         id="id-8184eb6e-df7d-4bc6-a3bd-df479864faae-5">
        <path
           style="stroke:none;stroke-width:0"
           d=""
           id="id-43db548e-6c7e-40d0-8ad3-69c4e2567709-3" />
      </symbol>
      <symbol
         overflow="visible"
         id="id-73ea6a92-7984-46d0-b434-6c370ed8ceb1-5">
        <path
           style="stroke:none;stroke-width:0"
           d="M 7.5,-1.859375 C 7.5,-2.8125 6.65625,-3.484375 5.46875,-3.5625 6.546875,-3.765625 7.1875,-4.359375 7.1875,-5.125 c 0,-0.921875 -0.875,-1.71875 -2.46875,-1.71875 H 0.390625 V -6.375 H 1.46875 v 5.90625 H 0.390625 V 0 h 4.625 C 6.671875,0 7.5,-0.875 7.5,-1.859375 Z M 5.765625,-5.125 c 0,0.765625 -0.46875,1.390625 -1.4375,1.390625 h -1.5625 V -6.375 h 1.8125 c 1.015625,0 1.1875,0.796875 1.1875,1.25 z m 0.28125,3.265625 c 0,0.109375 0,1.390625 -1.4375,1.390625 H 2.765625 V -3.375 h 1.9375 c 0.203125,0 0.671875,0 1.015625,0.421875 0.328125,0.421875 0.328125,0.984375 0.328125,1.09375 z m 0,0"
           id="id-fdd1669c-7445-49be-892e-b3708f3d19eb-6" />
      </symbol>
    </g>
    <g
       id="id-98aff169-6dcd-440c-8677-56a33b119c6a-9">
      <symbol
         overflow="visible"
         id="id-8184eb6e-df7d-4bc6-a3bd-df479864faae-3">
        <path
           style="stroke:none;stroke-width:0"
           d=""
           id="id-43db548e-6c7e-40d0-8ad3-69c4e2567709-6" />
      </symbol>
      <symbol
         overflow="visible"
         id="id-73ea6a92-7984-46d0-b434-6c370ed8ceb1-0">
        <path
           style="stroke:none;stroke-width:0"
           d="M 7.5,-1.859375 C 7.5,-2.8125 6.65625,-3.484375 5.46875,-3.5625 6.546875,-3.765625 7.1875,-4.359375 7.1875,-5.125 c 0,-0.921875 -0.875,-1.71875 -2.46875,-1.71875 H 0.390625 V -6.375 H 1.46875 v 5.90625 H 0.390625 V 0 h 4.625 C 6.671875,0 7.5,-0.875 7.5,-1.859375 Z M 5.765625,-5.125 c 0,0.765625 -0.46875,1.390625 -1.4375,1.390625 h -1.5625 V -6.375 h 1.8125 c 1.015625,0 1.1875,0.796875 1.1875,1.25 z m 0.28125,3.265625 c 0,0.109375 0,1.390625 -1.4375,1.390625 H 2.765625 V -3.375 h 1.9375 c 0.203125,0 0.671875,0 1.015625,0.421875 0.328125,0.421875 0.328125,0.984375 0.328125,1.09375 z m 0,0"
           id="id-fdd1669c-7445-49be-892e-b3708f3d19eb-62" />
      </symbol>
    </g>
    <g
       id="id-374eda7f-c129-450d-ab43-ea3be2dff765-0">
      <symbol
         overflow="visible"
         id="id-799d9f37-4fbf-4907-be50-0256793730a2-2">
        <path
           style="stroke:none;stroke-width:0"
           d=""
           id="id-0bca59f8-b759-41f1-9f19-ed4fb83655c5-3" />
      </symbol>
      <symbol
         overflow="visible"
         id="id-4410c88d-2345-4da6-a865-30764a90c4a4-7">
        <path
           style="stroke:none;stroke-width:0"
           d="m 5.515625,-2.34375 c 0,-0.6875 -0.34375,-1.03125 -0.484375,-1.171875 C 4.796875,-3.734375 4.640625,-3.78125 3.765625,-4 L 3.09375,-4.1875 c -0.265625,-0.09375 -0.609375,-0.375 -0.609375,-0.90625 0,-0.8125 0.796875,-1.65625 1.75,-1.65625 0.8125,0 1.421875,0.4375 1.421875,1.546875 0,0.3125 -0.03125,0.5 -0.03125,0.5625 0,0 0,0.09375 0.109375,0.09375 0.109375,0 0.125,-0.03125 0.15625,-0.203125 L 6.4375,-6.921875 c 0,-0.03125 -0.03125,-0.109375 -0.125,-0.109375 -0.046875,0 -0.046875,0.015625 -0.171875,0.15625 L 5.65625,-6.3125 c -0.25,-0.46875 -0.765625,-0.71875 -1.421875,-0.71875 -1.265625,0 -2.453125,1.15625 -2.453125,2.359375 0,0.796875 0.515625,1.265625 1.03125,1.40625 l 1.0625,0.28125 c 0.375,0.09375 0.921875,0.25 0.921875,1.0625 0,0.890625 -0.8125,1.828125 -1.796875,1.828125 -0.640625,0 -1.75,-0.21875 -1.75,-1.453125 0,-0.234375 0.0625,-0.484375 0.0625,-0.53125 C 1.328125,-2.125 1.328125,-2.15625 1.328125,-2.15625 c 0,-0.09375 -0.0625,-0.109375 -0.109375,-0.109375 -0.046875,0 -0.078125,0.015625 -0.109375,0.046875 -0.03125,0.03125 -0.59375,2.3125 -0.59375,2.34375 0,0.046875 0.046875,0.09375 0.109375,0.09375 0.046875,0 0.0625,-0.015625 0.1875,-0.15625 L 1.296875,-0.5 c 0.421875,0.578125 1.109375,0.71875 1.6875,0.71875 1.359375,0 2.53125,-1.328125 2.53125,-2.5625 z m 0,0"
           id="id-86f2eb54-2f23-4fca-9aea-e0854c6dd748-5" />
      </symbol>
    </g>
    <g
       id="id-ad5b7c2c-15a8-431b-9a08-3e5d4110d651-3">
      <symbol
         overflow="visible"
         id="id-ba0850d0-a0ee-4544-a22b-b7a9dfdee12b-6">
        <path
           style="stroke:none"
           d=""
           id="id-da2ac1f3-f96b-4a7c-b316-d07b8fb0cc77-1" />
      </symbol>
      <symbol
         overflow="visible"
         id="id-d11e41e1-5648-4f5e-ac5c-fed32e603ec0-2">
        <path
           style="stroke:none"
           d="m 8.78125,-6.703125 c 0,0 0,-0.109375 -0.125,-0.109375 -0.328125,0 -0.6875,0.03125 -1.015625,0.03125 -0.328125,0 -0.6875,-0.03125 -1.015625,-0.03125 -0.0625,0 -0.171875,0 -0.171875,0.203125 C 6.453125,-6.5 6.546875,-6.5 6.625,-6.5 c 0.578125,0.015625 0.6875,0.21875 0.6875,0.4375 0,0.03125 -0.03125,0.1875 -0.03125,0.203125 l -1.125,4.4375 L 3.953125,-6.625 C 3.875,-6.796875 3.875,-6.8125 3.640625,-6.8125 h -1.34375 c -0.1875,0 -0.28125,0 -0.28125,0.203125 0,0.109375 0.09375,0.109375 0.28125,0.109375 0.046875,0 0.671875,0 0.671875,0.09375 L 1.640625,-1.0625 c -0.109375,0.40625 -0.28125,0.71875 -1.078125,0.75 -0.0625,0 -0.171875,0.015625 -0.171875,0.203125 0,0.0625 0.046875,0.109375 0.125,0.109375 0.328125,0 0.671875,-0.03125 1,-0.03125 C 1.859375,-0.03125 2.21875,0 2.546875,0 2.59375,0 2.71875,0 2.71875,-0.203125 2.71875,-0.296875 2.625,-0.3125 2.515625,-0.3125 1.9375,-0.328125 1.859375,-0.546875 1.859375,-0.75 c 0,-0.0625 0.015625,-0.125 0.046875,-0.234375 l 1.3125,-5.25 C 3.265625,-6.1875 3.265625,-6.15625 3.3125,-6.0625 l 2.484375,5.875 C 5.859375,-0.015625 5.890625,0 5.984375,0 6.09375,0 6.09375,-0.03125 6.140625,-0.203125 l 1.390625,-5.5625 C 7.640625,-6.15625 7.8125,-6.46875 8.609375,-6.5 8.65625,-6.5 8.78125,-6.515625 8.78125,-6.703125 Z m 0,0"
           id="id-c58e4041-558c-49cc-9af8-6c46cf659e7b-9" />
      </symbol>
    </g>
    <g
       id="id-4dcaaccc-2f88-4f8c-94cc-7836ae58d896-4">
      <symbol
         overflow="visible"
         id="id-27203448-9781-4b4f-9a60-c76c205189ea-5">
        <path
           style="stroke:none;stroke-width:0"
           d=""
           id="id-47a71a1b-fad2-457b-aa5f-895ee307c3b2-0" />
      </symbol>
      <symbol
         overflow="visible"
         id="id-5d7dbfaf-1589-455b-9155-85c167daa0e5-3">
        <path
           style="stroke:none;stroke-width:0"
           d="m 6.734375,-4.375 -0.3125,-2.40625 H 0.390625 V -6.3125 H 1.46875 v 5.84375 H 0.390625 V 0 c 0.375,-0.03125 1.390625,-0.03125 1.828125,-0.03125 0.484375,0 1.5625,0 2.015625,0.03125 V -0.46875 H 2.875 v -2.6875 h 0.5 c 0.96875,0 1.046875,0.421875 1.046875,1.15625 h 0.46875 V -4.796875 H 4.421875 C 4.421875,-4.0625 4.34375,-3.625 3.375,-3.625 h -0.5 v -2.6875 h 1.40625 c 1.59375,0 1.828125,0.765625 1.984375,1.9375 z m 0,0"
           id="id-05e9d430-357d-4ea9-812f-da76765dd256-6" />
      </symbol>
    </g>
  </defs>
  <sodipodi:namedview
     id="base"
     pagecolor="#ffffff"
     bordercolor="#666666"
     borderopacity="1.0"
     inkscape:pageopacity="0.0"
     inkscape:pageshadow="2"
     inkscape:zoom="3.3779202"
     inkscape:cx="275.46536"
     inkscape:cy="254.44651"
     inkscape:document-units="px"
     inkscape:current-layer="layer1"
     showgrid="false"
     showguides="true"
     inkscape:guide-bbox="true"
     inkscape:window-width="1920"
     inkscape:window-height="1026"
     inkscape:window-x="0"
     inkscape:window-y="0"
     inkscape:window-maximized="1"
     inkscape:pagecheckerboard="0"
     inkscape:showpageshadow="2"
     inkscape:deskcolor="#d1d1d1">
    <sodipodi:guide
       position="428.79564,823.67121"
       orientation="1,0"
       id="guide423"
       inkscape:locked="false" />
  </sodipodi:namedview>
  <metadata
     id="metadata7">
    <rdf:RDF>
      <cc:Work
         rdf:about="">
        <dc:format>image/svg+xml</dc:format>
        <dc:type
           rdf:resource="http://purl.org/dc/dcmitype/StillImage" />
      </cc:Work>
    </rdf:RDF>
  </metadata>
  <g
     inkscape:label="Capa 1"
     inkscape:groupmode="layer"
     id="layer1">
    <path
       inkscape:connector-curvature="0"
       id="path4184"
       d="M 78.673695,236.66081 H 423.32903"
       style="fill:none;fill-rule:evenodd;stroke:#0000ff;stroke-width:1.06299213;stroke-linecap:butt;stroke-linejoin:miter;stroke-miterlimit:4;stroke-dasharray:none;stroke-opacity:1;marker-end:url(#marker8386)" />
    <path
       inkscape:connector-curvature="0"
       id="path4184-3"
       d="M 77.490767,333.86355 H 423.32875"
       style="fill:none;fill-rule:evenodd;stroke:#0000ff;stroke-width:1.06299213;stroke-linecap:butt;stroke-linejoin:miter;stroke-miterlimit:4;stroke-dasharray:none;stroke-opacity:1;marker-end:url(#marker8696)" />
    <path
       inkscape:connector-curvature="0"
       id="path4184-2"
       d="M 77.022523,142.49981 H 423.32863"
       style="fill:none;fill-rule:evenodd;stroke:#0000ff;stroke-width:1.06299213;stroke-linecap:butt;stroke-linejoin:miter;stroke-miterlimit:4;stroke-dasharray:none;stroke-opacity:1;marker-end:url(#Arrow1L)" />
    <path
       sodipodi:nodetypes="ccccc"
       inkscape:connector-curvature="0"
       id="path1285-6"
       d="m 330.37526,214.61797 2.34236,-16.39656 -13.36016,-22.12233 -2.34236,16.39656 z"
       style="vector-effect:none;fill:#0000ff;fill-opacity:1;fill-rule:evenodd;stroke:#000000;stroke-width:0.9375px;stroke-linecap:butt;stroke-linejoin:miter;stroke-miterlimit:4;stroke-dasharray:none;stroke-dashoffset:0;stroke-opacity:1" />
    <path
       sodipodi:nodetypes="ccccc"
       inkscape:connector-curvature="0"
       id="path1285-6-7"
       d="m 189.55697,296.00524 2.34236,-16.39656 -13.36016,-22.12233 -2.34236,16.39656 z"
       style="vector-effect:none;fill:#ff0000;fill-opacity:1;fill-rule:evenodd;stroke:#000000;stroke-width:0.9375px;stroke-linecap:butt;stroke-linejoin:miter;stroke-miterlimit:4;stroke-dasharray:none;stroke-dashoffset:0;stroke-opacity:1" />
    <path
       inkscape:connector-curvature="0"
       id="path1332"
       d="M 176.19681,273.88291 317.0151,192.49564"
       style="vector-effect:none;fill:none;fill-opacity:1;fill-rule:evenodd;stroke:#000000;stroke-width:0.9375px;stroke-linecap:butt;stroke-linejoin:miter;stroke-miterlimit:4;stroke-dasharray:none;stroke-dashoffset:0;stroke-opacity:1" />
    <path
       inkscape:connector-curvature="0"
       id="path1332-5"
       d="m 189.55696,296.00525 140.8183,-81.38728"
       style="vector-effect:none;fill:none;fill-opacity:1;fill-rule:evenodd;stroke:#000000;stroke-width:0.9375px;stroke-linecap:butt;stroke-linejoin:miter;stroke-miterlimit:4;stroke-dasharray:none;stroke-dashoffset:0;stroke-opacity:1" />
    <path
       inkscape:connector-curvature="0"
       id="path1332-3"
       d="m 178.53916,257.48635 140.8183,-81.38727"
       style="vector-effect:none;fill:none;fill-opacity:1;fill-rule:evenodd;stroke:#000000;stroke-width:0.9375px;stroke-linecap:butt;stroke-linejoin:miter;stroke-miterlimit:4;stroke-dasharray:none;stroke-dashoffset:0;stroke-opacity:1" />
    <path
       sodipodi:nodetypes="ccccc"
       inkscape:connector-curvature="0"
       id="path1285-6-2"
       d="m 259.65404,255.38597 2.34236,-16.39656 -13.36016,-22.12233 -2.34236,16.39656 z"
       style="vector-effect:none;fill:none;fill-opacity:1;fill-rule:evenodd;stroke:#000000;stroke-width:0.9375px;stroke-linecap:butt;stroke-linejoin:miter;stroke-miterlimit:4;stroke-dasharray:none;stroke-dashoffset:0;stroke-opacity:1" />
    <path
       inkscape:connector-curvature="0"
       id="path1376"
       d="m 246.29388,233.26364 70.72122,-40.768 2.34236,-16.39656 -70.72122,40.768 z"
       style="vector-effect:none;fill:#0000ff;fill-opacity:1;fill-rule:evenodd;stroke:#000000;stroke-width:0.9375px;stroke-linecap:butt;stroke-linejoin:miter;stroke-miterlimit:4;stroke-dasharray:none;stroke-dashoffset:0;stroke-opacity:1" />
    <path
       inkscape:connector-curvature="0"
       id="path1378"
       d="m 246.29388,233.26364 13.36016,22.12233 70.72122,-40.768 -13.36016,-22.12233 z"
       style="vector-effect:none;fill:#0000ff;fill-opacity:1;fill-rule:evenodd;stroke:#000000;stroke-width:0.9375px;stroke-linecap:butt;stroke-linejoin:miter;stroke-miterlimit:4;stroke-dasharray:none;stroke-dashoffset:0;stroke-opacity:1" />
    <path
       inkscape:connector-curvature="0"
       id="path1380"
       d="m 259.65404,255.38597 -13.36016,-22.12233 -70.09707,40.61927 13.36016,22.12233 z"
       style="vector-effect:none;fill:#ff0000;fill-opacity:1;fill-rule:evenodd;stroke:#000000;stroke-width:0.9375px;stroke-linecap:butt;stroke-linejoin:miter;stroke-miterlimit:4;stroke-dasharray:none;stroke-dashoffset:0;stroke-opacity:1" />
    <path
       inkscape:connector-curvature="0"
       id="path1332-56"
       d="m 191.89932,279.60868 140.8183,-81.38727"
       style="vector-effect:none;fill:none;fill-opacity:1;fill-rule:evenodd;stroke:#000000;stroke-width:0.9375;stroke-linecap:butt;stroke-linejoin:miter;stroke-miterlimit:4;stroke-dasharray:0.9375, 0.9375;stroke-dashoffset:0;stroke-opacity:1" />
    <path
       inkscape:connector-curvature="0"
       id="path1382"
       d="m 176.19681,273.88291 70.09707,-40.61927 2.34236,-16.39656 -70.09707,40.61927 z"
       style="vector-effect:none;fill:#ff0000;fill-opacity:1;fill-rule:evenodd;stroke:#000000;stroke-width:0.9375px;stroke-linecap:butt;stroke-linejoin:miter;stroke-miterlimit:4;stroke-dasharray:none;stroke-dashoffset:0;stroke-opacity:1" />
    <path
       inkscape:connector-curvature="0"
       id="path1397"
       d="m 189.55697,296.00524 2.34236,-16.39656 -13.36016,-22.12233"
       style="vector-effect:none;fill:none;fill-opacity:1;fill-rule:evenodd;stroke:#000000;stroke-width:0.9375;stroke-linecap:butt;stroke-linejoin:miter;stroke-miterlimit:4;stroke-dasharray:0.9375, 0.9375;stroke-dashoffset:0;stroke-opacity:1" />
    <path
       inkscape:connector-curvature="0"
       id="path1397-9"
       d="m 259.65404,255.38597 2.34236,-16.39656 -13.36016,-22.12233"
       style="vector-effect:none;fill:none;fill-opacity:1;fill-rule:evenodd;stroke:#000000;stroke-width:0.9375;stroke-linecap:butt;stroke-linejoin:miter;stroke-miterlimit:4;stroke-dasharray:0.9375, 0.9375;stroke-dashoffset:0;stroke-opacity:1" />
    <path
       inkscape:connector-curvature="0"
       id="path4184-2-7"
       d="m 324.4866,195.22716 h 67.01912"
       style="fill:none;fill-rule:evenodd;stroke:#000000;stroke-width:1.41732;stroke-linecap:butt;stroke-linejoin:miter;stroke-miterlimit:4;stroke-dasharray:none;stroke-opacity:1;marker-end:url(#marker6405-6)" />
    <path
       inkscape:connector-curvature="0"
       id="path4184-2-7-3"
       d="M 178.00745,276.8524 117.17351,276.732"
       style="fill:none;fill-rule:evenodd;stroke:#000000;stroke-width:1.41732;stroke-linecap:butt;stroke-linejoin:miter;stroke-miterlimit:4;stroke-dasharray:none;stroke-opacity:1;marker-end:url(#marker6405)"
       sodipodi:nodetypes="cc" />
    <path
       inkscape:connector-curvature="0"
       id="path2550"
       d="m 319.35746,176.09908 -3.70629,-5.9816"
       style="vector-effect:none;fill:none;fill-opacity:1;fill-rule:evenodd;stroke:#000000;stroke-width:0.494608px;stroke-linecap:butt;stroke-linejoin:miter;stroke-miterlimit:4;stroke-dasharray:none;stroke-dashoffset:0;stroke-opacity:1" />
    <path
       inkscape:connector-curvature="0"
       id="path2550-1"
       d="m 178.53916,257.48635 -3.70629,-5.9816"
       style="vector-effect:none;fill:none;fill-opacity:1;fill-rule:evenodd;stroke:#000000;stroke-width:0.494608px;stroke-linecap:butt;stroke-linejoin:miter;stroke-miterlimit:4;stroke-dasharray:none;stroke-dashoffset:0;stroke-opacity:1" />
    <path
       inkscape:connector-curvature="0"
       id="path2582"
       d="M 174.83288,251.50475 315.65117,170.11748"
       style="vector-effect:none;fill:none;fill-opacity:1;fill-rule:evenodd;stroke:#000000;stroke-width:0.531496;stroke-linecap:butt;stroke-linejoin:miter;stroke-miterlimit:4;stroke-dasharray:none;stroke-dashoffset:0;stroke-opacity:1;marker-start:url(#marker7739);marker-end:url(#marker6608)" />
    <path
       style="fill:none;fill-rule:evenodd;stroke:#000000;stroke-width:0.9992126;stroke-linecap:butt;stroke-linejoin:miter;stroke-opacity:1;stroke-miterlimit:4;stroke-dasharray:0.9992126,0.9992126;stroke-dashoffset:0"
       d="m 184.19264,276.732 -6.18519,0.12039"
       id="path8531" />
    <g
       transform="matrix(1.9010782,0,0,1.9010782,430.29069,135.98557)"
       ns1:version="1.8.2"
       ns1:texconverter="pdflatex"
       ns1:pdfconverter="inkscape"
       ns1:text="$\\vec{B}$"
       ns1:preamble="/media/topo/TOSEXT4/doctorado/upm/docencia/libros-apuntes/apuntes-fisica/figuras/TexText/preambulo_textext.tex"
       ns1:scale="1.0"
       ns1:alignment="middle center"
       ns1:stroke-to-path="0"
       ns1:inkscapeversion="1.1.1"
       ns1:jacobian_sqrt="1.33333"
       id="g2913"
       style="fill:#0000ff">
      <defs
         id="id-1fb5bfc3-c33f-4d53-b63c-ccaea0ca20c3">
        <g
           id="id-98aff169-6dcd-440c-8677-56a33b119c6a">
          <symbol
             overflow="visible"
             id="id-8184eb6e-df7d-4bc6-a3bd-df479864faae">
            <path
               style="stroke:none;stroke-width:0"
               d=""
               id="id-43db548e-6c7e-40d0-8ad3-69c4e2567709" />
          </symbol>
          <symbol
             overflow="visible"
             id="id-73ea6a92-7984-46d0-b434-6c370ed8ceb1">
            <path
               style="stroke:none;stroke-width:0"
               d="M 7.5,-1.859375 C 7.5,-2.8125 6.65625,-3.484375 5.46875,-3.5625 6.546875,-3.765625 7.1875,-4.359375 7.1875,-5.125 c 0,-0.921875 -0.875,-1.71875 -2.46875,-1.71875 H 0.390625 V -6.375 H 1.46875 v 5.90625 H 0.390625 V 0 h 4.625 C 6.671875,0 7.5,-0.875 7.5,-1.859375 Z M 5.765625,-5.125 c 0,0.765625 -0.46875,1.390625 -1.4375,1.390625 h -1.5625 V -6.375 h 1.8125 c 1.015625,0 1.1875,0.796875 1.1875,1.25 z m 0.28125,3.265625 c 0,0.109375 0,1.390625 -1.4375,1.390625 H 2.765625 V -3.375 h 1.9375 c 0.203125,0 0.671875,0 1.015625,0.421875 0.328125,0.421875 0.328125,0.984375 0.328125,1.09375 z m 0,0"
               id="id-fdd1669c-7445-49be-892e-b3708f3d19eb" />
          </symbol>
        </g>
      </defs>
      <g
         id="id-c18f07b6-d707-458e-8531-d0c16bfefa35"
         transform="translate(-149.103,-127.921)"
         style="fill:#0000ff">
        <g
           style="fill:#0000ff;fill-opacity:1"
           id="id-155a67fb-1809-4e73-886f-a2da0df53029">
          <g
             transform="translate(148.712,134.765)"
             id="g2909"
             style="fill:#0000ff">
            <path
               style="fill:#0000ff;stroke:none;stroke-width:0"
               d="M 7.5,-1.859375 C 7.5,-2.8125 6.65625,-3.484375 5.46875,-3.5625 6.546875,-3.765625 7.1875,-4.359375 7.1875,-5.125 c 0,-0.921875 -0.875,-1.71875 -2.46875,-1.71875 H 0.390625 V -6.375 H 1.46875 v 5.90625 H 0.390625 V 0 h 4.625 C 6.671875,0 7.5,-0.875 7.5,-1.859375 Z M 5.765625,-5.125 c 0,0.765625 -0.46875,1.390625 -1.4375,1.390625 h -1.5625 V -6.375 h 1.8125 c 1.015625,0 1.1875,0.796875 1.1875,1.25 z m 0.28125,3.265625 c 0,0.109375 0,1.390625 -1.4375,1.390625 H 2.765625 V -3.375 h 1.9375 c 0.203125,0 0.671875,0 1.015625,0.421875 0.328125,0.421875 0.328125,0.984375 0.328125,1.09375 z m 0,0"
               id="id-c222f0d0-529a-404f-b60c-c3ed578addd1" />
          </g>
        </g>
      </g>
    </g>
    <g
       transform="matrix(1.9010782,0,0,1.9010782,430.29069,230.14657)"
       ns1:version="1.8.2"
       ns1:texconverter="pdflatex"
       ns1:pdfconverter="inkscape"
       ns1:text="$\\vec{B}$"
       ns1:preamble="/media/topo/TOSEXT4/doctorado/upm/docencia/libros-apuntes/apuntes-fisica/figuras/TexText/preambulo_textext.tex"
       ns1:scale="1.0"
       ns1:alignment="middle center"
       ns1:stroke-to-path="0"
       ns1:inkscapeversion="1.1.1"
       ns1:jacobian_sqrt="1.33333"
       id="g2913-3"
       style="fill:#0000ff">
      <defs
         id="id-1fb5bfc3-c33f-4d53-b63c-ccaea0ca20c3-6">
        <g
           id="g3534">
          <symbol
             overflow="visible"
             id="symbol3528">
            <path
               style="stroke:none;stroke-width:0"
               d=""
               id="path3526" />
          </symbol>
          <symbol
             overflow="visible"
             id="symbol3532">
            <path
               style="stroke:none;stroke-width:0"
               d="M 7.5,-1.859375 C 7.5,-2.8125 6.65625,-3.484375 5.46875,-3.5625 6.546875,-3.765625 7.1875,-4.359375 7.1875,-5.125 c 0,-0.921875 -0.875,-1.71875 -2.46875,-1.71875 H 0.390625 V -6.375 H 1.46875 v 5.90625 H 0.390625 V 0 h 4.625 C 6.671875,0 7.5,-0.875 7.5,-1.859375 Z M 5.765625,-5.125 c 0,0.765625 -0.46875,1.390625 -1.4375,1.390625 h -1.5625 V -6.375 h 1.8125 c 1.015625,0 1.1875,0.796875 1.1875,1.25 z m 0.28125,3.265625 c 0,0.109375 0,1.390625 -1.4375,1.390625 H 2.765625 V -3.375 h 1.9375 c 0.203125,0 0.671875,0 1.015625,0.421875 0.328125,0.421875 0.328125,0.984375 0.328125,1.09375 z m 0,0"
               id="path3530" />
          </symbol>
        </g>
      </defs>
      <g
         id="id-c18f07b6-d707-458e-8531-d0c16bfefa35-2"
         transform="translate(-149.103,-127.921)"
         style="fill:#0000ff">
        <g
           style="fill:#0000ff;fill-opacity:1"
           id="id-155a67fb-1809-4e73-886f-a2da0df53029-9">
          <g
             transform="translate(148.712,134.765)"
             id="g2909-1"
             style="fill:#0000ff">
            <path
               style="fill:#0000ff;stroke:none;stroke-width:0"
               d="M 7.5,-1.859375 C 7.5,-2.8125 6.65625,-3.484375 5.46875,-3.5625 6.546875,-3.765625 7.1875,-4.359375 7.1875,-5.125 c 0,-0.921875 -0.875,-1.71875 -2.46875,-1.71875 H 0.390625 V -6.375 H 1.46875 v 5.90625 H 0.390625 V 0 h 4.625 C 6.671875,0 7.5,-0.875 7.5,-1.859375 Z M 5.765625,-5.125 c 0,0.765625 -0.46875,1.390625 -1.4375,1.390625 h -1.5625 V -6.375 h 1.8125 c 1.015625,0 1.1875,0.796875 1.1875,1.25 z m 0.28125,3.265625 c 0,0.109375 0,1.390625 -1.4375,1.390625 H 2.765625 V -3.375 h 1.9375 c 0.203125,0 0.671875,0 1.015625,0.421875 0.328125,0.421875 0.328125,0.984375 0.328125,1.09375 z m 0,0"
               id="id-c222f0d0-529a-404f-b60c-c3ed578addd1-2" />
          </g>
        </g>
      </g>
    </g>
    <g
       transform="matrix(1.9010782,0,0,1.9010782,430.29069,327.34931)"
       ns1:version="1.8.2"
       ns1:texconverter="pdflatex"
       ns1:pdfconverter="inkscape"
       ns1:text="$\\vec{B}$"
       ns1:preamble="/media/topo/TOSEXT4/doctorado/upm/docencia/libros-apuntes/apuntes-fisica/figuras/TexText/preambulo_textext.tex"
       ns1:scale="1.0"
       ns1:alignment="middle center"
       ns1:stroke-to-path="0"
       ns1:inkscapeversion="1.1.1"
       ns1:jacobian_sqrt="1.33333"
       id="g2913-7"
       style="fill:#0000ff">
      <defs
         id="id-1fb5bfc3-c33f-4d53-b63c-ccaea0ca20c3-0">
        <g
           id="g3687">
          <symbol
             overflow="visible"
             id="symbol3681">
            <path
               style="stroke:none;stroke-width:0"
               d=""
               id="path3679" />
          </symbol>
          <symbol
             overflow="visible"
             id="symbol3685">
            <path
               style="stroke:none;stroke-width:0"
               d="M 7.5,-1.859375 C 7.5,-2.8125 6.65625,-3.484375 5.46875,-3.5625 6.546875,-3.765625 7.1875,-4.359375 7.1875,-5.125 c 0,-0.921875 -0.875,-1.71875 -2.46875,-1.71875 H 0.390625 V -6.375 H 1.46875 v 5.90625 H 0.390625 V 0 h 4.625 C 6.671875,0 7.5,-0.875 7.5,-1.859375 Z M 5.765625,-5.125 c 0,0.765625 -0.46875,1.390625 -1.4375,1.390625 h -1.5625 V -6.375 h 1.8125 c 1.015625,0 1.1875,0.796875 1.1875,1.25 z m 0.28125,3.265625 c 0,0.109375 0,1.390625 -1.4375,1.390625 H 2.765625 V -3.375 h 1.9375 c 0.203125,0 0.671875,0 1.015625,0.421875 0.328125,0.421875 0.328125,0.984375 0.328125,1.09375 z m 0,0"
               id="path3683" />
          </symbol>
        </g>
      </defs>
      <g
         id="id-c18f07b6-d707-458e-8531-d0c16bfefa35-6"
         transform="translate(-149.103,-127.921)"
         style="fill:#0000ff">
        <g
           style="fill:#0000ff;fill-opacity:1"
           id="id-155a67fb-1809-4e73-886f-a2da0df53029-1">
          <g
             transform="translate(148.712,134.765)"
             id="g2909-8"
             style="fill:#0000ff">
            <path
               style="fill:#0000ff;stroke:none;stroke-width:0"
               d="M 7.5,-1.859375 C 7.5,-2.8125 6.65625,-3.484375 5.46875,-3.5625 6.546875,-3.765625 7.1875,-4.359375 7.1875,-5.125 c 0,-0.921875 -0.875,-1.71875 -2.46875,-1.71875 H 0.390625 V -6.375 H 1.46875 v 5.90625 H 0.390625 V 0 h 4.625 C 6.671875,0 7.5,-0.875 7.5,-1.859375 Z M 5.765625,-5.125 c 0,0.765625 -0.46875,1.390625 -1.4375,1.390625 h -1.5625 V -6.375 h 1.8125 c 1.015625,0 1.1875,0.796875 1.1875,1.25 z m 0.28125,3.265625 c 0,0.109375 0,1.390625 -1.4375,1.390625 H 2.765625 V -3.375 h 1.9375 c 0.203125,0 0.671875,0 1.015625,0.421875 0.328125,0.421875 0.328125,0.984375 0.328125,1.09375 z m 0,0"
               id="id-c222f0d0-529a-404f-b60c-c3ed578addd1-7" />
          </g>
        </g>
      </g>
    </g>
    <g
       transform="matrix(1.9458269,0,0,1.9458269,165.88731,282.11255)"
       ns1:version="1.8.2"
       ns1:texconverter="pdflatex"
       ns1:pdfconverter="inkscape"
       ns1:text="$S$"
       ns1:preamble="/media/topo/TOSEXT4/doctorado/upm/docencia/libros-apuntes/apuntes-fisica/figuras/TexText/preambulo_textext.tex"
       ns1:scale="1.0"
       ns1:alignment="middle center"
       ns1:stroke-to-path="0"
       ns1:inkscapeversion="1.1.1"
       ns1:jacobian_sqrt="1.33333"
       id="g4032">
      <defs
         id="id-f286a9fb-0674-4bc1-8a34-c66c010394e5">
        <g
           id="id-374eda7f-c129-450d-ab43-ea3be2dff765">
          <symbol
             overflow="visible"
             id="id-799d9f37-4fbf-4907-be50-0256793730a2">
            <path
               style="stroke:none;stroke-width:0"
               d=""
               id="id-0bca59f8-b759-41f1-9f19-ed4fb83655c5" />
          </symbol>
          <symbol
             overflow="visible"
             id="id-4410c88d-2345-4da6-a865-30764a90c4a4">
            <path
               style="stroke:none;stroke-width:0"
               d="m 5.515625,-2.34375 c 0,-0.6875 -0.34375,-1.03125 -0.484375,-1.171875 C 4.796875,-3.734375 4.640625,-3.78125 3.765625,-4 L 3.09375,-4.1875 c -0.265625,-0.09375 -0.609375,-0.375 -0.609375,-0.90625 0,-0.8125 0.796875,-1.65625 1.75,-1.65625 0.8125,0 1.421875,0.4375 1.421875,1.546875 0,0.3125 -0.03125,0.5 -0.03125,0.5625 0,0 0,0.09375 0.109375,0.09375 0.109375,0 0.125,-0.03125 0.15625,-0.203125 L 6.4375,-6.921875 c 0,-0.03125 -0.03125,-0.109375 -0.125,-0.109375 -0.046875,0 -0.046875,0.015625 -0.171875,0.15625 L 5.65625,-6.3125 c -0.25,-0.46875 -0.765625,-0.71875 -1.421875,-0.71875 -1.265625,0 -2.453125,1.15625 -2.453125,2.359375 0,0.796875 0.515625,1.265625 1.03125,1.40625 l 1.0625,0.28125 c 0.375,0.09375 0.921875,0.25 0.921875,1.0625 0,0.890625 -0.8125,1.828125 -1.796875,1.828125 -0.640625,0 -1.75,-0.21875 -1.75,-1.453125 0,-0.234375 0.0625,-0.484375 0.0625,-0.53125 C 1.328125,-2.125 1.328125,-2.15625 1.328125,-2.15625 c 0,-0.09375 -0.0625,-0.109375 -0.109375,-0.109375 -0.046875,0 -0.078125,0.015625 -0.109375,0.046875 -0.03125,0.03125 -0.59375,2.3125 -0.59375,2.34375 0,0.046875 0.046875,0.09375 0.109375,0.09375 0.046875,0 0.0625,-0.015625 0.1875,-0.15625 L 1.296875,-0.5 c 0.421875,0.578125 1.109375,0.71875 1.6875,0.71875 1.359375,0 2.53125,-1.328125 2.53125,-2.5625 z m 0,0"
               id="id-86f2eb54-2f23-4fca-9aea-e0854c6dd748" />
          </symbol>
        </g>
      </defs>
      <g
         id="id-3fff82ee-9486-433b-9b87-7818591bc979"
         transform="translate(-149.228,-127.734)">
        <g
           style="fill:#000000;fill-opacity:1"
           id="id-5c5588f9-2d7b-4019-8eca-9d9c234cef02">
          <g
             transform="translate(148.712,134.765)"
             id="g4028">
            <path
               style="stroke:none;stroke-width:0"
               d="m 5.515625,-2.34375 c 0,-0.6875 -0.34375,-1.03125 -0.484375,-1.171875 C 4.796875,-3.734375 4.640625,-3.78125 3.765625,-4 L 3.09375,-4.1875 c -0.265625,-0.09375 -0.609375,-0.375 -0.609375,-0.90625 0,-0.8125 0.796875,-1.65625 1.75,-1.65625 0.8125,0 1.421875,0.4375 1.421875,1.546875 0,0.3125 -0.03125,0.5 -0.03125,0.5625 0,0 0,0.09375 0.109375,0.09375 0.109375,0 0.125,-0.03125 0.15625,-0.203125 L 6.4375,-6.921875 c 0,-0.03125 -0.03125,-0.109375 -0.125,-0.109375 -0.046875,0 -0.046875,0.015625 -0.171875,0.15625 L 5.65625,-6.3125 c -0.25,-0.46875 -0.765625,-0.71875 -1.421875,-0.71875 -1.265625,0 -2.453125,1.15625 -2.453125,2.359375 0,0.796875 0.515625,1.265625 1.03125,1.40625 l 1.0625,0.28125 c 0.375,0.09375 0.921875,0.25 0.921875,1.0625 0,0.890625 -0.8125,1.828125 -1.796875,1.828125 -0.640625,0 -1.75,-0.21875 -1.75,-1.453125 0,-0.234375 0.0625,-0.484375 0.0625,-0.53125 C 1.328125,-2.125 1.328125,-2.15625 1.328125,-2.15625 c 0,-0.09375 -0.0625,-0.109375 -0.109375,-0.109375 -0.046875,0 -0.078125,0.015625 -0.109375,0.046875 -0.03125,0.03125 -0.59375,2.3125 -0.59375,2.34375 0,0.046875 0.046875,0.09375 0.109375,0.09375 0.046875,0 0.0625,-0.015625 0.1875,-0.15625 L 1.296875,-0.5 c 0.421875,0.578125 1.109375,0.71875 1.6875,0.71875 1.359375,0 2.53125,-1.328125 2.53125,-2.5625 z m 0,0"
               id="id-d9f8b7d8-15da-4279-bb55-2a31b23009a5" />
          </g>
        </g>
      </g>
    </g>
    <g
       transform="matrix(1.94583,0,0,1.94583,329.02815,172.57831)"
       ns1:version="1.8.2"
       ns1:texconverter="pdflatex"
       ns1:pdfconverter="inkscape"
       ns1:text="$N$"
       ns1:preamble="/media/topo/TOSEXT4/doctorado/upm/docencia/libros-apuntes/apuntes-fisica/figuras/TexText/preambulo_textext.tex"
       ns1:scale="1.4593738234345586"
       ns1:alignment="middle center"
       ns1:stroke-to-path="0"
       ns1:inkscapeversion="1.1.1"
       ns1:jacobian_sqrt="1.94583"
       id="g4032-9">
      <defs
         id="id-15c8d059-536b-4661-ab75-6706e7427625">
        <g
           id="id-ad5b7c2c-15a8-431b-9a08-3e5d4110d651">
          <symbol
             overflow="visible"
             id="id-ba0850d0-a0ee-4544-a22b-b7a9dfdee12b">
            <path
               style="stroke:none"
               d=""
               id="id-da2ac1f3-f96b-4a7c-b316-d07b8fb0cc77" />
          </symbol>
          <symbol
             overflow="visible"
             id="id-d11e41e1-5648-4f5e-ac5c-fed32e603ec0">
            <path
               style="stroke:none"
               d="m 8.78125,-6.703125 c 0,0 0,-0.109375 -0.125,-0.109375 -0.328125,0 -0.6875,0.03125 -1.015625,0.03125 -0.328125,0 -0.6875,-0.03125 -1.015625,-0.03125 -0.0625,0 -0.171875,0 -0.171875,0.203125 C 6.453125,-6.5 6.546875,-6.5 6.625,-6.5 c 0.578125,0.015625 0.6875,0.21875 0.6875,0.4375 0,0.03125 -0.03125,0.1875 -0.03125,0.203125 l -1.125,4.4375 L 3.953125,-6.625 C 3.875,-6.796875 3.875,-6.8125 3.640625,-6.8125 h -1.34375 c -0.1875,0 -0.28125,0 -0.28125,0.203125 0,0.109375 0.09375,0.109375 0.28125,0.109375 0.046875,0 0.671875,0 0.671875,0.09375 L 1.640625,-1.0625 c -0.109375,0.40625 -0.28125,0.71875 -1.078125,0.75 -0.0625,0 -0.171875,0.015625 -0.171875,0.203125 0,0.0625 0.046875,0.109375 0.125,0.109375 0.328125,0 0.671875,-0.03125 1,-0.03125 C 1.859375,-0.03125 2.21875,0 2.546875,0 2.59375,0 2.71875,0 2.71875,-0.203125 2.71875,-0.296875 2.625,-0.3125 2.515625,-0.3125 1.9375,-0.328125 1.859375,-0.546875 1.859375,-0.75 c 0,-0.0625 0.015625,-0.125 0.046875,-0.234375 l 1.3125,-5.25 C 3.265625,-6.1875 3.265625,-6.15625 3.3125,-6.0625 l 2.484375,5.875 C 5.859375,-0.015625 5.890625,0 5.984375,0 6.09375,0 6.09375,-0.03125 6.140625,-0.203125 l 1.390625,-5.5625 C 7.640625,-6.15625 7.8125,-6.46875 8.609375,-6.5 8.65625,-6.5 8.78125,-6.515625 8.78125,-6.703125 Z m 0,0"
               id="id-c58e4041-558c-49cc-9af8-6c46cf659e7b" />
          </symbol>
        </g>
      </defs>
      <g
         id="id-a86c9381-c8da-472d-91fb-0b9512f6468e"
         transform="translate(-149.103,-127.953)">
        <g
           style="fill:#000000;fill-opacity:1"
           id="id-e83ddc7c-ee9c-4197-aa5a-e2d7378f5636">
          <g
             transform="translate(148.712,134.765)"
             id="g4576">
            <path
               style="stroke:none"
               d="m 8.78125,-6.703125 c 0,0 0,-0.109375 -0.125,-0.109375 -0.328125,0 -0.6875,0.03125 -1.015625,0.03125 -0.328125,0 -0.6875,-0.03125 -1.015625,-0.03125 -0.0625,0 -0.171875,0 -0.171875,0.203125 C 6.453125,-6.5 6.546875,-6.5 6.625,-6.5 c 0.578125,0.015625 0.6875,0.21875 0.6875,0.4375 0,0.03125 -0.03125,0.1875 -0.03125,0.203125 l -1.125,4.4375 L 3.953125,-6.625 C 3.875,-6.796875 3.875,-6.8125 3.640625,-6.8125 h -1.34375 c -0.1875,0 -0.28125,0 -0.28125,0.203125 0,0.109375 0.09375,0.109375 0.28125,0.109375 0.046875,0 0.671875,0 0.671875,0.09375 L 1.640625,-1.0625 c -0.109375,0.40625 -0.28125,0.71875 -1.078125,0.75 -0.0625,0 -0.171875,0.015625 -0.171875,0.203125 0,0.0625 0.046875,0.109375 0.125,0.109375 0.328125,0 0.671875,-0.03125 1,-0.03125 C 1.859375,-0.03125 2.21875,0 2.546875,0 2.59375,0 2.71875,0 2.71875,-0.203125 2.71875,-0.296875 2.625,-0.3125 2.515625,-0.3125 1.9375,-0.328125 1.859375,-0.546875 1.859375,-0.75 c 0,-0.0625 0.015625,-0.125 0.046875,-0.234375 l 1.3125,-5.25 C 3.265625,-6.1875 3.265625,-6.15625 3.3125,-6.0625 l 2.484375,5.875 C 5.859375,-0.015625 5.890625,0 5.984375,0 6.09375,0 6.09375,-0.03125 6.140625,-0.203125 l 1.390625,-5.5625 C 7.640625,-6.15625 7.8125,-6.46875 8.609375,-6.5 8.65625,-6.5 8.78125,-6.515625 8.78125,-6.703125 Z m 0,0"
               id="id-eb52a6fd-85e8-48e9-a39f-577c02551219" />
          </g>
        </g>
      </g>
    </g>
    <g
       transform="matrix(1.94583,0,0,1.94583,232.76221,196.03349)"
       ns1:version="1.8.2"
       ns1:texconverter="pdflatex"
       ns1:pdfconverter="inkscape"
       ns1:text="$L$"
       ns1:preamble="/media/topo/TOSEXT4/doctorado/upm/docencia/libros-apuntes/apuntes-fisica/figuras/TexText/preambulo_textext.tex"
       ns1:scale="1.4593738234345586"
       ns1:alignment="middle center"
       ns1:stroke-to-path="0"
       ns1:inkscapeversion="1.1.1"
       ns1:jacobian_sqrt="1.94583"
       id="g4032-9-9">
      <defs
         id="id-822a563f-9d1a-4543-9522-cfaa48b79258">
        <g
           id="id-8137dde1-5419-4d8c-9371-df8f023bdf5b">
          <symbol
             overflow="visible"
             id="id-3cd900b1-0f06-4d7a-9d14-6c12bd7d0ad0">
            <path
               style="stroke:none"
               d=""
               id="id-06179910-deb7-42cf-bc5a-d7708f6016ca" />
          </symbol>
          <symbol
             overflow="visible"
             id="id-9262dd72-2373-4fc3-8624-5af10646d8fb">
            <path
               style="stroke:none"
               d="m 6.40625,-2.46875 c 0,-0.03125 -0.03125,-0.109375 -0.109375,-0.109375 -0.09375,0 -0.109375,0.0625 -0.171875,0.21875 -0.34375,0.90625 -0.78125,2.046875 -2.5,2.046875 H 2.6875 c -0.140625,0 -0.171875,0 -0.21875,0 -0.109375,-0.015625 -0.140625,-0.03125 -0.140625,-0.109375 0,-0.03125 0,-0.046875 0.046875,-0.21875 L 3.734375,-6.03125 C 3.8125,-6.390625 3.84375,-6.5 4.78125,-6.5 c 0.296875,0 0.375,0 0.375,-0.1875 0,-0.125 -0.109375,-0.125 -0.15625,-0.125 L 3.53125,-6.78125 2.203125,-6.8125 c -0.0625,0 -0.1875,0 -0.1875,0.203125 0,0.109375 0.09375,0.109375 0.28125,0.109375 0,0 0.203125,0 0.375,0.015625 0.171875,0.03125 0.265625,0.03125 0.265625,0.171875 0,0.03125 0,0.0625 -0.03125,0.1875 L 1.5625,-0.78125 c -0.09375,0.390625 -0.109375,0.46875 -0.90625,0.46875 -0.171875,0 -0.265625,0 -0.265625,0.203125 C 0.390625,0 0.484375,0 0.65625,0 h 4.625 C 5.515625,0 5.515625,0 5.578125,-0.171875 L 6.375,-2.328125 C 6.40625,-2.4375 6.40625,-2.46875 6.40625,-2.46875 Z m 0,0"
               id="id-46801bdc-462c-49f8-8749-84db6de45846" />
          </symbol>
        </g>
      </defs>
      <g
         id="id-a714e639-4f33-425c-bc53-be84a9230fa8"
         transform="translate(-149.103,-127.953)">
        <g
           style="fill:#000000;fill-opacity:1"
           id="id-6aa196bd-9c90-4c68-994c-0f16d5927a12">
          <g
             transform="translate(148.712,134.765)"
             id="g5155">
            <path
               style="stroke:none"
               d="m 6.40625,-2.46875 c 0,-0.03125 -0.03125,-0.109375 -0.109375,-0.109375 -0.09375,0 -0.109375,0.0625 -0.171875,0.21875 -0.34375,0.90625 -0.78125,2.046875 -2.5,2.046875 H 2.6875 c -0.140625,0 -0.171875,0 -0.21875,0 -0.109375,-0.015625 -0.140625,-0.03125 -0.140625,-0.109375 0,-0.03125 0,-0.046875 0.046875,-0.21875 L 3.734375,-6.03125 C 3.8125,-6.390625 3.84375,-6.5 4.78125,-6.5 c 0.296875,0 0.375,0 0.375,-0.1875 0,-0.125 -0.109375,-0.125 -0.15625,-0.125 L 3.53125,-6.78125 2.203125,-6.8125 c -0.0625,0 -0.1875,0 -0.1875,0.203125 0,0.109375 0.09375,0.109375 0.28125,0.109375 0,0 0.203125,0 0.375,0.015625 0.171875,0.03125 0.265625,0.03125 0.265625,0.171875 0,0.03125 0,0.0625 -0.03125,0.1875 L 1.5625,-0.78125 c -0.09375,0.390625 -0.109375,0.46875 -0.90625,0.46875 -0.171875,0 -0.265625,0 -0.265625,0.203125 C 0.390625,0 0.484375,0 0.65625,0 h 4.625 C 5.515625,0 5.515625,0 5.578125,-0.171875 L 6.375,-2.328125 C 6.40625,-2.4375 6.40625,-2.46875 6.40625,-2.46875 Z m 0,0"
               id="id-afc39ab5-bac0-497f-b801-f9f5e43a066f" />
          </g>
        </g>
      </g>
    </g>
    <g
       transform="matrix(1.94583,0,0,1.94583,395.69194,188.61645)"
       ns1:version="1.8.2"
       ns1:texconverter="pdflatex"
       ns1:pdfconverter="inkscape"
       ns1:text="$\\vec{F}$"
       ns1:preamble="/media/topo/TOSEXT4/doctorado/upm/docencia/libros-apuntes/apuntes-fisica/figuras/TexText/preambulo_textext.tex"
       ns1:scale="1.4593738234345586"
       ns1:alignment="middle center"
       ns1:stroke-to-path="0"
       ns1:inkscapeversion="1.1.1"
       ns1:jacobian_sqrt="1.94583"
       id="g5573">
      <defs
         id="id-20226b26-4843-4b47-b82e-be4dad2a79dd">
        <g
           id="id-4dcaaccc-2f88-4f8c-94cc-7836ae58d896">
          <symbol
             overflow="visible"
             id="id-27203448-9781-4b4f-9a60-c76c205189ea">
            <path
               style="stroke:none;stroke-width:0"
               d=""
               id="id-47a71a1b-fad2-457b-aa5f-895ee307c3b2" />
          </symbol>
          <symbol
             overflow="visible"
             id="id-5d7dbfaf-1589-455b-9155-85c167daa0e5">
            <path
               style="stroke:none;stroke-width:0"
               d="m 6.734375,-4.375 -0.3125,-2.40625 H 0.390625 V -6.3125 H 1.46875 v 5.84375 H 0.390625 V 0 c 0.375,-0.03125 1.390625,-0.03125 1.828125,-0.03125 0.484375,0 1.5625,0 2.015625,0.03125 V -0.46875 H 2.875 v -2.6875 h 0.5 c 0.96875,0 1.046875,0.421875 1.046875,1.15625 h 0.46875 V -4.796875 H 4.421875 C 4.421875,-4.0625 4.34375,-3.625 3.375,-3.625 h -0.5 v -2.6875 h 1.40625 c 1.59375,0 1.828125,0.765625 1.984375,1.9375 z m 0,0"
               id="id-05e9d430-357d-4ea9-812f-da76765dd256" />
          </symbol>
        </g>
      </defs>
      <g
         id="id-c3c8d8d7-10a3-49eb-a165-5364ab6809a7"
         transform="translate(-149.103,-127.984)">
        <g
           style="fill:#000000;fill-opacity:1"
           id="id-ff3ce3c6-5a78-4ef8-b12e-ac6ea73b5860">
          <g
             transform="translate(148.712,134.765)"
             id="g5569">
            <path
               style="stroke:none;stroke-width:0"
               d="m 6.734375,-4.375 -0.3125,-2.40625 H 0.390625 V -6.3125 H 1.46875 v 5.84375 H 0.390625 V 0 c 0.375,-0.03125 1.390625,-0.03125 1.828125,-0.03125 0.484375,0 1.5625,0 2.015625,0.03125 V -0.46875 H 2.875 v -2.6875 h 0.5 c 0.96875,0 1.046875,0.421875 1.046875,1.15625 h 0.46875 V -4.796875 H 4.421875 C 4.421875,-4.0625 4.34375,-3.625 3.375,-3.625 h -0.5 v -2.6875 h 1.40625 c 1.59375,0 1.828125,0.765625 1.984375,1.9375 z m 0,0"
               id="id-3b8fd54c-7f56-473a-b4cd-41d8616cfcf0" />
          </g>
        </g>
      </g>
    </g>
    <g
       transform="matrix(1.94583,0,0,1.94583,85.522416,270.15431)"
       ns1:version="1.8.2"
       ns1:texconverter="pdflatex"
       ns1:pdfconverter="inkscape"
       ns1:text="$-\\vec{F}$"
       ns1:preamble="/media/topo/TOSEXT4/doctorado/upm/docencia/libros-apuntes/apuntes-fisica/figuras/TexText/preambulo_textext.tex"
       ns1:scale="1.4593738234345586"
       ns1:alignment="middle center"
       ns1:stroke-to-path="0"
       ns1:inkscapeversion="1.1.1"
       ns1:jacobian_sqrt="1.94583"
       id="g5573-7">
      <defs
         id="id-62b2ed6a-c53e-405c-a77d-06c616b1cbdc">
        <g
           id="id-23e346a0-1ca9-41b1-8e17-eb2719b75f26">
          <symbol
             overflow="visible"
             id="id-64233c33-0ffe-4142-b33b-d1631f5734ca">
            <path
               style="stroke:none"
               d=""
               id="id-4fb157ac-0d67-478b-a61e-eff16fefad08" />
          </symbol>
          <symbol
             overflow="visible"
             id="id-db1210f6-c939-4508-81ff-e256e8c7292c">
            <path
               style="stroke:none"
               d="m 6.921875,-2.5 c 0,-0.1875 -0.1875,-0.1875 -0.328125,-0.1875 h -5.4375 c -0.140625,0 -0.328125,0 -0.328125,0.1875 0,0.203125 0.1875,0.203125 0.328125,0.203125 h 5.4375 c 0.140625,0 0.328125,0 0.328125,-0.203125 z m 0,0"
               id="id-9729fabd-4a0d-41c3-a198-78e8170df51f" />
          </symbol>
          <symbol
             overflow="visible"
             id="id-63d875e0-c127-4d52-ab12-2012536507ea">
            <path
               style="stroke:none"
               d=""
               id="id-3076df03-c250-4ebe-bddb-467b63376d4c" />
          </symbol>
          <symbol
             overflow="visible"
             id="id-d6d38fcb-b420-4d9d-b2ba-d7ea36955bec">
            <path
               style="stroke:none"
               d="m 6.734375,-4.375 -0.3125,-2.40625 H 0.390625 V -6.3125 H 1.46875 v 5.84375 H 0.390625 V 0 c 0.375,-0.03125 1.390625,-0.03125 1.828125,-0.03125 0.484375,0 1.5625,0 2.015625,0.03125 V -0.46875 H 2.875 v -2.6875 h 0.5 c 0.96875,0 1.046875,0.421875 1.046875,1.15625 h 0.46875 V -4.796875 H 4.421875 C 4.421875,-4.0625 4.34375,-3.625 3.375,-3.625 h -0.5 v -2.6875 h 1.40625 c 1.59375,0 1.828125,0.765625 1.984375,1.9375 z m 0,0"
               id="id-ecd1c495-e605-416d-aa8e-2bfdd62599ee" />
          </symbol>
        </g>
      </defs>
      <g
         id="id-dccd61da-25ac-4e43-9c76-c5c454735404"
         transform="translate(-149.54,-127.984)">
        <g
           style="fill:#000000;fill-opacity:1"
           id="id-2bdf0970-7655-4e41-8661-c09e2c727b33">
          <g
             transform="translate(148.712,134.765)"
             id="g7028">
            <path
               style="stroke:none"
               d="m 6.921875,-2.5 c 0,-0.1875 -0.1875,-0.1875 -0.328125,-0.1875 h -5.4375 c -0.140625,0 -0.328125,0 -0.328125,0.1875 0,0.203125 0.1875,0.203125 0.328125,0.203125 h 5.4375 c 0.140625,0 0.328125,0 0.328125,-0.203125 z m 0,0"
               id="id-41e9f333-59a1-4419-adf1-300d979ae361" />
          </g>
        </g>
        <g
           style="fill:#000000;fill-opacity:1"
           id="id-de7d2803-d490-4ca4-a107-76c22261cfd3">
          <g
             transform="translate(156.461,134.765)"
             id="g7032">
            <path
               style="stroke:none"
               d="m 6.734375,-4.375 -0.3125,-2.40625 H 0.390625 V -6.3125 H 1.46875 v 5.84375 H 0.390625 V 0 c 0.375,-0.03125 1.390625,-0.03125 1.828125,-0.03125 0.484375,0 1.5625,0 2.015625,0.03125 V -0.46875 H 2.875 v -2.6875 h 0.5 c 0.96875,0 1.046875,0.421875 1.046875,1.15625 h 0.46875 V -4.796875 H 4.421875 C 4.421875,-4.0625 4.34375,-3.625 3.375,-3.625 h -0.5 v -2.6875 h 1.40625 c 1.59375,0 1.828125,0.765625 1.984375,1.9375 z m 0,0"
               id="id-898ea548-e268-4535-a362-291a04e32364" />
          </g>
        </g>
      </g>
    </g>
  </g>
</svg>
